{
"skeleton": { "hash": "lnpVDZJcm75TG3XAJbnBRqoKhdQ", "spine": "3.6.53", "width": 245.88, "height": 225.46, "images": "./images/" },
"bones": [
	{ "name": "root" },
	{ "name": "X", "parent": "root", "length": 45.44, "y": -31.74 },
	{ "name": "Y", "parent": "X", "length": 43.67, "rotation": -90, "x": -0.2, "y": -0.02 },
	{ "name": "D5", "parent": "Y", "length": 60.56, "rotation": 179.02, "x": -49.74, "y": 0.13 },
	{ "name": "D6", "parent": "D5", "length": 37.37, "rotation": -52.66, "x": 30.12, "y": -22.54 },
	{ "name": "D7", "parent": "D5", "length": 40, "rotation": 47.4, "x": 26.43, "y": 22.13 },
	{ "name": "D8", "parent": "D5", "length": 11.64, "rotation": -179.02, "x": -0.1, "y": 0.03 },
	{ "name": "D5_L", "parent": "D7", "length": 26.58, "rotation": -46.42, "x": 43.32, "y": 1.93 },
	{ "name": "D5_R", "parent": "D6", "length": 23.09, "rotation": 53.64, "x": 39.2, "y": -0.04 },
	{ "name": "Lv2", "parent": "D5", "length": 22.42, "rotation": -88.41, "x": 82.86, "y": 0.72 },
	{ "name": "Lv3", "parent": "Lv2", "length": 24.25, "rotation": 89.4, "x": -0.38, "y": 25.02 }
],
"slots": [
	{ "name": "Lv1_R_01", "bone": "D5_R" },
	{ "name": "Lv1_L_01", "bone": "D5_L" },
	{ "name": "Lv3_2", "bone": "D8", "attachment": "Lv3_01" },
	{ "name": "D5_L", "bone": "D5_L", "attachment": "D5_L" },
	{ "name": "D5_R", "bone": "D5_R", "attachment": "D5_R" },
	{ "name": "D5", "bone": "D5", "attachment": "D5" },
	{ "name": "Lv2", "bone": "Lv2", "attachment": "Lv3" },
	{ "name": "Lv3_12", "bone": "Lv3", "attachment": "Lv3_11" }
],
"skins": {
	"default": {
		"D5": {
			"D5": { "x": 55.22, "y": 0.38, "rotation": -89.02, "width": 146, "height": 158 }
		},
		"Lv1_L_01": {
			"D5_L2": { "path": "D5_L", "x": 4.37, "y": -0.52, "rotation": -90, "width": 27, "height": 95 },
			"Lv1_L_1": { "path": "Lv1_L_01", "x": 1.95, "y": -0.95, "rotation": -90, "width": 58, "height": 126 },
			"Lv2_L_01": { "x": -4.61, "y": 2.18, "rotation": -90, "width": 75, "height": 147 },
			"Lv3_L_1": { "path": "Lv3_L_01", "x": 12.08, "y": 6.24, "rotation": -90, "width": 81, "height": 176 }
		},
		"Lv1_R_01": {
			"D5_R2": { "path": "D5_R", "x": 8.34, "y": 2.83, "rotation": -90, "width": 24, "height": 99 },
			"Lv1_R_1": { "path": "Lv1_R_01", "x": 4.28, "y": 1.08, "rotation": -90, "width": 58, "height": 126 },
			"Lv2_R_01": { "x": -2.28, "y": -1.79, "rotation": -90, "width": 75, "height": 147 },
			"Lv3_R_01": { "x": 14.28, "y": -6.86, "rotation": -90, "width": 81, "height": 176 }
		},
		"Lv2": {
			"Lv3": { "x": -0.15, "y": -32.24, "rotation": -0.6, "width": 102, "height": 189 },
			"Lv2_1": { "path": "Lv2", "x": -0.08, "y": -25.83, "rotation": -0.6, "width": 111, "height": 178 }
		},
		"Lv3_12": {
			"Lv3_12": { "path": "Lv3_11", "x": 20.29, "y": -0.6, "rotation": -90, "width": 102, "height": 55 }
		}
	},
	"Skin_Lv0": {
		"D5_L": {
			"D5_L": { "x": 4.37, "y": -0.52, "rotation": -90, "width": 27, "height": 95 }
		},
		"D5_R": {
			"D5_R": { "x": 8.34, "y": 2.83, "rotation": -90, "width": 24, "height": 99 }
		}
	},
	"Skin_Lv1": {
		"D5_L": {
			"D5_L": { "name": "Lv1_L_01", "x": 1.95, "y": -0.95, "rotation": -89.94, "width": 58, "height": 126 }
		},
		"D5_R": {
			"D5_R": { "name": "Lv1_R_01", "x": 4.28, "y": 1.08, "rotation": -90, "width": 58, "height": 126 }
		},
		"Lv2": {
			"Lv2": { "x": 0.51, "y": -26.52, "rotation": -0.6, "width": 111, "height": 178 }
		}
	},
	"Skin_Lv2": {
		"D5_L": {
			"D5_L": { "name": "Lv2_L_1", "path": "Lv2_L_01", "x": -4.61, "y": 2.18, "rotation": -90, "width": 75, "height": 147 }
		},
		"D5_R": {
			"D5_R": { "name": "Lv2_R_1", "path": "Lv2_R_01", "x": -2.28, "y": -1.79, "rotation": -90, "width": 75, "height": 147 }
		},
		"Lv2": {
			"Lv2": { "x": 0.51, "y": -26.52, "rotation": -0.6, "width": 111, "height": 178 }
		}
	},
	"Skin_Lv3": {
		"D5_L": {
			"D5_L": { "name": "Lv3_L_1", "path": "Lv3_L_01", "x": 12.08, "y": 6.24, "rotation": -90, "width": 81, "height": 176 }
		},
		"D5_R": {
			"D5_R": { "name": "Lv3_R_01", "x": 14.28, "y": -6.86, "rotation": -90, "width": 81, "height": 176 }
		},
		"Lv2": {
			"Lv2": { "name": "Lv4", "path": "Lv3", "x": -1.28, "y": -32.98, "rotation": -0.6, "width": 102, "height": 189 }
		},
		"Lv3_12": {
			"Lv3_11": { "x": 20.29, "y": -0.6, "rotation": -90, "width": 102, "height": 55 }
		},
		"Lv3_2": {
			"Lv3_01": { "x": 25.6, "y": -0.2, "rotation": 90, "width": 60, "height": 21 }
		}
	},
	"Skin_Lv4": {
		"D5_L": {
			"D5_L": { "name": "Lv4_L_01", "x": 0.23, "y": 14.08, "rotation": -90, "width": 107, "height": 224 }
		},
		"D5_R": {
			"D5_R": { "name": "Lv4_R_01", "x": 4.02, "y": -15.78, "rotation": -90, "width": 107, "height": 224 }
		},
		"Lv2": {
			"Lv2": { "name": "Lv4", "x": -1.36, "y": -39.53, "rotation": -0.6, "width": 133, "height": 198 }
		},
		"Lv3_12": {
			"Lv3_11": { "name": "Lv4_21", "x": 24.84, "y": -0.6, "rotation": -90, "width": 102, "height": 67 }
		},
		"Lv3_2": {
			"Lv3_01": { "x": 25.6, "y": -0.2, "rotation": 90, "width": 60, "height": 21 }
		}
	}
},
"animations": {
	"Idle_1": {
		"bones": {
			"X": {
				"rotate": [
					{ "time": 0, "angle": 0, "curve": "stepped" },
					{ "time": 0.5, "angle": 0, "curve": "stepped" },
					{ "time": 1.5, "angle": 0, "curve": "stepped" },
					{ "time": 2, "angle": 0 }
				],
				"translate": [
					{ "time": 0, "x": 0, "y": 0, "curve": "stepped" },
					{ "time": 0.5, "x": 0, "y": 0, "curve": "stepped" },
					{ "time": 1.5, "x": 0, "y": 0, "curve": "stepped" },
					{ "time": 2, "x": 0, "y": 0 }
				],
				"scale": [
					{ "time": 0, "x": 1, "y": 1, "curve": "stepped" },
					{ "time": 0.5, "x": 1, "y": 1, "curve": "stepped" },
					{ "time": 1.5, "x": 1, "y": 1, "curve": "stepped" },
					{ "time": 2, "x": 1, "y": 1 }
				]
			},
			"Y": {
				"rotate": [
					{ "time": 0, "angle": 0, "curve": "stepped" },
					{ "time": 2, "angle": 0 }
				],
				"translate": [
					{ "time": 0, "x": 0, "y": 0, "curve": "stepped" },
					{ "time": 2, "x": 0, "y": 0 }
				],
				"scale": [
					{ "time": 0, "x": 1, "y": 1, "curve": "stepped" },
					{ "time": 2, "x": 1, "y": 1 }
				]
			},
			"D5": {
				"rotate": [
					{ "time": 0, "angle": 0, "curve": "stepped" },
					{ "time": 0.5, "angle": 0, "curve": "stepped" },
					{ "time": 1.5, "angle": 0, "curve": "stepped" },
					{ "time": 2, "angle": 0 }
				],
				"translate": [
					{ "time": 0, "x": 0, "y": 0, "curve": "stepped" },
					{ "time": 0.5, "x": 0, "y": 0, "curve": "stepped" },
					{ "time": 1.5, "x": 0, "y": 0, "curve": "stepped" },
					{ "time": 2, "x": 0, "y": 0 }
				],
				"scale": [
					{ "time": 0, "x": 1, "y": 1, "curve": "stepped" },
					{ "time": 0.5, "x": 1, "y": 1, "curve": "stepped" },
					{ "time": 1.5, "x": 1, "y": 1, "curve": "stepped" },
					{ "time": 2, "x": 1, "y": 1 }
				]
			},
			"D6": {
				"rotate": [
					{ "time": 0, "angle": 0, "curve": "stepped" },
					{ "time": 0.5, "angle": 0, "curve": "stepped" },
					{ "time": 1.5, "angle": 0, "curve": "stepped" },
					{ "time": 2, "angle": 0 }
				],
				"translate": [
					{ "time": 0, "x": 0, "y": 0 },
					{ "time": 0.5, "x": 3.91, "y": 0.07 },
					{ "time": 1.5, "x": -3.91, "y": -0.07 },
					{ "time": 2, "x": 0, "y": 0 }
				],
				"scale": [
					{ "time": 0, "x": 1, "y": 1, "curve": "stepped" },
					{ "time": 0.5, "x": 1, "y": 1, "curve": "stepped" },
					{ "time": 1.5, "x": 1, "y": 1, "curve": "stepped" },
					{ "time": 2, "x": 1, "y": 1 }
				]
			},
			"D7": {
				"rotate": [
					{ "time": 0, "angle": 0, "curve": "stepped" },
					{ "time": 0.5, "angle": 0, "curve": "stepped" },
					{ "time": 1.5, "angle": 0, "curve": "stepped" },
					{ "time": 2, "angle": 0 }
				],
				"translate": [
					{ "time": 0, "x": 0, "y": 0 },
					{ "time": 0.5, "x": 3.91, "y": 0.07 },
					{ "time": 1.5, "x": -3.91, "y": -0.07 },
					{ "time": 2, "x": 0, "y": 0 }
				],
				"scale": [
					{ "time": 0, "x": 1, "y": 1, "curve": "stepped" },
					{ "time": 0.5, "x": 1, "y": 1, "curve": "stepped" },
					{ "time": 1.5, "x": 1, "y": 1, "curve": "stepped" },
					{ "time": 2, "x": 1, "y": 1 }
				]
			},
			"D5_R": {
				"rotate": [
					{ "time": 0, "angle": 0, "curve": "stepped" },
					{ "time": 2, "angle": 0 }
				],
				"translate": [
					{
						"time": 0,
						"x": 0,
						"y": 0,
						"curve": [ 0.25, 0, 0.75, 1 ]
					},
					{
						"time": 1,
						"x": 2.63,
						"y": -1.93,
						"curve": [ 0.25, 0, 0.75, 1 ]
					},
					{ "time": 2, "x": 0, "y": 0 }
				],
				"scale": [
					{ "time": 0, "x": 1, "y": 1, "curve": "stepped" },
					{ "time": 2, "x": 1, "y": 1 }
				]
			},
			"D5_L": {
				"rotate": [
					{ "time": 0, "angle": 0, "curve": "stepped" },
					{ "time": 2, "angle": 0 }
				],
				"translate": [
					{
						"time": 0,
						"x": 0,
						"y": 0,
						"curve": [ 0.25, 0, 0.75, 1 ]
					},
					{
						"time": 1,
						"x": 2.36,
						"y": 2.25,
						"curve": [ 0.25, 0, 0.75, 1 ]
					},
					{ "time": 2, "x": 0, "y": 0 }
				],
				"scale": [
					{ "time": 0, "x": 1, "y": 1, "curve": "stepped" },
					{ "time": 2, "x": 1, "y": 1 }
				]
			},
			"Lv2": {
				"rotate": [
					{ "time": 0, "angle": 0, "curve": "stepped" },
					{ "time": 0.5, "angle": 0, "curve": "stepped" },
					{ "time": 1.5, "angle": 0, "curve": "stepped" },
					{ "time": 2, "angle": 0 }
				],
				"translate": [
					{ "time": 0, "x": 0, "y": 0 },
					{ "time": 0.1667, "x": -0.41, "y": -0.01 },
					{ "time": 0.5, "x": -3.32, "y": -0.06 },
					{ "time": 1.5, "x": 2.66, "y": 0.05 },
					{ "time": 2, "x": 0, "y": 0 }
				],
				"scale": [
					{ "time": 0, "x": 1, "y": 1 },
					{ "time": 0.5, "x": 1, "y": 0.993 },
					{ "time": 1.5, "x": 1, "y": 1.027 },
					{ "time": 2, "x": 1, "y": 1 }
				]
			},
			"D8": {
				"rotate": [
					{ "time": 0, "angle": 0, "curve": "stepped" },
					{ "time": 0.5, "angle": 0, "curve": "stepped" },
					{ "time": 1.5, "angle": 0, "curve": "stepped" },
					{ "time": 2, "angle": 0 }
				],
				"translate": [
					{
						"time": 0,
						"x": 0,
						"y": 0,
						"curve": [ 0.318, 0.41, 0.75, 1 ]
					},
					{
						"time": 0.5,
						"x": 2.66,
						"y": 0.05,
						"curve": [ 0.25, 0, 0.75, 1 ]
					},
					{
						"time": 1.5,
						"x": -3.99,
						"y": -0.07,
						"curve": [ 0.25, 0, 0.726, 0.62 ]
					},
					{ "time": 2, "x": 0, "y": 0 }
				],
				"scale": [
					{ "time": 0, "x": 1, "y": 1, "curve": "stepped" },
					{ "time": 0.5, "x": 1, "y": 1, "curve": "stepped" },
					{ "time": 1.5, "x": 1, "y": 1, "curve": "stepped" },
					{ "time": 2, "x": 1, "y": 1 }
				]
			},
			"Lv3": {
				"rotate": [
					{ "time": 0, "angle": 0, "curve": "stepped" },
					{ "time": 0.5, "angle": 0, "curve": "stepped" },
					{ "time": 1.5, "angle": 0, "curve": "stepped" },
					{ "time": 2, "angle": 0 }
				],
				"translate": [
					{ "time": 0, "x": 0, "y": 0 },
					{ "time": 0.5, "x": -0.04, "y": -4.02 },
					{ "time": 1.5, "x": 0.02, "y": 1.94 },
					{ "time": 2, "x": 0, "y": 0 }
				],
				"scale": [
					{ "time": 0, "x": 1, "y": 1, "curve": "stepped" },
					{ "time": 0.5, "x": 1, "y": 1, "curve": "stepped" },
					{ "time": 1.5, "x": 1, "y": 1, "curve": "stepped" },
					{ "time": 2, "x": 1, "y": 1 }
				]
			}
		}
	},
	"Up_Lv1": {
		"slots": {
			"D5_L": {
				"attachment": [
					{ "time": 0, "name": null },
					{ "time": 0.1333, "name": "D5_L" },
					{ "time": 0.4667, "name": "D5_L" },
					{ "time": 0.8, "name": "D5_L" }
				]
			},
			"D5_R": {
				"attachment": [
					{ "time": 0, "name": null },
					{ "time": 0.1333, "name": "D5_R" },
					{ "time": 0.4667, "name": "D5_R" },
					{ "time": 0.8, "name": "D5_R" }
				]
			},
			"Lv2": {
				"attachment": [
					{ "time": 0, "name": null },
					{ "time": 0.3333, "name": "Lv2" },
					{ "time": 0.8, "name": "Lv2" }
				]
			},
			"Lv1_L_01": {
				"attachment": [
					{ "time": 0, "name": "D5_L2" },
					{ "time": 0.4667, "name": null }
				]
			},
			"Lv1_R_01": {
				"attachment": [
					{ "time": 0, "name": "D5_R2" },
					{ "time": 0.4667, "name": null }
				]
			},
			"Lv3_2": {
				"attachment": [
					{ "time": 0, "name": "Lv3_01" },
					{ "time": 0.3333, "name": "Lv3_01" },
					{ "time": 0.8, "name": "Lv3_01" }
				]
			},
			"Lv3_12": {
				"attachment": [
					{ "time": 0, "name": null },
					{ "time": 0.3333, "name": null },
					{ "time": 0.8, "name": null }
				]
			}
		},
		"bones": {
			"X": {
				"rotate": [
					{ "time": 0, "angle": 0, "curve": "stepped" },
					{ "time": 0.3333, "angle": 0, "curve": "stepped" },
					{ "time": 0.8, "angle": 0 }
				],
				"translate": [
					{ "time": 0, "x": 0, "y": 0, "curve": "stepped" },
					{ "time": 0.3333, "x": 0, "y": 0, "curve": "stepped" },
					{ "time": 0.8, "x": 0, "y": 0 }
				],
				"scale": [
					{ "time": 0, "x": 1, "y": 1, "curve": "stepped" },
					{ "time": 0.3333, "x": 1, "y": 1, "curve": "stepped" },
					{ "time": 0.8, "x": 1, "y": 1 }
				]
			},
			"Y": {
				"rotate": [
					{ "time": 0, "angle": 0, "curve": "stepped" },
					{ "time": 0.3333, "angle": 0, "curve": "stepped" },
					{ "time": 0.8, "angle": 0 }
				],
				"translate": [
					{ "time": 0, "x": 0, "y": 0 },
					{ "time": 0.0667, "x": 0, "y": 5.1 },
					{ "time": 0.1333, "x": 0, "y": -5.69 },
					{ "time": 0.2, "x": 1.7, "y": 7.02 },
					{ "time": 0.2667, "x": -5.94, "y": -4.81 },
					{ "time": 0.3333, "x": 0, "y": 0 },
					{ "time": 0.4, "x": 0, "y": -9.17 },
					{ "time": 0.4667, "x": 0, "y": 4.25 },
					{ "time": 0.8, "x": 0, "y": 0 }
				],
				"scale": [
					{ "time": 0, "x": 1, "y": 1, "curve": "stepped" },
					{ "time": 0.3333, "x": 1, "y": 1, "curve": "stepped" },
					{ "time": 0.8, "x": 1, "y": 1 }
				]
			},
			"D5": {
				"rotate": [
					{ "time": 0, "angle": 0, "curve": "stepped" },
					{ "time": 0.3333, "angle": 0, "curve": "stepped" },
					{ "time": 0.8, "angle": 0 }
				],
				"translate": [
					{ "time": 0, "x": 0, "y": 0, "curve": "stepped" },
					{ "time": 0.3333, "x": 0, "y": 0, "curve": "stepped" },
					{ "time": 0.8, "x": 0, "y": 0 }
				],
				"scale": [
					{ "time": 0, "x": 1, "y": 1, "curve": "stepped" },
					{ "time": 0.3333, "x": 1, "y": 1, "curve": "stepped" },
					{ "time": 0.8, "x": 1, "y": 1 }
				]
			},
			"D6": {
				"rotate": [
					{ "time": 0, "angle": 0, "curve": "stepped" },
					{ "time": 0.3333, "angle": 0, "curve": "stepped" },
					{ "time": 0.8, "angle": 0 }
				],
				"translate": [
					{ "time": 0, "x": 0, "y": 0, "curve": "stepped" },
					{ "time": 0.3333, "x": 0, "y": 0, "curve": "stepped" },
					{ "time": 0.8, "x": 0, "y": 0 }
				],
				"scale": [
					{ "time": 0, "x": 1, "y": 1, "curve": "stepped" },
					{ "time": 0.3333, "x": 1, "y": 1, "curve": "stepped" },
					{ "time": 0.8, "x": 1, "y": 1 }
				]
			},
			"D7": {
				"rotate": [
					{ "time": 0, "angle": 0, "curve": "stepped" },
					{ "time": 0.3333, "angle": 0, "curve": "stepped" },
					{ "time": 0.8, "angle": 0 }
				],
				"translate": [
					{ "time": 0, "x": 0, "y": 0, "curve": "stepped" },
					{ "time": 0.3333, "x": 0, "y": 0, "curve": "stepped" },
					{ "time": 0.8, "x": 0, "y": 0 }
				],
				"scale": [
					{ "time": 0, "x": 1, "y": 1, "curve": "stepped" },
					{ "time": 0.3333, "x": 1, "y": 1, "curve": "stepped" },
					{ "time": 0.8, "x": 1, "y": 1 }
				]
			},
			"D5_R": {
				"rotate": [
					{ "time": 0, "angle": 0, "curve": "stepped" },
					{ "time": 0.4667, "angle": 0, "curve": "stepped" },
					{ "time": 0.8, "angle": 0 }
				],
				"translate": [
					{ "time": 0, "x": 0, "y": 0 },
					{ "time": 0.1333, "x": -4.25, "y": 0.49 },
					{ "time": 0.4667, "x": 0, "y": 0, "curve": "stepped" },
					{ "time": 0.8, "x": 0, "y": 0 }
				],
				"scale": [
					{ "time": 0, "x": 1, "y": 1 },
					{ "time": 0.1333, "x": 0.673, "y": 0.673 },
					{ "time": 0.4667, "x": 1, "y": 1, "curve": "stepped" },
					{ "time": 0.8, "x": 1, "y": 1 }
				]
			},
			"D5_L": {
				"rotate": [
					{ "time": 0, "angle": 0, "curve": "stepped" },
					{ "time": 0.4667, "angle": 0, "curve": "stepped" },
					{ "time": 0.8, "angle": 0 }
				],
				"translate": [
					{ "time": 0, "x": 0, "y": 0 },
					{ "time": 0.1333, "x": -5.26, "y": 0.13 },
					{ "time": 0.4667, "x": 0, "y": 0, "curve": "stepped" },
					{ "time": 0.8, "x": 0, "y": 0 }
				],
				"scale": [
					{ "time": 0, "x": 1, "y": 1 },
					{ "time": 0.1333, "x": 0.673, "y": 0.673 },
					{ "time": 0.4667, "x": 1, "y": 1, "curve": "stepped" },
					{ "time": 0.8, "x": 1, "y": 1 }
				]
			},
			"Lv2": {
				"rotate": [
					{ "time": 0, "angle": 0, "curve": "stepped" },
					{ "time": 0.3333, "angle": 0, "curve": "stepped" },
					{ "time": 0.8, "angle": 0 }
				],
				"translate": [
					{ "time": 0, "x": 0, "y": 0, "curve": "stepped" },
					{ "time": 0.3333, "x": 0, "y": 0, "curve": "stepped" },
					{ "time": 0.8, "x": 0, "y": 0 }
				],
				"scale": [
					{ "time": 0, "x": 1, "y": 1, "curve": "stepped" },
					{ "time": 0.3333, "x": 1, "y": 1, "curve": "stepped" },
					{ "time": 0.8, "x": 1, "y": 1 }
				]
			},
			"D8": {
				"rotate": [
					{ "time": 0, "angle": 0, "curve": "stepped" },
					{ "time": 0.3333, "angle": 0, "curve": "stepped" },
					{ "time": 0.8, "angle": 0 }
				],
				"translate": [
					{ "time": 0, "x": 0, "y": 0, "curve": "stepped" },
					{ "time": 0.3333, "x": 0, "y": 0, "curve": "stepped" },
					{ "time": 0.8, "x": 0, "y": 0 }
				],
				"scale": [
					{ "time": 0, "x": 1, "y": 1, "curve": "stepped" },
					{ "time": 0.3333, "x": 1, "y": 1, "curve": "stepped" },
					{ "time": 0.8, "x": 1, "y": 1 }
				]
			},
			"Lv3": {
				"rotate": [
					{ "time": 0, "angle": 0, "curve": "stepped" },
					{ "time": 0.3333, "angle": 0, "curve": "stepped" },
					{ "time": 0.8, "angle": 0 }
				],
				"translate": [
					{ "time": 0, "x": 0, "y": 0, "curve": "stepped" },
					{ "time": 0.3333, "x": 0, "y": 0, "curve": "stepped" },
					{ "time": 0.8, "x": 0, "y": 0 }
				],
				"scale": [
					{ "time": 0, "x": 1, "y": 1, "curve": "stepped" },
					{ "time": 0.3333, "x": 1, "y": 1, "curve": "stepped" },
					{ "time": 0.8, "x": 1, "y": 1 }
				]
			}
		}
	},
	"Up_Lv2": {
		"slots": {
			"D5_L": {
				"attachment": [
					{ "time": 0, "name": null },
					{ "time": 0.3333, "name": "D5_L" },
					{ "time": 0.8, "name": "D5_L" }
				]
			},
			"D5_R": {
				"attachment": [
					{ "time": 0, "name": null },
					{ "time": 0.3333, "name": "D5_R" },
					{ "time": 0.8, "name": "D5_R" }
				]
			},
			"Lv2": {
				"attachment": [
					{ "time": 0, "name": "Lv2" },
					{ "time": 0.3333, "name": "Lv2" },
					{ "time": 0.8, "name": "Lv2" }
				]
			},
			"Lv1_L_01": {
				"attachment": [
					{ "time": 0, "name": "Lv1_L_1" }
				]
			},
			"Lv1_R_01": {
				"attachment": [
					{ "time": 0, "name": "Lv1_R_1" }
				]
			},
			"Lv3_2": {
				"attachment": [
					{ "time": 0, "name": "Lv3_01" },
					{ "time": 0.3333, "name": "Lv3_01" },
					{ "time": 0.8, "name": "Lv3_01" }
				]
			},
			"Lv3_12": {
				"attachment": [
					{ "time": 0, "name": null },
					{ "time": 0.3333, "name": null },
					{ "time": 0.8, "name": null }
				]
			}
		},
		"bones": {
			"X": {
				"rotate": [
					{ "time": 0, "angle": 0, "curve": "stepped" },
					{ "time": 0.3333, "angle": 0, "curve": "stepped" },
					{ "time": 0.8, "angle": 0 }
				],
				"translate": [
					{ "time": 0, "x": 0, "y": 0, "curve": "stepped" },
					{ "time": 0.3333, "x": 0, "y": 0, "curve": "stepped" },
					{ "time": 0.8, "x": 0, "y": 0 }
				],
				"scale": [
					{ "time": 0, "x": 1, "y": 1, "curve": "stepped" },
					{ "time": 0.3333, "x": 1, "y": 1, "curve": "stepped" },
					{ "time": 0.8, "x": 1, "y": 1 }
				]
			},
			"Y": {
				"rotate": [
					{ "time": 0, "angle": 0, "curve": "stepped" },
					{ "time": 0.3333, "angle": 0, "curve": "stepped" },
					{ "time": 0.8, "angle": 0 }
				],
				"translate": [
					{ "time": 0, "x": 0, "y": 0 },
					{ "time": 0.0667, "x": 0, "y": -9.78 },
					{ "time": 0.1333, "x": -3.53, "y": 4.48 },
					{ "time": 0.2, "x": 2.99, "y": -0.91 },
					{ "time": 0.2667, "x": -2.86, "y": 7.98 },
					{ "time": 0.3333, "x": 0, "y": -6.52 },
					{ "time": 0.4, "x": 0, "y": 8.54 },
					{ "time": 0.4667, "x": 0.55, "y": -12.31 },
					{ "time": 0.5333, "x": 1.3, "y": -5.61 },
					{ "time": 0.8, "x": 0, "y": 0 }
				],
				"scale": [
					{ "time": 0, "x": 1, "y": 1, "curve": "stepped" },
					{ "time": 0.3333, "x": 1, "y": 1, "curve": "stepped" },
					{ "time": 0.8, "x": 1, "y": 1 }
				]
			},
			"D5": {
				"rotate": [
					{ "time": 0, "angle": 0, "curve": "stepped" },
					{ "time": 0.3333, "angle": 0, "curve": "stepped" },
					{ "time": 0.8, "angle": 0 }
				],
				"translate": [
					{ "time": 0, "x": 0, "y": 0, "curve": "stepped" },
					{ "time": 0.3333, "x": 0, "y": 0, "curve": "stepped" },
					{ "time": 0.8, "x": 0, "y": 0 }
				],
				"scale": [
					{ "time": 0, "x": 1, "y": 1, "curve": "stepped" },
					{ "time": 0.3333, "x": 1, "y": 1, "curve": "stepped" },
					{ "time": 0.8, "x": 1, "y": 1 }
				]
			},
			"D6": {
				"rotate": [
					{ "time": 0, "angle": 0, "curve": "stepped" },
					{ "time": 0.3333, "angle": 0, "curve": "stepped" },
					{ "time": 0.8, "angle": 0 }
				],
				"translate": [
					{ "time": 0, "x": 0, "y": 0, "curve": "stepped" },
					{ "time": 0.3333, "x": 0, "y": 0, "curve": "stepped" },
					{ "time": 0.8, "x": 0, "y": 0 }
				],
				"scale": [
					{ "time": 0, "x": 1, "y": 1, "curve": "stepped" },
					{ "time": 0.3333, "x": 1, "y": 1, "curve": "stepped" },
					{ "time": 0.8, "x": 1, "y": 1 }
				]
			},
			"D7": {
				"rotate": [
					{ "time": 0, "angle": 0, "curve": "stepped" },
					{ "time": 0.3333, "angle": 0, "curve": "stepped" },
					{ "time": 0.8, "angle": 0 }
				],
				"translate": [
					{ "time": 0, "x": 0, "y": 0, "curve": "stepped" },
					{ "time": 0.3333, "x": 0, "y": 0, "curve": "stepped" },
					{ "time": 0.8, "x": 0, "y": 0 }
				],
				"scale": [
					{ "time": 0, "x": 1, "y": 1, "curve": "stepped" },
					{ "time": 0.3333, "x": 1, "y": 1, "curve": "stepped" },
					{ "time": 0.8, "x": 1, "y": 1 }
				]
			},
			"D5_R": {
				"rotate": [
					{ "time": 0, "angle": 0, "curve": "stepped" },
					{ "time": 0.3333, "angle": 0, "curve": "stepped" },
					{ "time": 0.8, "angle": 0 }
				],
				"translate": [
					{ "time": 0, "x": 0, "y": 0 },
					{ "time": 0.3, "x": 12.36, "y": 5.06 },
					{ "time": 0.3333, "x": 8.69, "y": 11.8 },
					{ "time": 0.4, "x": 2.87, "y": 3.9 },
					{ "time": 0.4667, "x": -0.48, "y": -0.65 },
					{ "time": 0.5333, "x": 4.21, "y": 5.72 },
					{ "time": 0.6, "x": 0.29, "y": 0.39 },
					{ "time": 0.8, "x": 0, "y": 0 }
				],
				"scale": [
					{ "time": 0, "x": 1, "y": 1 },
					{ "time": 0.3, "x": 1, "y": 2.24 },
					{ "time": 0.3333, "x": 1, "y": 1.299 },
					{ "time": 0.8, "x": 1, "y": 1 }
				]
			},
			"D5_L": {
				"rotate": [
					{ "time": 0, "angle": 0, "curve": "stepped" },
					{ "time": 0.3333, "angle": 0, "curve": "stepped" },
					{ "time": 0.8, "angle": 0 }
				],
				"translate": [
					{ "time": 0, "x": 0, "y": 0 },
					{ "time": 0.3, "x": 12.89, "y": -3.46 },
					{ "time": 0.3333, "x": 10.1, "y": -10.61 },
					{ "time": 0.4, "x": 3.34, "y": -3.51 },
					{ "time": 0.4667, "x": -0.56, "y": 0.58 },
					{ "time": 0.5333, "x": 4.9, "y": -5.15 },
					{ "time": 0.6, "x": 0.33, "y": -0.35 },
					{ "time": 0.8, "x": 0, "y": 0 }
				],
				"scale": [
					{ "time": 0, "x": 1, "y": 1 },
					{ "time": 0.3, "x": 1, "y": 2.166 },
					{ "time": 0.3333, "x": 1, "y": 1.299 },
					{ "time": 0.8, "x": 1, "y": 1 }
				]
			},
			"Lv2": {
				"rotate": [
					{ "time": 0, "angle": 0, "curve": "stepped" },
					{ "time": 0.3333, "angle": 0, "curve": "stepped" },
					{ "time": 0.8, "angle": 0 }
				],
				"translate": [
					{ "time": 0, "x": 0, "y": 0, "curve": "stepped" },
					{ "time": 0.3333, "x": 0, "y": 0, "curve": "stepped" },
					{ "time": 0.8, "x": 0, "y": 0 }
				],
				"scale": [
					{ "time": 0, "x": 1, "y": 1, "curve": "stepped" },
					{ "time": 0.3333, "x": 1, "y": 1, "curve": "stepped" },
					{ "time": 0.8, "x": 1, "y": 1 }
				]
			},
			"D8": {
				"rotate": [
					{ "time": 0, "angle": 0, "curve": "stepped" },
					{ "time": 0.3333, "angle": 0, "curve": "stepped" },
					{ "time": 0.8, "angle": 0 }
				],
				"translate": [
					{ "time": 0, "x": 0, "y": 0, "curve": "stepped" },
					{ "time": 0.3333, "x": 0, "y": 0, "curve": "stepped" },
					{ "time": 0.8, "x": 0, "y": 0 }
				],
				"scale": [
					{ "time": 0, "x": 1, "y": 1, "curve": "stepped" },
					{ "time": 0.3333, "x": 1, "y": 1, "curve": "stepped" },
					{ "time": 0.8, "x": 1, "y": 1 }
				]
			},
			"Lv3": {
				"rotate": [
					{ "time": 0, "angle": 0, "curve": "stepped" },
					{ "time": 0.3333, "angle": 0, "curve": "stepped" },
					{ "time": 0.8, "angle": 0 }
				],
				"translate": [
					{ "time": 0, "x": 0, "y": 0, "curve": "stepped" },
					{ "time": 0.3333, "x": 0, "y": 0, "curve": "stepped" },
					{ "time": 0.8, "x": 0, "y": 0 }
				],
				"scale": [
					{ "time": 0, "x": 1, "y": 1, "curve": "stepped" },
					{ "time": 0.3333, "x": 1, "y": 1, "curve": "stepped" },
					{ "time": 0.8, "x": 1, "y": 1 }
				]
			}
		}
	},
	"Up_Lv3": {
		"slots": {
			"D5_L": {
				"attachment": [
					{ "time": 0, "name": null },
					{ "time": 0.3333, "name": "D5_L" },
					{ "time": 0.8, "name": "D5_L" }
				]
			},
			"D5_R": {
				"attachment": [
					{ "time": 0, "name": null },
					{ "time": 0.3333, "name": "D5_R" },
					{ "time": 0.8, "name": "D5_R" }
				]
			},
			"Lv2": {
				"attachment": [
					{ "time": 0, "name": "Lv2_1" },
					{ "time": 0.3333, "name": "Lv2" },
					{ "time": 0.8, "name": "Lv2" }
				]
			},
			"Lv1_L_01": {
				"attachment": [
					{ "time": 0, "name": "Lv2_L_01" },
					{ "time": 0.3333, "name": null }
				]
			},
			"Lv1_R_01": {
				"attachment": [
					{ "time": 0, "name": "Lv2_R_01" },
					{ "time": 0.3333, "name": null }
				]
			},
			"Lv3_2": {
				"attachment": [
					{ "time": 0, "name": null },
					{ "time": 0.3333, "name": "Lv3_01" },
					{ "time": 0.8, "name": "Lv3_01" }
				]
			},
			"Lv3_12": {
				"attachment": [
					{ "time": 0, "name": null },
					{ "time": 0.3333, "name": "Lv3_11" },
					{ "time": 0.8, "name": "Lv3_11" }
				]
			}
		},
		"bones": {
			"X": {
				"rotate": [
					{ "time": 0, "angle": 0, "curve": "stepped" },
					{ "time": 0.3333, "angle": 0, "curve": "stepped" },
					{ "time": 0.8, "angle": 0 }
				],
				"translate": [
					{ "time": 0, "x": 0, "y": 0, "curve": "stepped" },
					{ "time": 0.3333, "x": 0, "y": 0, "curve": "stepped" },
					{ "time": 0.8, "x": 0, "y": 0 }
				],
				"scale": [
					{ "time": 0, "x": 1, "y": 1, "curve": "stepped" },
					{ "time": 0.3333, "x": 1, "y": 1, "curve": "stepped" },
					{ "time": 0.8, "x": 1, "y": 1 }
				]
			},
			"Y": {
				"rotate": [
					{ "time": 0, "angle": 0, "curve": "stepped" },
					{ "time": 0.3333, "angle": 0, "curve": "stepped" },
					{ "time": 0.8, "angle": 0 }
				],
				"translate": [
					{ "time": 0, "x": 0, "y": 0 },
					{ "time": 0.0667, "x": 0, "y": -9.78 },
					{ "time": 0.1333, "x": -3.53, "y": 4.48 },
					{ "time": 0.2, "x": 2.99, "y": -0.91 },
					{ "time": 0.2667, "x": -2.86, "y": 7.98 },
					{ "time": 0.3333, "x": 0, "y": -6.52 },
					{ "time": 0.4, "x": 0, "y": 8.54 },
					{ "time": 0.4667, "x": 0.55, "y": -12.31 },
					{ "time": 0.5333, "x": 1.3, "y": -5.61 },
					{ "time": 0.8, "x": 0, "y": 0 }
				],
				"scale": [
					{ "time": 0, "x": 1, "y": 1, "curve": "stepped" },
					{ "time": 0.3333, "x": 1, "y": 1, "curve": "stepped" },
					{ "time": 0.8, "x": 1, "y": 1 }
				]
			},
			"D5": {
				"rotate": [
					{ "time": 0, "angle": 0, "curve": "stepped" },
					{ "time": 0.3333, "angle": 0, "curve": "stepped" },
					{ "time": 0.8, "angle": 0 }
				],
				"translate": [
					{ "time": 0, "x": 0, "y": 0, "curve": "stepped" },
					{ "time": 0.3333, "x": 0, "y": 0, "curve": "stepped" },
					{ "time": 0.8, "x": 0, "y": 0 }
				],
				"scale": [
					{ "time": 0, "x": 1, "y": 1, "curve": "stepped" },
					{ "time": 0.3333, "x": 1, "y": 1, "curve": "stepped" },
					{ "time": 0.8, "x": 1, "y": 1 }
				]
			},
			"D6": {
				"rotate": [
					{ "time": 0, "angle": 0, "curve": "stepped" },
					{ "time": 0.3333, "angle": 0, "curve": "stepped" },
					{ "time": 0.8, "angle": 0 }
				],
				"translate": [
					{ "time": 0, "x": 0, "y": 0, "curve": "stepped" },
					{ "time": 0.3333, "x": 0, "y": 0, "curve": "stepped" },
					{ "time": 0.8, "x": 0, "y": 0 }
				],
				"scale": [
					{ "time": 0, "x": 1, "y": 1, "curve": "stepped" },
					{ "time": 0.3333, "x": 1, "y": 1, "curve": "stepped" },
					{ "time": 0.8, "x": 1, "y": 1 }
				]
			},
			"D7": {
				"rotate": [
					{ "time": 0, "angle": 0, "curve": "stepped" },
					{ "time": 0.3333, "angle": 0, "curve": "stepped" },
					{ "time": 0.8, "angle": 0 }
				],
				"translate": [
					{ "time": 0, "x": 0, "y": 0, "curve": "stepped" },
					{ "time": 0.3333, "x": 0, "y": 0, "curve": "stepped" },
					{ "time": 0.8, "x": 0, "y": 0 }
				],
				"scale": [
					{ "time": 0, "x": 1, "y": 1, "curve": "stepped" },
					{ "time": 0.3333, "x": 1, "y": 1, "curve": "stepped" },
					{ "time": 0.8, "x": 1, "y": 1 }
				]
			},
			"D5_R": {
				"rotate": [
					{ "time": 0, "angle": 0, "curve": "stepped" },
					{ "time": 0.3333, "angle": 0, "curve": "stepped" },
					{ "time": 0.8, "angle": 0 }
				],
				"translate": [
					{ "time": 0, "x": 0, "y": 0 },
					{ "time": 0.3, "x": 2.65, "y": -0.73 },
					{ "time": 0.3333, "x": 5.16, "y": 1.47 },
					{ "time": 0.4, "x": 2.87, "y": 3.9 },
					{ "time": 0.4667, "x": -0.48, "y": -0.65 },
					{ "time": 0.5333, "x": 0.96, "y": 1.31 },
					{ "time": 0.6, "x": 0.29, "y": 0.39 },
					{ "time": 0.8, "x": 0, "y": 0 }
				],
				"scale": [
					{ "time": 0, "x": 1, "y": 1 },
					{ "time": 0.3, "x": 1.227, "y": 1.103 },
					{ "time": 0.3333, "x": 1, "y": 1, "curve": "stepped" },
					{ "time": 0.8, "x": 1, "y": 1 }
				]
			},
			"D5_L": {
				"rotate": [
					{ "time": 0, "angle": 0, "curve": "stepped" },
					{ "time": 0.3333, "angle": 0, "curve": "stepped" },
					{ "time": 0.8, "angle": 0 }
				],
				"translate": [
					{ "time": 0, "x": 0, "y": 0 },
					{ "time": 0.3333, "x": 1.41, "y": -1.48 },
					{ "time": 0.4, "x": 3.34, "y": -3.51 },
					{ "time": 0.4667, "x": -0.56, "y": 0.58 },
					{ "time": 0.5333, "x": 1.12, "y": -1.18 },
					{ "time": 0.6, "x": 0.33, "y": -0.35 },
					{ "time": 0.8, "x": 0, "y": 0 }
				],
				"scale": [
					{ "time": 0, "x": 1, "y": 1 },
					{ "time": 0.3, "x": 1.227, "y": 1 },
					{ "time": 0.3333, "x": 1, "y": 1, "curve": "stepped" },
					{ "time": 0.8, "x": 1, "y": 1 }
				]
			},
			"Lv2": {
				"rotate": [
					{ "time": 0, "angle": 0, "curve": "stepped" },
					{ "time": 0.3333, "angle": 0, "curve": "stepped" },
					{ "time": 0.8, "angle": 0 }
				],
				"translate": [
					{ "time": 0, "x": 0, "y": 0, "curve": "stepped" },
					{ "time": 0.3333, "x": 0, "y": 0, "curve": "stepped" },
					{ "time": 0.8, "x": 0, "y": 0 }
				],
				"scale": [
					{ "time": 0, "x": 1, "y": 1, "curve": "stepped" },
					{ "time": 0.3333, "x": 1, "y": 1, "curve": "stepped" },
					{ "time": 0.8, "x": 1, "y": 1 }
				]
			},
			"D8": {
				"rotate": [
					{ "time": 0, "angle": 0, "curve": "stepped" },
					{ "time": 0.3333, "angle": 0, "curve": "stepped" },
					{ "time": 0.8, "angle": 0 }
				],
				"translate": [
					{ "time": 0, "x": 0, "y": 0, "curve": "stepped" },
					{ "time": 0.3333, "x": 0, "y": 0, "curve": "stepped" },
					{ "time": 0.8, "x": 0, "y": 0 }
				],
				"scale": [
					{ "time": 0, "x": 1, "y": 1, "curve": "stepped" },
					{ "time": 0.3333, "x": 1, "y": 1, "curve": "stepped" },
					{ "time": 0.8, "x": 1, "y": 1 }
				]
			},
			"Lv3": {
				"rotate": [
					{ "time": 0, "angle": 0, "curve": "stepped" },
					{ "time": 0.3333, "angle": 0, "curve": "stepped" },
					{ "time": 0.5333, "angle": 0, "curve": "stepped" },
					{ "time": 0.8, "angle": 0 }
				],
				"translate": [
					{ "time": 0, "x": 0, "y": 0 },
					{ "time": 0.3333, "x": -0.11, "y": -10.45 },
					{ "time": 0.5333, "x": -0.06, "y": -5.97 },
					{ "time": 0.6667, "x": 0, "y": 0.15 },
					{ "time": 0.8, "x": 0, "y": 0 }
				],
				"scale": [
					{ "time": 0, "x": 1, "y": 1, "curve": "stepped" },
					{ "time": 0.3333, "x": 1, "y": 1, "curve": "stepped" },
					{ "time": 0.5333, "x": 1, "y": 1, "curve": "stepped" },
					{ "time": 0.8, "x": 1, "y": 1 }
				]
			}
		}
	},
	"Up_Lv4": {
		"slots": {
			"D5_L": {
				"attachment": [
					{ "time": 0, "name": null },
					{ "time": 0.3333, "name": "D5_L" },
					{ "time": 0.8, "name": "D5_L" }
				]
			},
			"D5_R": {
				"attachment": [
					{ "time": 0, "name": null },
					{ "time": 0.3333, "name": "D5_R" },
					{ "time": 0.8, "name": "D5_R" }
				]
			},
			"Lv2": {
				"attachment": [
					{ "time": 0, "name": "Lv3" },
					{ "time": 0.3333, "name": "Lv2" },
					{ "time": 0.8, "name": "Lv2" }
				]
			},
			"Lv1_L_01": {
				"attachment": [
					{ "time": 0, "name": "Lv3_L_1" },
					{ "time": 0.3333, "name": null }
				]
			},
			"Lv1_R_01": {
				"attachment": [
					{ "time": 0, "name": "Lv3_R_01" },
					{ "time": 0.3333, "name": null }
				]
			},
			"Lv3_2": {
				"attachment": [
					{ "time": 0, "name": "Lv3_01" },
					{ "time": 0.3333, "name": "Lv3_01" },
					{ "time": 0.8, "name": "Lv3_01" }
				]
			},
			"Lv3_12": {
				"attachment": [
					{ "time": 0, "name": "Lv3_12" },
					{ "time": 0.0667, "name": "Lv3_11" },
					{ "time": 0.8, "name": "Lv3_11" }
				]
			}
		},
		"bones": {
			"X": {
				"rotate": [
					{ "time": 0, "angle": 0, "curve": "stepped" },
					{ "time": 0.3333, "angle": 0, "curve": "stepped" },
					{ "time": 0.8, "angle": 0 }
				],
				"translate": [
					{ "time": 0, "x": 0, "y": 0, "curve": "stepped" },
					{ "time": 0.3333, "x": 0, "y": 0, "curve": "stepped" },
					{ "time": 0.8, "x": 0, "y": 0 }
				],
				"scale": [
					{ "time": 0, "x": 1, "y": 1, "curve": "stepped" },
					{ "time": 0.3333, "x": 1, "y": 1, "curve": "stepped" },
					{ "time": 0.8, "x": 1, "y": 1 }
				]
			},
			"Y": {
				"rotate": [
					{ "time": 0, "angle": 0, "curve": "stepped" },
					{ "time": 0.3333, "angle": 0, "curve": "stepped" },
					{ "time": 0.8, "angle": 0 }
				],
				"translate": [
					{ "time": 0, "x": 0, "y": 0 },
					{ "time": 0.0667, "x": 0, "y": -9.78 },
					{ "time": 0.1333, "x": -3.53, "y": 4.48 },
					{ "time": 0.2, "x": 2.99, "y": -0.91 },
					{ "time": 0.2667, "x": -2.86, "y": 7.98 },
					{ "time": 0.3333, "x": 0, "y": -6.52 },
					{ "time": 0.4, "x": 0, "y": 8.54 },
					{ "time": 0.4667, "x": 0.55, "y": -12.31 },
					{ "time": 0.5333, "x": 1.3, "y": -5.61 },
					{ "time": 0.8, "x": 0, "y": 0 }
				],
				"scale": [
					{ "time": 0, "x": 1, "y": 1, "curve": "stepped" },
					{ "time": 0.3333, "x": 1, "y": 1, "curve": "stepped" },
					{ "time": 0.8, "x": 1, "y": 1 }
				]
			},
			"D5": {
				"rotate": [
					{ "time": 0, "angle": 0, "curve": "stepped" },
					{ "time": 0.3333, "angle": 0, "curve": "stepped" },
					{ "time": 0.8, "angle": 0 }
				],
				"translate": [
					{ "time": 0, "x": 0, "y": 0, "curve": "stepped" },
					{ "time": 0.3333, "x": 0, "y": 0, "curve": "stepped" },
					{ "time": 0.8, "x": 0, "y": 0 }
				],
				"scale": [
					{ "time": 0, "x": 1, "y": 1, "curve": "stepped" },
					{ "time": 0.3333, "x": 1, "y": 1, "curve": "stepped" },
					{ "time": 0.8, "x": 1, "y": 1 }
				]
			},
			"D6": {
				"rotate": [
					{ "time": 0, "angle": 0, "curve": "stepped" },
					{ "time": 0.3333, "angle": 0, "curve": "stepped" },
					{ "time": 0.8, "angle": 0 }
				],
				"translate": [
					{ "time": 0, "x": 0, "y": 0, "curve": "stepped" },
					{ "time": 0.3333, "x": 0, "y": 0, "curve": "stepped" },
					{ "time": 0.8, "x": 0, "y": 0 }
				],
				"scale": [
					{ "time": 0, "x": 1, "y": 1, "curve": "stepped" },
					{ "time": 0.3333, "x": 1, "y": 1, "curve": "stepped" },
					{ "time": 0.8, "x": 1, "y": 1 }
				]
			},
			"D7": {
				"rotate": [
					{ "time": 0, "angle": 0, "curve": "stepped" },
					{ "time": 0.3333, "angle": 0, "curve": "stepped" },
					{ "time": 0.8, "angle": 0 }
				],
				"translate": [
					{ "time": 0, "x": 0, "y": 0, "curve": "stepped" },
					{ "time": 0.3333, "x": 0, "y": 0, "curve": "stepped" },
					{ "time": 0.8, "x": 0, "y": 0 }
				],
				"scale": [
					{ "time": 0, "x": 1, "y": 1, "curve": "stepped" },
					{ "time": 0.3333, "x": 1, "y": 1, "curve": "stepped" },
					{ "time": 0.8, "x": 1, "y": 1 }
				]
			},
			"D5_R": {
				"rotate": [
					{ "time": 0, "angle": 0, "curve": "stepped" },
					{ "time": 0.3333, "angle": 0, "curve": "stepped" },
					{ "time": 0.8, "angle": 0 }
				],
				"translate": [
					{ "time": 0, "x": 0, "y": 0 },
					{ "time": 0.3, "x": 2.65, "y": -0.73 },
					{ "time": 0.3333, "x": 5.16, "y": 1.47 },
					{ "time": 0.4, "x": 2.87, "y": 3.9 },
					{ "time": 0.4667, "x": -0.48, "y": -0.65 },
					{ "time": 0.5333, "x": 0.96, "y": 1.31 },
					{ "time": 0.6, "x": 0.29, "y": 0.39 },
					{ "time": 0.8, "x": 0, "y": 0 }
				],
				"scale": [
					{ "time": 0, "x": 1, "y": 1 },
					{ "time": 0.3, "x": 1.227, "y": 1.103 },
					{ "time": 0.3333, "x": 1, "y": 1, "curve": "stepped" },
					{ "time": 0.8, "x": 1, "y": 1 }
				]
			},
			"D5_L": {
				"rotate": [
					{ "time": 0, "angle": 0, "curve": "stepped" },
					{ "time": 0.3333, "angle": 0, "curve": "stepped" },
					{ "time": 0.8, "angle": 0 }
				],
				"translate": [
					{ "time": 0, "x": 0, "y": 0 },
					{ "time": 0.3333, "x": 1.41, "y": -1.48 },
					{ "time": 0.4, "x": 3.34, "y": -3.51 },
					{ "time": 0.4667, "x": -0.56, "y": 0.58 },
					{ "time": 0.5333, "x": 1.12, "y": -1.18 },
					{ "time": 0.6, "x": 0.33, "y": -0.35 },
					{ "time": 0.8, "x": 0, "y": 0 }
				],
				"scale": [
					{ "time": 0, "x": 1, "y": 1 },
					{ "time": 0.3, "x": 1.227, "y": 1 },
					{ "time": 0.3333, "x": 1, "y": 1, "curve": "stepped" },
					{ "time": 0.8, "x": 1, "y": 1 }
				]
			},
			"Lv2": {
				"rotate": [
					{ "time": 0, "angle": 0, "curve": "stepped" },
					{ "time": 0.3333, "angle": 0, "curve": "stepped" },
					{ "time": 0.8, "angle": 0 }
				],
				"translate": [
					{ "time": 0, "x": 0, "y": 0, "curve": "stepped" },
					{ "time": 0.3333, "x": 0, "y": 0, "curve": "stepped" },
					{ "time": 0.8, "x": 0, "y": 0 }
				],
				"scale": [
					{ "time": 0, "x": 1, "y": 1, "curve": "stepped" },
					{ "time": 0.3333, "x": 1, "y": 1, "curve": "stepped" },
					{ "time": 0.8, "x": 1, "y": 1 }
				]
			},
			"D8": {
				"rotate": [
					{ "time": 0, "angle": 0, "curve": "stepped" },
					{ "time": 0.3333, "angle": 0, "curve": "stepped" },
					{ "time": 0.8, "angle": 0 }
				],
				"translate": [
					{ "time": 0, "x": 0, "y": 0, "curve": "stepped" },
					{ "time": 0.3333, "x": 0, "y": 0, "curve": "stepped" },
					{ "time": 0.8, "x": 0, "y": 0 }
				],
				"scale": [
					{ "time": 0, "x": 1, "y": 1, "curve": "stepped" },
					{ "time": 0.3333, "x": 1, "y": 1, "curve": "stepped" },
					{ "time": 0.8, "x": 1, "y": 1 }
				]
			},
			"Lv3": {
				"rotate": [
					{ "time": 0, "angle": 0, "curve": "stepped" },
					{ "time": 0.0667, "angle": 0, "curve": "stepped" },
					{ "time": 0.8, "angle": 0 }
				],
				"translate": [
					{ "time": 0, "x": 0, "y": 0 },
					{ "time": 0.0667, "x": -0.06, "y": -5.97 },
					{ "time": 0.2, "x": 0.07, "y": 6.61 },
					{ "time": 0.3333, "x": 0.05, "y": 5.14 },
					{ "time": 0.4667, "x": 0, "y": -0.2 },
					{ "time": 0.6, "x": 0.03, "y": 2.46 },
					{ "time": 0.8, "x": 0, "y": 0 }
				],
				"scale": [
					{ "time": 0, "x": 1, "y": 1, "curve": "stepped" },
					{ "time": 0.0667, "x": 1, "y": 1, "curve": "stepped" },
					{ "time": 0.8, "x": 1, "y": 1 }
				]
			}
		}
	}
}
}