
E11.png
size: 1024,1024
format: RGBA8888
filter: Linear,Linear
repeat: none
1
  rotate: false
  xy: 702, 566
  size: 22, 18
  orig: 22, 18
  offset: 0, 0
  index: -1
10
  rotate: true
  xy: 746, 588
  size: 26, 39
  orig: 26, 39
  offset: 0, 0
  index: -1
11
  rotate: true
  xy: 988, 810
  size: 28, 27
  orig: 28, 27
  offset: 0, 0
  index: -1
2
  rotate: true
  xy: 360, 452
  size: 17, 10
  orig: 17, 10
  offset: 0, 0
  index: -1
23
  rotate: false
  xy: 468, 542
  size: 83, 72
  orig: 83, 72
  offset: 0, 0
  index: -1
24
  rotate: false
  xy: 787, 588
  size: 32, 26
  orig: 32, 26
  offset: 0, 0
  index: -1
25
  rotate: false
  xy: 428, 511
  size: 31, 35
  orig: 31, 35
  offset: 0, 0
  index: -1
26
  rotate: true
  xy: 988, 840
  size: 32, 26
  orig: 32, 26
  offset: 0, 0
  index: -1
27
  rotate: false
  xy: 988, 909
  size: 31, 35
  orig: 31, 35
  offset: 0, 0
  index: -1
28
  rotate: false
  xy: 636, 586
  size: 63, 28
  orig: 63, 28
  offset: 0, 0
  index: -1
29
  rotate: false
  xy: 2, 96
  size: 146, 101
  orig: 146, 101
  offset: 0, 0
  index: -1
3
  rotate: false
  xy: 988, 685
  size: 13, 12
  orig: 13, 12
  offset: 0, 0
  index: -1
30
  rotate: false
  xy: 988, 946
  size: 31, 42
  orig: 31, 42
  offset: 0, 0
  index: -1
31
  rotate: true
  xy: 988, 699
  size: 22, 18
  orig: 22, 18
  offset: 0, 0
  index: -1
32
  rotate: false
  xy: 1010, 721
  size: 12, 29
  orig: 12, 29
  offset: 0, 0
  index: -1
33
  rotate: true
  xy: 916, 598
  size: 16, 26
  orig: 16, 26
  offset: 0, 0
  index: -1
34
  rotate: false
  xy: 135, 63
  size: 8, 31
  orig: 8, 31
  offset: 0, 0
  index: -1
35
  rotate: false
  xy: 988, 723
  size: 20, 27
  orig: 20, 27
  offset: 0, 0
  index: -1
4
  rotate: false
  xy: 1011, 764
  size: 11, 16
  orig: 11, 16
  offset: 0, 0
  index: -1
42
  rotate: false
  xy: 321, 471
  size: 52, 81
  orig: 52, 81
  offset: 0, 0
  index: -1
43
  rotate: true
  xy: 553, 562
  size: 52, 81
  orig: 52, 81
  offset: 0, 0
  index: -1
45
  rotate: false
  xy: 375, 508
  size: 51, 38
  orig: 51, 38
  offset: 0, 0
  index: -1
46
  rotate: true
  xy: 852, 588
  size: 26, 28
  orig: 26, 28
  offset: 0, 0
  index: -1
47
  rotate: false
  xy: 553, 545
  size: 31, 15
  orig: 31, 15
  offset: 0, 0
  index: -1
48
  rotate: true
  xy: 882, 595
  size: 19, 32
  orig: 19, 32
  offset: 0, 0
  index: -1
49
  rotate: false
  xy: 821, 588
  size: 29, 26
  orig: 29, 26
  offset: 0, 0
  index: -1
5
  rotate: false
  xy: 586, 552
  size: 19, 8
  orig: 19, 8
  offset: 0, 0
  index: -1
50
  rotate: true
  xy: 988, 752
  size: 28, 21
  orig: 28, 21
  offset: 0, 0
  index: -1
51
  rotate: true
  xy: 636, 562
  size: 22, 30
  orig: 22, 30
  offset: 0, 0
  index: -1
52
  rotate: false
  xy: 668, 565
  size: 32, 19
  orig: 32, 19
  offset: 0, 0
  index: -1
53
  rotate: true
  xy: 988, 990
  size: 28, 34
  orig: 28, 34
  offset: 0, 0
  index: -1
54
  rotate: true
  xy: 283, 124
  size: 73, 127
  orig: 73, 127
  offset: 0, 0
  index: -1
6
  rotate: false
  xy: 328, 107
  size: 15, 15
  orig: 15, 15
  offset: 0, 0
  index: -1
65
  rotate: false
  xy: 2, 720
  size: 378, 298
  orig: 378, 298
  offset: 0, 0
  index: -1
67
  rotate: false
  xy: 376, 548
  size: 90, 66
  orig: 90, 66
  offset: 0, 0
  index: -1
68
  rotate: false
  xy: 321, 637
  size: 53, 81
  orig: 53, 81
  offset: 0, 0
  index: -1
69
  rotate: false
  xy: 321, 554
  size: 53, 81
  orig: 53, 81
  offset: 0, 0
  index: -1
7
  rotate: false
  xy: 1008, 702
  size: 14, 17
  orig: 14, 17
  offset: 0, 0
  index: -1
70
  rotate: false
  xy: 321, 408
  size: 37, 61
  orig: 37, 61
  offset: 0, 0
  index: -1
71
  rotate: false
  xy: 988, 782
  size: 26, 26
  orig: 26, 26
  offset: 0, 0
  index: -1
72
  rotate: true
  xy: 988, 874
  size: 33, 29
  orig: 33, 29
  offset: 0, 0
  index: -1
73
  rotate: true
  xy: 283, 107
  size: 15, 43
  orig: 15, 43
  offset: 0, 0
  index: -1
74
  rotate: true
  xy: 375, 480
  size: 26, 44
  orig: 26, 44
  offset: 0, 0
  index: -1
75
  rotate: true
  xy: 701, 586
  size: 28, 43
  orig: 28, 43
  offset: 0, 0
  index: -1
8
  rotate: false
  xy: 944, 602
  size: 15, 12
  orig: 15, 12
  offset: 0, 0
  index: -1
82
  rotate: true
  xy: 2, 2
  size: 92, 131
  orig: 92, 131
  offset: 0, 0
  index: -1
83
  rotate: true
  xy: 150, 105
  size: 92, 131
  orig: 92, 131
  offset: 0, 0
  index: -1
9
  rotate: false
  xy: 726, 567
  size: 10, 17
  orig: 10, 17
  offset: 0, 0
  index: -1
fx2/ef1 (1)
  rotate: false
  xy: 382, 818
  size: 200, 200
  orig: 200, 200
  offset: 0, 0
  index: -1
fx2/ef1 (2)
  rotate: false
  xy: 2, 199
  size: 200, 200
  orig: 200, 200
  offset: 0, 0
  index: -1
fx2/ef1 (3)
  rotate: false
  xy: 584, 818
  size: 200, 200
  orig: 200, 200
  offset: 0, 0
  index: -1
fx2/ef1 (4)
  rotate: false
  xy: 786, 818
  size: 200, 200
  orig: 200, 200
  offset: 0, 0
  index: -1
fx2/ef1 (5)
  rotate: false
  xy: 204, 199
  size: 200, 200
  orig: 200, 200
  offset: 0, 0
  index: -1
fx2/ef1 (6)
  rotate: false
  xy: 382, 616
  size: 200, 200
  orig: 200, 200
  offset: 0, 0
  index: -1
fx2/ef1 (7)
  rotate: false
  xy: 584, 616
  size: 200, 200
  orig: 200, 200
  offset: 0, 0
  index: -1
fx2/ef1 (8)
  rotate: false
  xy: 786, 616
  size: 200, 200
  orig: 200, 200
  offset: 0, 0
  index: -1
shadow
  rotate: false
  xy: 2, 401
  size: 317, 317
  orig: 317, 317
  offset: 0, 0
  index: -1
