{
"skeleton": { "hash": "sysmECXB2wKMqu51znSk1F4GKDE", "spine": "3.6.53", "width": 126, "height": 93, "images": "./Img/" },
"bones": [
	{ "name": "root" },
	{ "name": "Body", "parent": "root", "length": 41.89, "rotation": -90.35, "x": -0.1, "y": 88.35 },
	{ "name": "Body_01", "parent": "Body", "length": 26.22, "rotation": -0.21, "x": 49.09, "y": 0.04 },
	{ "name": "Body_11", "parent": "Body", "length": 28.16, "rotation": -64.25, "x": 13.77, "y": -23.82 },
	{ "name": "Body_12", "parent": "Body", "length": 33.95, "rotation": 60.88, "x": 10.67, "y": 20.11 },
	{ "name": "L_Wing", "parent": "Body_12", "length": 20.05, "rotation": -61.26, "x": 38.76, "y": -6.43 },
	{ "name": "R_Wing", "parent": "Body_11", "length": 17.74, "rotation": 62.94, "x": 32.95, "y": 7.68 }
],
"slots": [
	{ "name": "R_Wing", "bone": "R_Wing", "attachment": "R_Wing" },
	{ "name": "L_Wing", "bone": "L_Wing", "attachment": "L_Wing" },
	{ "name": "Body", "bone": "Body", "attachment": "Body" }
],
"skins": {
	"default": {
		"Body": {
			"Body": {
				"type": "mesh",
				"uvs": [ 0.41337, 0.00138, 0.60668, 0, 0.63365, 0.05327, 0.91687, 0.2226, 1, 0.37282, 1, 0.59131, 0.88091, 0.48753, 0.73255, 0.43837, 0.73255, 0.54762, 0.6314, 0.65959, 0.6073, 0.80559, 0.57521, 1, 0.42236, 1, 0.39564, 0.79928, 0.3774, 0.66232, 0.27625, 0.5285, 0.27176, 0.43291, 0.13464, 0.47114, 0, 0.58858, 0, 0.36189, 0.09868, 0.2308, 0.37516, 0.04781 ],
				"triangles": [ 14, 15, 9, 10, 13, 14, 9, 10, 14, 11, 12, 13, 10, 11, 13, 7, 2, 3, 6, 7, 3, 4, 6, 3, 6, 4, 5, 16, 20, 21, 17, 19, 20, 16, 17, 20, 18, 19, 17, 0, 1, 2, 2, 21, 0, 2, 16, 21, 7, 16, 2, 15, 16, 7, 15, 7, 8, 9, 15, 8 ],
				"vertices": [ 2, 1, -9.6, -10.69, 0.83378, 3, -21.98, -15.35, 0.16622, 3, 1, -9.86, 11.16, 0.77411, 3, -41.77, -6.09, 0, 4, -17.82, 13.58, 0.22589, 3, 1, -4.93, 14.23, 0.58541, 3, -42.4, -0.31, 0, 4, -12.73, 10.77, 0.41459, 2, 3, -64.55, 27.64, 0, 4, 22.88, 12.81, 1, 2, 3, -67.05, 44.29, 0, 4, 37.94, 5.27, 1, 1, 4, 47.93, -12.42, 1, 2, 1, 35.28, 42.42, 0.00289, 4, 31.47, -10.64, 0.99711, 3, 1, 30.82, 25.63, 0.29914, 4, 14.62, -14.91, 0.67682, 2, -18.37, 25.52, 0.02404, 3, 1, 40.98, 25.69, 0.54716, 4, 19.62, -23.76, 0.31887, 2, -8.21, 25.62, 0.13397, 3, 1, 51.46, 14.33, 0.28811, 4, 14.8, -38.45, 0.06042, 2, 2.32, 14.29, 0.65146, 4, 1, 65.05, 11.69, 0.00201, 3, -9.7, 61.62, 0, 4, 19.11, -51.61, 0.00101, 2, 15.92, 11.7, 0.99698, 2, 3, 1.33, 76.39, 0, 2, 34.04, 8.25, 1, 1, 2, 34.21, -9.02, 1, 3, 1, 64.61, -12.23, 0.00336, 3, 11.66, 50.83, 0.00138, 2, 15.57, -12.22, 0.99526, 3, 1, 51.89, -14.37, 0.27064, 3, 8.05, 38.44, 0.0569, 2, 2.85, -14.41, 0.67246, 3, 1, 39.51, -25.88, 0.5175, 3, 13.04, 22.29, 0.37004, 2, -9.48, -25.96, 0.11246, 3, 1, 30.63, -26.44, 0.28121, 3, 9.69, 14.05, 0.69569, 2, -18.36, -26.55, 0.0231, 2, 1, 34.28, -41.91, 0.00293, 3, 25.21, 10.61, 0.99707, 1, 3, 43.64, 13.95, 1, 1, 3, 34.6, -5.09, 1, 1, 3, 19.3, -11.32, 1, 2, 1, -5.26, -14.98, 0.67592, 3, -16.23, -13.3, 0.32408 ],
				"hull": 22,
				"edges": [ 0, 2, 2, 4, 4, 6, 6, 8, 8, 10, 10, 12, 12, 14, 14, 16, 16, 18, 22, 24, 28, 30, 30, 32, 32, 34, 34, 36, 36, 38, 38, 40, 40, 42, 0, 42, 42, 32, 4, 14, 12, 6, 34, 40, 32, 14, 28, 18, 30, 16, 24, 26, 26, 28, 18, 20, 20, 22, 26, 20 ],
				"width": 113,
				"height": 93
			}
		},
		"L_Wing": {
			"L_Wing": { "x": 8.76, "y": -1.35, "rotation": 90.73, "width": 27, "height": 52 }
		},
		"R_Wing": {
			"R_Wing": { "x": 9.49, "y": 0.81, "rotation": 91.66, "width": 27, "height": 52 }
		}
	}
},
"animations": {
	"Idle_01": {
		"bones": {
			"Body": {
				"rotate": [
					{ "time": 0, "angle": 0, "curve": "stepped" },
					{ "time": 1.0667, "angle": 0 }
				],
				"translate": [
					{
						"time": 0,
						"x": 0,
						"y": 0,
						"curve": [ 0.256, 0.36, 0.75, 1 ]
					},
					{
						"time": 0.6667,
						"x": 0,
						"y": 20.73,
						"curve": [ 0.25, 0, 0.774, 0.7 ]
					},
					{ "time": 1.0667, "x": 0, "y": 0 }
				],
				"scale": [
					{ "time": 0, "x": 1, "y": 1 },
					{ "time": 0.2667, "x": 1.039, "y": 1.039 },
					{ "time": 0.8, "x": 0.982, "y": 0.982 },
					{ "time": 1.0667, "x": 1, "y": 1 }
				]
			},
			"Body_01": {
				"rotate": [
					{ "time": 0, "angle": 0, "curve": "stepped" },
					{ "time": 1.0667, "angle": 0 }
				],
				"translate": [
					{ "time": 0, "x": 0, "y": 0 },
					{ "time": 0.5333, "x": -0.48, "y": 0 },
					{ "time": 1.0667, "x": 0, "y": 0 }
				],
				"scale": [
					{ "time": 0, "x": 1, "y": 1 },
					{ "time": 0.5333, "x": 0.942, "y": 1.116 },
					{ "time": 1.0667, "x": 1, "y": 1 }
				]
			},
			"Body_11": {
				"rotate": [
					{ "time": 0, "angle": 0 },
					{ "time": 0.2667, "angle": -6.21 },
					{ "time": 0.8, "angle": 3.8 },
					{ "time": 1.0667, "angle": 0 }
				],
				"translate": [
					{ "time": 0, "x": 0, "y": 0, "curve": "stepped" },
					{ "time": 1.0667, "x": 0, "y": 0 }
				],
				"scale": [
					{ "time": 0, "x": 1, "y": 1 },
					{ "time": 0.2667, "x": 0.923, "y": 0.923 },
					{ "time": 0.8, "x": 1.055, "y": 1.055 },
					{ "time": 1.0667, "x": 1, "y": 1 }
				]
			},
			"Body_12": {
				"rotate": [
					{ "time": 0, "angle": 0 },
					{ "time": 0.2667, "angle": 3.82 },
					{ "time": 0.8, "angle": -2.75 },
					{ "time": 1.0667, "angle": 0 }
				],
				"translate": [
					{ "time": 0, "x": 0, "y": 0, "curve": "stepped" },
					{ "time": 1.0667, "x": 0, "y": 0 }
				],
				"scale": [
					{ "time": 0, "x": 1, "y": 1 },
					{ "time": 0.2667, "x": 0.924, "y": 0.924 },
					{ "time": 0.8, "x": 1.057, "y": 1.063 },
					{ "time": 1.0667, "x": 1, "y": 1 }
				]
			},
			"L_Wing": {
				"rotate": [
					{ "time": 0, "angle": 0, "curve": "stepped" },
					{ "time": 1.0667, "angle": 0 }
				],
				"translate": [
					{ "time": 0, "x": 0, "y": 0, "curve": "stepped" },
					{ "time": 1.0667, "x": 0, "y": 0 }
				],
				"scale": [
					{ "time": 0, "x": 1, "y": 1 },
					{ "time": 0.2667, "x": 0.284, "y": 1 },
					{ "time": 0.3667, "x": 0.758, "y": 1 },
					{ "time": 0.4667, "x": 0.861, "y": 1 },
					{ "time": 0.5667, "x": 0.405, "y": 1 },
					{ "time": 0.6667, "x": 0.845, "y": 1 },
					{ "time": 0.7667, "x": 0.938, "y": 1 },
					{ "time": 0.8667, "x": 0.444, "y": 1 },
					{ "time": 0.9667, "x": 0.828, "y": 1 },
					{ "time": 1.0667, "x": 1, "y": 1 }
				]
			},
			"R_Wing": {
				"rotate": [
					{ "time": 0, "angle": 0, "curve": "stepped" },
					{ "time": 1.0667, "angle": 0 }
				],
				"translate": [
					{ "time": 0, "x": 0, "y": 0, "curve": "stepped" },
					{ "time": 1.0667, "x": 0, "y": 0 }
				],
				"scale": [
					{ "time": 0, "x": 1, "y": 1 },
					{ "time": 0.2667, "x": 0.284, "y": 1 },
					{ "time": 0.3667, "x": 0.758, "y": 1 },
					{ "time": 0.4667, "x": 0.861, "y": 1 },
					{ "time": 0.5667, "x": 0.405, "y": 1 },
					{ "time": 0.6667, "x": 0.845, "y": 1 },
					{ "time": 0.7667, "x": 0.938, "y": 1 },
					{ "time": 0.8667, "x": 0.444, "y": 1 },
					{ "time": 0.9667, "x": 0.828, "y": 1 },
					{ "time": 1.0667, "x": 1, "y": 1 }
				]
			}
		}
	}
}
}