{
"skeleton": { "hash": "K1DnSPZeJVPugcHx7RvfTfKn8cU", "spine": "3.6.53", "width": 140, "height": 144, "images": "./Img/" },
"bones": [
	{ "name": "root" },
	{ "name": "Layer 1211", "parent": "root", "length": 48.23, "rotation": -90, "x": -0.76, "y": 101.77 },
	{ "name": "Layer 1207", "parent": "Layer 1211", "length": 17.44, "rotation": -177.4, "x": -16.02, "y": -11.55 },
	{ "name": "Layer 1213", "parent": "Layer 1211", "length": 24.82, "x": 58.17, "y": -0.46 },
	{ "name": "Layer 1207 copy", "parent": "Layer 1211", "length": 9.8, "rotation": -178.06, "x": -28.09, "y": -27.96 }
],
"slots": [
	{ "name": "Layer 1212", "bone": "Layer 1213", "attachment": "Layer 1212" },
	{ "name": "Layer 1211", "bone": "Layer 1211", "attachment": "Layer 1211" },
	{ "name": "Layer 1207", "bone": "Layer 1207", "attachment": "Layer 1207" },
	{ "name": "Layer 1207 copy", "bone": "Layer 1207 copy", "attachment": "Layer 1207 copy" }
],
"skins": {
	"default": {
		"Layer 1207": {
			"Layer 1207": { "x": 2.64, "y": 10.27, "rotation": -92.6, "width": 32, "height": 49 }
		},
		"Layer 1207 copy": {
			"Layer 1207 copy": { "x": 1.69, "y": 2.91, "rotation": -91.94, "width": 14, "height": 22 }
		},
		"Layer 1211": {
			"Layer 1211": { "x": 19.31, "y": 0.08, "rotation": 90, "width": 140, "height": 120 }
		},
		"Layer 1212": {
			"Layer 1212": { "x": 10.15, "y": 0.54, "rotation": 90, "width": 52, "height": 66 }
		}
	}
},
"animations": {
	"animation": {
		"bones": {
			"Layer 1211": {
				"rotate": [
					{ "time": 0, "angle": 0, "curve": "stepped" },
					{ "time": 0.2667, "angle": 0, "curve": "stepped" },
					{ "time": 0.8, "angle": 0, "curve": "stepped" },
					{ "time": 1.0667, "angle": 0 }
				],
				"translate": [
					{
						"time": 0,
						"x": 0,
						"y": -1.77,
						"curve": [ 0.274, 0.35, 0.75, 1 ]
					},
					{
						"time": 0.2667,
						"x": 0,
						"y": -5.77,
						"curve": [ 0.25, 0, 0.75, 1 ]
					},
					{
						"time": 0.8,
						"x": 0,
						"y": 2.23,
						"curve": [ 0.25, 0, 0.709, 0.59 ]
					},
					{ "time": 1.0667, "x": 0, "y": -1.77 }
				],
				"scale": [
					{ "time": 0, "x": 1, "y": 1, "curve": "stepped" },
					{ "time": 0.2667, "x": 1, "y": 1, "curve": "stepped" },
					{ "time": 0.8, "x": 1, "y": 1, "curve": "stepped" },
					{ "time": 1.0667, "x": 1, "y": 1 }
				]
			},
			"Layer 1213": {
				"rotate": [
					{ "time": 0, "angle": 0, "curve": "stepped" },
					{ "time": 0.4, "angle": 0, "curve": "stepped" },
					{ "time": 1.0667, "angle": 0 }
				],
				"translate": [
					{
						"time": 0,
						"x": -9.03,
						"y": 0,
						"curve": [ 0.25, 0, 0.75, 1 ]
					},
					{
						"time": 0.4,
						"x": -14.66,
						"y": 0,
						"curve": [ 0.361, 0, 0.75, 1 ]
					},
					{ "time": 1.0667, "x": -9.03, "y": 0 }
				],
				"scale": [
					{ "time": 0, "x": 1, "y": 1, "curve": "stepped" },
					{ "time": 0.4, "x": 1, "y": 1, "curve": "stepped" },
					{ "time": 1.0667, "x": 1, "y": 1 }
				]
			},
			"Layer 1207": {
				"rotate": [
					{ "time": 0, "angle": 0, "curve": "stepped" },
					{ "time": 0.9, "angle": 0, "curve": "stepped" },
					{ "time": 1.0667, "angle": 0 }
				],
				"translate": [
					{
						"time": 0,
						"x": 0,
						"y": 0,
						"curve": [ 0.306, 0.36, 0.75, 1 ]
					},
					{
						"time": 0.4,
						"x": 4.23,
						"y": 3.34,
						"curve": [ 0.25, 0, 0.75, 1 ]
					},
					{ "time": 0.9, "x": -3.1, "y": -3.1 },
					{ "time": 1.0667, "x": 0, "y": 0 }
				],
				"scale": [
					{ "time": 0, "x": 1, "y": 1, "curve": "stepped" },
					{ "time": 0.9, "x": 1, "y": 1, "curve": "stepped" },
					{ "time": 1.0667, "x": 1, "y": 1 }
				]
			},
			"Layer 1207 copy": {
				"rotate": [
					{ "time": 0, "angle": 0, "curve": "stepped" },
					{ "time": 1.0667, "angle": 0 }
				],
				"translate": [
					{
						"time": 0,
						"x": 0.52,
						"y": 3.13,
						"curve": [ 0.25, 0, 0.75, 1 ]
					},
					{
						"time": 0.5333,
						"x": 4.87,
						"y": 5.09,
						"curve": [ 0.25, 0, 0.75, 1 ]
					},
					{ "time": 1.0667, "x": 0.52, "y": 3.13 }
				],
				"scale": [
					{ "time": 0, "x": 1, "y": 1, "curve": "stepped" },
					{ "time": 1.0667, "x": 1, "y": 1 }
				]
			}
		}
	}
}
}