{
"skeleton": { "hash": "T+O4QIjlBBBdKgTBVIVx+UwuuTo", "spine": "3.6.53", "width": 138, "height": 138, "images": "./Img/" },
"bones": [
	{ "name": "root" },
	{ "name": "X", "parent": "root", "length": 29.38, "y": -32.09 },
	{ "name": "1", "parent": "X", "length": 55.58, "rotation": -90, "x": 3.18, "y": 134.19 },
	{ "name": "3", "parent": "1", "length": 31.36, "rotation": 180, "x": 104.01, "y": -1.59 },
	{ "name": "L", "parent": "1", "length": 19.85, "rotation": -90, "x": 25.41, "y": 60.34 },
	{ "name": "R", "parent": "1", "length": 23.42, "rotation": 90, "x": 27, "y": -58.36 }
],
"slots": [
	{ "name": "R", "bone": "R", "attachment": "R" },
	{ "name": "L", "bone": "L", "attachment": "L" },
	{ "name": "2", "bone": "3", "attachment": "2" },
	{ "name": "1", "bone": "1", "attachment": "1" },
	{ "name": "12", "bone": "3", "attachment": "2" }
],
"skins": {
	"default": {
		"1": {
			"1": { "x": 26.01, "y": 0.24, "rotation": 90, "width": 94, "height": 117 }
		},
		"12": {
			"2": {
				"type": "mesh",
				"uvs": [ 1, 0.40471, 1, 1, 0, 1, 0, 0.39957 ],
				"triangles": [ 2, 3, 0, 2, 0, 1 ],
				"vertices": [ 36.01, -36.83, -1.49, -36.83, -1.49, 35.17, 36.33, 35.17 ],
				"hull": 4,
				"edges": [ 2, 4, 4, 6, 2, 0, 6, 0 ],
				"width": 72,
				"height": 63
			}
		},
		"2": {
			"2": { "x": 30.01, "y": -0.83, "rotation": -90, "width": 72, "height": 63 }
		},
		"L": {
			"L": { "x": 10.1, "y": 0.6, "rotation": -180, "width": 38, "height": 29 }
		},
		"R": {
			"R": { "x": 8.6, "y": 0.99, "width": 38, "height": 29 }
		}
	}
},
"animations": {
	"Idle_01": {
		"bones": {
			"X": {
				"rotate": [
					{ "time": 0, "angle": 0, "curve": "stepped" },
					{ "time": 0.2, "angle": 0, "curve": "stepped" },
					{ "time": 0.6, "angle": 0, "curve": "stepped" },
					{ "time": 0.8, "angle": 0 }
				],
				"translate": [
					{ "time": 0, "x": 0, "y": 0, "curve": "stepped" },
					{ "time": 0.2, "x": 0, "y": 0, "curve": "stepped" },
					{ "time": 0.6, "x": 0, "y": 0, "curve": "stepped" },
					{ "time": 0.8, "x": 0, "y": 0 }
				],
				"scale": [
					{ "time": 0, "x": 1, "y": 1, "curve": "stepped" },
					{ "time": 0.2, "x": 1, "y": 1, "curve": "stepped" },
					{ "time": 0.6, "x": 1, "y": 1, "curve": "stepped" },
					{ "time": 0.8, "x": 1, "y": 1 }
				]
			},
			"1": {
				"rotate": [
					{ "time": 0, "angle": 0, "curve": "stepped" },
					{ "time": 0.2667, "angle": 0, "curve": "stepped" },
					{ "time": 0.8, "angle": 0 }
				],
				"translate": [
					{
						"time": 0,
						"x": 0,
						"y": 0,
						"curve": [ 0.29, 0.43, 0.75, 1 ]
					},
					{
						"time": 0.2667,
						"x": 0,
						"y": -18.82,
						"curve": [ 0.25, 0, 0.75, 1 ]
					},
					{ "time": 0.8, "x": 0, "y": 0 }
				],
				"scale": [
					{ "time": 0, "x": 1, "y": 1, "curve": "stepped" },
					{ "time": 0.2667, "x": 1, "y": 1, "curve": "stepped" },
					{ "time": 0.8, "x": 1, "y": 1 }
				]
			},
			"R": {
				"rotate": [
					{ "time": 0, "angle": 0, "curve": "stepped" },
					{ "time": 0.4, "angle": 0, "curve": "stepped" },
					{ "time": 0.8, "angle": 0 }
				],
				"translate": [
					{ "time": 0, "x": 0, "y": 6.9 },
					{ "time": 0.4, "x": 0, "y": -8.2 },
					{ "time": 0.5, "x": 0, "y": 2.27 },
					{ "time": 0.7, "x": 0, "y": 6.64 },
					{ "time": 0.8, "x": 0, "y": 6.9 }
				],
				"scale": [
					{ "time": 0, "x": 1, "y": 1, "curve": "stepped" },
					{ "time": 0.4, "x": 1, "y": 1, "curve": "stepped" },
					{ "time": 0.8, "x": 1, "y": 1 }
				]
			},
			"L": {
				"rotate": [
					{ "time": 0, "angle": 0, "curve": "stepped" },
					{ "time": 0.4, "angle": 0, "curve": "stepped" },
					{ "time": 0.8, "angle": 0 }
				],
				"translate": [
					{ "time": 0, "x": 0, "y": -5.52 },
					{ "time": 0.4, "x": 0, "y": 5.47 },
					{ "time": 0.5, "x": 0, "y": -2.27 },
					{ "time": 0.7, "x": 0, "y": -5.81 },
					{ "time": 0.8, "x": 0, "y": -5.52 }
				],
				"scale": [
					{ "time": 0, "x": 1, "y": 1, "curve": "stepped" },
					{ "time": 0.4, "x": 1, "y": 1, "curve": "stepped" },
					{ "time": 0.8, "x": 1, "y": 1 }
				]
			},
			"3": {
				"rotate": [
					{ "time": 0, "angle": 0, "curve": "stepped" },
					{ "time": 0.2, "angle": 0, "curve": "stepped" },
					{ "time": 0.6, "angle": 0, "curve": "stepped" },
					{ "time": 0.8, "angle": 0 }
				],
				"translate": [
					{ "time": 0, "x": -2.05, "y": 0 },
					{ "time": 0.2, "x": -6.78, "y": 0 },
					{ "time": 0.6, "x": 8.85, "y": 0 },
					{ "time": 0.8, "x": -2.05, "y": 0 }
				],
				"scale": [
					{ "time": 0, "x": 1, "y": 1, "curve": "stepped" },
					{ "time": 0.2, "x": 1, "y": 1, "curve": "stepped" },
					{ "time": 0.6, "x": 1, "y": 1, "curve": "stepped" },
					{ "time": 0.8, "x": 1, "y": 1 }
				]
			}
		}
	}
}
}