%YAML 1.1
%TAG !u! tag:unity3d.com,2011:
--- !u!114 &11400000
MonoBehaviour:
  m_ObjectHideFlags: 0
  m_CorrespondingSourceObject: {fileID: 0}
  m_PrefabInstance: {fileID: 0}
  m_PrefabAsset: {fileID: 0}
  m_GameObject: {fileID: 0}
  m_Enabled: 1
  m_EditorHideFlags: 0
  m_Script: {fileID: 11500000, guid: f1b3b4b945939a54ea0b23d3396115fb, type: 3}
  m_Name: E47_Boss12_SkeletonData
  m_EditorClassIdentifier: 
  atlasAssets:
  - {fileID: 11400000, guid: 49ec199b76495974cb1e54a872a83961, type: 2}
  scale: 0.009
  skeletonJSON: {fileID: 4900000, guid: f1bf41961307adb4c9b27bbcd28e2955, type: 3}
  fromAnimation:
  - Attack_02
  - Attack_03
  toAnimation:
  - Idle_02
  - Idle_02
  duration:
  - 0.25
  - 0.25
  defaultMix: 0.2
  controller: {fileID: 0}
