{
"skeleton": { "hash": "lLFXF8dR23jslBvYxVlkM1YN1d4", "spine": "3.6.53", "width": 176, "height": 140, "images": "./Img/" },
"bones": [
	{ "name": "root" },
	{ "name": "Body", "parent": "root", "length": 52.1, "rotation": 89.53, "x": 1.29, "y": 32.84 },
	{ "name": "Body2", "parent": "Body", "length": 38.86, "rotation": 1.1, "x": 52.1 },
	{ "name": "Body3", "parent": "Body", "length": 8.33, "rotation": -89.53, "x": 22.69, "y": -1.21 },
	{ "name": "L_Leg_01", "parent": "Body3", "length": 20.33, "rotation": -77.47, "x": 31.12, "y": -16.17 },
	{ "name": "L_Leg_11", "parent": "Body2", "length": 23.25, "rotation": -85.15, "x": -17.65, "y": -31.73 },
	{ "name": "R_Leg_01", "parent": "Body3", "length": 19.37, "rotation": -99.46, "x": -34.79, "y": -18.13 },
	{ "name": "R_Leg_11", "parent": "Body2", "length": 23.45, "rotation": 80.04, "x": -17.55, "y": 34.84 }
],
"slots": [
	{ "name": "R_Leg_01", "bone": "R_Leg_01", "attachment": "R_Leg_01" },
	{ "name": "R_Leg_11", "bone": "R_Leg_11", "attachment": "R_Leg_11" },
	{ "name": "L_Leg_01", "bone": "L_Leg_01", "attachment": "L_Leg_01" },
	{ "name": "L_Leg_11", "bone": "L_Leg_11", "attachment": "L_Leg_11" },
	{ "name": "Body", "bone": "Body", "attachment": "Body" }
],
"skins": {
	"default": {
		"Body": {
			"Body": {
				"type": "mesh",
				"uvs": [ 1, 0.23844, 1, 0.47615, 1, 0.7058, 1, 1, 0, 1, 0, 0.69371, 0, 0.47816, 0, 0.24045, 0, 0, 1, 0 ],
				"triangles": [ 4, 2, 3, 4, 5, 2, 5, 1, 2, 5, 6, 1, 6, 7, 1, 7, 0, 1, 7, 8, 0, 8, 9, 0 ],
				"vertices": [ 2, 1, 63.2, -44.52, 0.41411, 2, 10.25, -44.73, 0.58589, 2, 1, 30.4, -44.79, 0.92052, 2, -22.55, -44.37, 0.07948, 2, 1, -1.29, -45.05, 0.99997, 2, -54.24, -44.02, 3.0E-5, 1, 1, -41.89, -45.39, 1, 1, 1, -42.65, 46.61, 1, 2, 1, -0.38, 46.96, 0.99976, 2, -51.57, 47.96, 2.4E-4, 2, 1, 29.37, 47.2, 0.92269, 2, -21.82, 47.63, 0.07731, 2, 1, 62.17, 47.47, 0.46788, 2, 10.98, 47.27, 0.53212, 2, 1, 95.35, 47.74, 0.14716, 2, 44.16, 46.9, 0.85284, 2, 1, 96.1, -44.25, 0.08516, 2, 43.15, -45.09, 0.91484 ],
				"hull": 10,
				"edges": [ 6, 8, 16, 18, 12, 2, 12, 14, 14, 16, 2, 0, 0, 18, 14, 0, 8, 10, 10, 12, 2, 4, 4, 6, 10, 4 ],
				"width": 92,
				"height": 138
			}
		},
		"L_Leg_01": {
			"L_Leg_01": { "x": 22.24, "y": 18.14, "rotation": 77.47, "width": 56, "height": 66 }
		},
		"L_Leg_11": {
			"L_Leg_11": { "x": 28.8, "y": 20.79, "rotation": -5.48, "width": 58, "height": 75 }
		},
		"R_Leg_01": {
			"R_Leg_01": { "x": 19.15, "y": -18.67, "rotation": 99.46, "width": 56, "height": 66 }
		},
		"R_Leg_11": {
			"R_Leg_11": { "x": 28.32, "y": -19.74, "rotation": -170.67, "width": 58, "height": 75 }
		}
	}
},
"animations": {
	"Idle_01": {
		"bones": {
			"root": {
				"rotate": [
					{ "time": 0, "angle": 0, "curve": "stepped" },
					{ "time": 2, "angle": 0 }
				],
				"translate": [
					{ "time": 0, "x": 0, "y": 0 },
					{ "time": 1, "x": 0, "y": -8.44 },
					{ "time": 2, "x": 0, "y": 0 }
				],
				"scale": [
					{ "time": 0, "x": 1, "y": 1, "curve": "stepped" },
					{ "time": 2, "x": 1, "y": 1 }
				]
			},
			"Body": {
				"rotate": [
					{ "time": 0, "angle": 0, "curve": "stepped" },
					{ "time": 2, "angle": 0 }
				],
				"translate": [
					{ "time": 0, "x": 0, "y": 0 },
					{ "time": 1, "x": 0, "y": 25.51 },
					{ "time": 2, "x": 0, "y": 0 }
				],
				"scale": [
					{ "time": 0, "x": 1, "y": 1, "curve": "stepped" },
					{ "time": 2, "x": 1, "y": 1 }
				]
			},
			"Body2": {
				"rotate": [
					{ "time": 0, "angle": 0 },
					{ "time": 1, "angle": -2.11 },
					{ "time": 2, "angle": 0 }
				],
				"translate": [
					{
						"time": 0,
						"x": -7.35,
						"y": -0.06,
						"curve": [ 0.25, 0, 0.75, 1 ]
					},
					{
						"time": 1,
						"x": 5.99,
						"y": 0.05,
						"curve": [ 0.25, 0, 0.75, 1 ]
					},
					{ "time": 2, "x": -7.35, "y": -0.06 }
				],
				"scale": [
					{ "time": 0, "x": 1.02, "y": 1 },
					{ "time": 1, "x": 1.166, "y": 1.078 },
					{ "time": 2, "x": 1.02, "y": 1 }
				]
			},
			"R_Leg_11": {
				"rotate": [
					{ "time": 0, "angle": 11.05 },
					{ "time": 1, "angle": -16.88 },
					{ "time": 2, "angle": 11.05 }
				],
				"translate": [
					{ "time": 0, "x": 0, "y": 0, "curve": "stepped" },
					{ "time": 2, "x": 0, "y": 0 }
				],
				"scale": [
					{ "time": 0, "x": 1, "y": 1, "curve": "stepped" },
					{ "time": 2, "x": 1, "y": 1 }
				]
			},
			"L_Leg_11": {
				"rotate": [
					{ "time": 0, "angle": -6.91 },
					{ "time": 1, "angle": 18.89 },
					{ "time": 2, "angle": -6.91 }
				],
				"translate": [
					{ "time": 0, "x": 0, "y": 0, "curve": "stepped" },
					{ "time": 2, "x": 0, "y": 0 }
				],
				"scale": [
					{ "time": 0, "x": 1, "y": 1, "curve": "stepped" },
					{ "time": 2, "x": 1, "y": 1 }
				]
			},
			"Body3": {
				"rotate": [
					{ "time": 0, "angle": 0, "curve": "stepped" },
					{ "time": 2, "angle": 0 }
				],
				"translate": [
					{ "time": 0, "x": 0, "y": 0 },
					{ "time": 0.5, "x": 5.56, "y": 0.05 },
					{ "time": 1.5, "x": -5.86, "y": -0.05 },
					{ "time": 2, "x": 0, "y": 0 }
				],
				"scale": [
					{ "time": 0, "x": 1, "y": 1, "curve": "stepped" },
					{ "time": 2, "x": 1, "y": 1 }
				]
			},
			"R_Leg_01": {
				"rotate": [
					{
						"time": 0,
						"angle": 0,
						"curve": [ 0.365, 0.45, 0.75, 1 ]
					},
					{
						"time": 0.5,
						"angle": -25.78,
						"curve": [ 0.25, 0, 0.75, 1 ]
					},
					{
						"time": 1.5,
						"angle": 7.62,
						"curve": [ 0.25, 0, 0.68, 0.55 ]
					},
					{ "time": 2, "angle": 0 }
				],
				"translate": [
					{ "time": 0, "x": 0, "y": 0, "curve": "stepped" },
					{ "time": 2, "x": 0, "y": 0 }
				],
				"scale": [
					{ "time": 0, "x": 1, "y": 1, "curve": "stepped" },
					{ "time": 2, "x": 1, "y": 1 }
				]
			},
			"L_Leg_01": {
				"rotate": [
					{
						"time": 0,
						"angle": 0,
						"curve": [ 0.365, 0.45, 0.75, 1 ]
					},
					{
						"time": 0.5,
						"angle": 22.8,
						"curve": [ 0.25, 0, 0.75, 1 ]
					},
					{
						"time": 1.5,
						"angle": -9.59,
						"curve": [ 0.25, 0, 0.68, 0.55 ]
					},
					{ "time": 2, "angle": 0 }
				],
				"translate": [
					{ "time": 0, "x": 0, "y": 0, "curve": "stepped" },
					{ "time": 2, "x": 0, "y": 0 }
				],
				"scale": [
					{ "time": 0, "x": 1, "y": 1, "curve": "stepped" },
					{ "time": 2, "x": 1, "y": 1 }
				]
			}
		}
	}
}
}