%YAML 1.1
%TAG !u! tag:unity3d.com,2011:
--- !u!114 &11400000
MonoBehaviour:
  m_ObjectHideFlags: 0
  m_CorrespondingSourceObject: {fileID: 0}
  m_PrefabInstance: {fileID: 0}
  m_PrefabAsset: {fileID: 0}
  m_GameObject: {fileID: 0}
  m_Enabled: 1
  m_EditorHideFlags: 0
  m_Script: {fileID: 11500000, guid: 9a10ba4d4626e774f8c4f03a20e931ad, type: 3}
  m_Name: RankAttack__Drone08
  m_EditorClassIdentifier: 
  ranks:
  - rank: 0
    levels:
    - level: 0
      attacks:
      - rateAttack: 0.2
        scaleDamage: 0
        typeAttack: 0
        dataAttack:
        - idBullet: 0
          timeDelay: 0
          offset: {x: 0, y: 0.3, z: 0}
          eulerAngle: {x: 0, y: 0, z: 0}
    - level: 0
      attacks: []
    - level: 0
      attacks: []
    - level: 0
      attacks: []
    - level: 0
      attacks: []
    - level: 0
      attacks: []
    - level: 0
      attacks: []
    - level: 0
      attacks: []
    - level: 0
      attacks: []
    - level: 0
      attacks: []
  - rank: 0
    levels: []
  - rank: 0
    levels: []
  - rank: 0
    levels: []
  - rank: 0
    levels: []
