%YAML 1.1
%TAG !u! tag:unity3d.com,2011:
--- !u!114 &11400000
MonoBehaviour:
  m_ObjectHideFlags: 0
  m_CorrespondingSourceObject: {fileID: 0}
  m_PrefabInstance: {fileID: 0}
  m_PrefabAsset: {fileID: 0}
  m_GameObject: {fileID: 0}
  m_Enabled: 1
  m_EditorHideFlags: 0
  m_Script: {fileID: 11500000, guid: bf5d7ed2671cf0d4b825cab5b09dbcb8, type: 3}
  m_Name: Level 07
  m_EditorClassIdentifier: 
  FuelCost: 1
  CoinReward: 750
  ReFightCoinReward: 375
  CombatPower: 2053
  EvolveShipNum: 3
  EvolveShipId: 1
  EvolveDroneNum: 3
  EvolveDroneId: 1
  Waves:
  - WaveType: 0
    FireRate: 5
    Hp: 2
    Items:
      List:
      - Type: 0
        Num: 2
      - Type: 1
        Num: 5
      NumEnemiesCanHaveItem: 3
    HasPower: 0
    NoDam: 0
    IsTeam: 1
    DestroyOnFinish: 0
    IdleType: 8
    TimeMove: 5
    Ease: 0
    Paths:
    - DelayTime: 0
      Distance: 0.3
      MoveSpeed: 5
      Index: 7
      Offset: {x: 0, y: 0}
      FlipX: 0
      FlipY: 0
      Cells:
      - Row: 0
        Coll: 0
    - DelayTime: 0
      Distance: 0.3
      MoveSpeed: 5
      Index: 7
      Offset: {x: 0, y: 0}
      FlipX: 0
      FlipY: 0
      Cells:
      - Row: 1
        Coll: 0
    - DelayTime: 0
      Distance: 0.3
      MoveSpeed: 5
      Index: 7
      Offset: {x: 0, y: 0}
      FlipX: 0
      FlipY: 0
      Cells:
      - Row: 2
        Coll: 0
    - DelayTime: 0
      Distance: 0.3
      MoveSpeed: 5
      Index: 7
      Offset: {x: 0, y: 0}
      FlipX: 0
      FlipY: 0
      Cells:
      - Row: 2
        Coll: 1
    - DelayTime: 0
      Distance: 0.3
      MoveSpeed: 5
      Index: 7
      Offset: {x: 0, y: 0}
      FlipX: 0
      FlipY: 0
      Cells:
      - Row: 1
        Coll: 2
    - DelayTime: 0
      Distance: 0.3
      MoveSpeed: 5
      Index: 7
      Offset: {x: 0, y: 0}
      FlipX: 0
      FlipY: 0
      Cells:
      - Row: 2
        Coll: 2
    - DelayTime: 0
      Distance: 0.3
      MoveSpeed: 5
      Index: 7
      Offset: {x: 0, y: 0}
      FlipX: 0
      FlipY: 0
      Cells:
      - Row: 0
        Coll: 3
    - DelayTime: 0
      Distance: 0.3
      MoveSpeed: 5
      Index: 7
      Offset: {x: 0, y: 0}
      FlipX: 0
      FlipY: 0
      Cells:
      - Row: 1
        Coll: 3
    - DelayTime: 0
      Distance: 0.3
      MoveSpeed: 5
      Index: 7
      Offset: {x: 0, y: 0}
      FlipX: 0
      FlipY: 0
      Cells:
      - Row: 2
        Coll: 3
    - DelayTime: 0
      Distance: 0.3
      MoveSpeed: 5
      Index: 7
      Offset: {x: 0, y: 0}
      FlipX: 0
      FlipY: 0
      Cells:
      - Row: 1
        Coll: 4
    - DelayTime: 0
      Distance: 0.3
      MoveSpeed: 5
      Index: 7
      Offset: {x: 0, y: 0}
      FlipX: 0
      FlipY: 0
      Cells:
      - Row: 2
        Coll: 4
    - DelayTime: 0
      Distance: 0.3
      MoveSpeed: 5
      Index: 7
      Offset: {x: 0, y: 0}
      FlipX: 0
      FlipY: 0
      Cells:
      - Row: 2
        Coll: 5
    - DelayTime: 0
      Distance: 0.3
      MoveSpeed: 5
      Index: 7
      Offset: {x: 0, y: 0}
      FlipX: 0
      FlipY: 0
      Cells:
      - Row: 0
        Coll: 6
    - DelayTime: 0
      Distance: 0.3
      MoveSpeed: 5
      Index: 7
      Offset: {x: 0, y: 0}
      FlipX: 0
      FlipY: 0
      Cells:
      - Row: 1
        Coll: 6
    - DelayTime: 0
      Distance: 0.3
      MoveSpeed: 5
      Index: 7
      Offset: {x: 0, y: 0}
      FlipX: 0
      FlipY: 0
      Cells:
      - Row: 2
        Coll: 6
    - DelayTime: 0.4
      Distance: 0.3
      MoveSpeed: 5
      Index: 0
      Offset: {x: 0, y: 0}
      FlipX: 1
      FlipY: 0
      Cells:
      - Row: 3
        Coll: 0
    - DelayTime: 0.4
      Distance: 0.3
      MoveSpeed: 5
      Index: 0
      Offset: {x: 0, y: 0}
      FlipX: 1
      FlipY: 0
      Cells:
      - Row: 4
        Coll: 0
    - DelayTime: 0.4
      Distance: 0.3
      MoveSpeed: 5
      Index: 0
      Offset: {x: 0, y: 0}
      FlipX: 0
      FlipY: 0
      Cells:
      - Row: 3
        Coll: 1
    - DelayTime: 0.4
      Distance: 0.3
      MoveSpeed: 5
      Index: 0
      Offset: {x: 0, y: 0}
      FlipX: 0
      FlipY: 0
      Cells:
      - Row: 5
        Coll: 0
    - DelayTime: 0.4
      Distance: 0.3
      MoveSpeed: 5
      Index: 0
      Offset: {x: 0, y: 0}
      FlipX: 1
      FlipY: 0
      Cells:
      - Row: 6
        Coll: 0
    - DelayTime: 0.4
      Distance: 0.3
      MoveSpeed: 5
      Index: 0
      Offset: {x: 0, y: 0}
      FlipX: 1
      FlipY: 0
      Cells:
      - Row: 5
        Coll: 1
    - DelayTime: 0.4
      Distance: 0.3
      MoveSpeed: 5
      Index: 0
      Offset: {x: 0, y: 0}
      FlipX: 0
      FlipY: 0
      Cells:
      - Row: 4
        Coll: 1
    - DelayTime: 0.4
      Distance: 0.3
      MoveSpeed: 5
      Index: 0
      Offset: {x: 0, y: 0}
      FlipX: 0
      FlipY: 0
      Cells:
      - Row: 3
        Coll: 3
    - DelayTime: 0.4
      Distance: 0.3
      MoveSpeed: 5
      Index: 0
      Offset: {x: 0, y: 0}
      FlipX: 1
      FlipY: 0
      Cells:
      - Row: 3
        Coll: 5
    - DelayTime: 0.4
      Distance: 0.3
      MoveSpeed: 5
      Index: 0
      Offset: {x: 0, y: 0}
      FlipX: 1
      FlipY: 0
      Cells:
      - Row: 3
        Coll: 6
    - DelayTime: 0.4
      Distance: 0.3
      MoveSpeed: 5
      Index: 0
      Offset: {x: 0, y: 0}
      FlipX: 0
      FlipY: 0
      Cells:
      - Row: 4
        Coll: 5
    - DelayTime: 0.4
      Distance: 0.3
      MoveSpeed: 5
      Index: 0
      Offset: {x: 0, y: 0}
      FlipX: 0
      FlipY: 0
      Cells:
      - Row: 5
        Coll: 5
    - DelayTime: 0.4
      Distance: 0.3
      MoveSpeed: 5
      Index: 0
      Offset: {x: 0, y: 0}
      FlipX: 1
      FlipY: 0
      Cells:
      - Row: 4
        Coll: 6
    - DelayTime: 0.4
      Distance: 0.3
      MoveSpeed: 5
      Index: 0
      Offset: {x: 0, y: 0}
      FlipX: 1
      FlipY: 0
      Cells:
      - Row: 5
        Coll: 6
    - DelayTime: 0.4
      Distance: 0.3
      MoveSpeed: 5
      Index: 0
      Offset: {x: 0, y: 0}
      FlipX: 0
      FlipY: 0
      Cells:
      - Row: 6
        Coll: 6
    Enemies:
    - Rows:
      - EnemyId: 0
        PathId: 0
      - EnemyId: -1
        PathId: 0
      - EnemyId: -1
        PathId: 0
      - EnemyId: 0
        PathId: 0
      - EnemyId: -1
        PathId: 0
      - EnemyId: -1
        PathId: 0
      - EnemyId: 0
        PathId: 0
    - Rows:
      - EnemyId: 0
        PathId: 0
      - EnemyId: -1
        PathId: 0
      - EnemyId: 0
        PathId: 0
      - EnemyId: 2
        PathId: 0
      - EnemyId: 0
        PathId: 0
      - EnemyId: -1
        PathId: 0
      - EnemyId: 0
        PathId: 0
    - Rows:
      - EnemyId: 1
        PathId: 0
      - EnemyId: 0
        PathId: 0
      - EnemyId: 0
        PathId: 0
      - EnemyId: 2
        PathId: 0
      - EnemyId: 0
        PathId: 0
      - EnemyId: 0
        PathId: 0
      - EnemyId: 1
        PathId: 0
    - Rows:
      - EnemyId: 1
        PathId: 0
      - EnemyId: 1
        PathId: 0
      - EnemyId: -1
        PathId: 0
      - EnemyId: 0
        PathId: 0
      - EnemyId: -1
        PathId: 0
      - EnemyId: 1
        PathId: 0
      - EnemyId: 1
        PathId: 0
    - Rows:
      - EnemyId: 1
        PathId: 0
      - EnemyId: 1
        PathId: 0
      - EnemyId: -1
        PathId: 0
      - EnemyId: -1
        PathId: 0
      - EnemyId: -1
        PathId: 0
      - EnemyId: 1
        PathId: 0
      - EnemyId: 1
        PathId: 0
    - Rows:
      - EnemyId: 0
        PathId: 0
      - EnemyId: 0
        PathId: 0
      - EnemyId: -1
        PathId: 0
      - EnemyId: -1
        PathId: 0
      - EnemyId: -1
        PathId: 0
      - EnemyId: 0
        PathId: 0
      - EnemyId: 0
        PathId: 0
    - Rows:
      - EnemyId: 0
        PathId: 0
      - EnemyId: -1
        PathId: 0
      - EnemyId: -1
        PathId: 0
      - EnemyId: -1
        PathId: 0
      - EnemyId: -1
        PathId: 0
      - EnemyId: -1
        PathId: 0
      - EnemyId: 0
        PathId: 0
    GiftBox:
      NumGiftBox: 0
      Duration: 0
      Speed: 0
    NumEnemyAttack: 1
    SpeedMoveAttack: 5
    DistanceTimeAttack: 1
    LoopTimeAttack: 4
    CombatDiff:
      TimeFireRate: 0
      FireRateDecrease: 0
      TimeEnemyAttack: 0
      EnemyAttackDecease: 0
      IsIncreaseNumberFire: 0
      TimeIncreaseNumberFire: 0
    Boss:
      BossIndex: 1
      Hps: []
    Rock:
      StartPosition: {x: 0, y: 0, z: 0}
      EndPosition: {x: 0, y: 0, z: 0}
      Range: 3
      Speed: 3
      NumSmall: 0
      NumNormal: 0
      NumBig: 0
      Duration: 5
    UseWarning: 0
    WarningPositions: []
    IsShow: 1
  - WaveType: 0
    FireRate: 5
    Hp: 1
    Items:
      List:
      - Type: 1
        Num: 2
      - Type: 0
        Num: 1
      NumEnemiesCanHaveItem: 5
    HasPower: 0
    NoDam: 0
    IsTeam: 1
    DestroyOnFinish: 0
    IdleType: 9
    TimeMove: 5
    Ease: 0
    Paths:
    - DelayTime: 0
      Distance: 0.3
      MoveSpeed: 4
      Index: 13
      Offset: {x: 0, y: 0}
      FlipX: 1
      FlipY: 0
      Cells:
      - Row: 0
        Coll: 0
      - Row: 0
        Coll: 1
      - Row: 0
        Coll: 2
      - Row: 0
        Coll: 3
      - Row: 0
        Coll: 4
      - Row: 0
        Coll: 5
      - Row: 0
        Coll: 6
    - DelayTime: 0
      Distance: 0.3
      MoveSpeed: 4
      Index: 13
      Offset: {x: 0, y: 0}
      FlipX: 0
      FlipY: 0
      Cells:
      - Row: 1
        Coll: 6
      - Row: 1
        Coll: 5
      - Row: 1
        Coll: 4
      - Row: 1
        Coll: 3
      - Row: 1
        Coll: 2
      - Row: 1
        Coll: 1
      - Row: 1
        Coll: 0
    - DelayTime: 2
      Distance: 0.3
      MoveSpeed: 4
      Index: 13
      Offset: {x: 0, y: 0}
      FlipX: 1
      FlipY: 0
      Cells:
      - Row: 2
        Coll: 0
      - Row: 2
        Coll: 1
      - Row: 2
        Coll: 2
      - Row: 2
        Coll: 3
      - Row: 2
        Coll: 4
      - Row: 2
        Coll: 5
      - Row: 2
        Coll: 6
    - DelayTime: 2
      Distance: 0.3
      MoveSpeed: 4
      Index: 13
      Offset: {x: 0, y: 0}
      FlipX: 0
      FlipY: 0
      Cells:
      - Row: 3
        Coll: 6
      - Row: 3
        Coll: 5
      - Row: 3
        Coll: 4
      - Row: 3
        Coll: 3
      - Row: 3
        Coll: 2
      - Row: 3
        Coll: 1
      - Row: 3
        Coll: 0
    - DelayTime: 3
      Distance: 0.3
      MoveSpeed: 4
      Index: 7
      Offset: {x: 0, y: -2}
      FlipX: 0
      FlipY: 0
      Cells:
      - Row: 4
        Coll: 0
      - Row: 4
        Coll: 1
      - Row: 4
        Coll: 2
      - Row: 4
        Coll: 3
      - Row: 4
        Coll: 4
      - Row: 4
        Coll: 5
      - Row: 4
        Coll: 6
    Enemies:
    - Rows:
      - EnemyId: 1
        PathId: 0
      - EnemyId: 2
        PathId: 0
      - EnemyId: 1
        PathId: 0
      - EnemyId: 2
        PathId: 0
      - EnemyId: 1
        PathId: 0
      - EnemyId: 2
        PathId: 0
      - EnemyId: 1
        PathId: 0
    - Rows:
      - EnemyId: 1
        PathId: 0
      - EnemyId: 1
        PathId: 0
      - EnemyId: 2
        PathId: 0
      - EnemyId: 1
        PathId: 0
      - EnemyId: 2
        PathId: 0
      - EnemyId: 1
        PathId: 0
      - EnemyId: 1
        PathId: 0
    - Rows:
      - EnemyId: 0
        PathId: 0
      - EnemyId: 2
        PathId: 0
      - EnemyId: 0
        PathId: 0
      - EnemyId: 2
        PathId: 0
      - EnemyId: 0
        PathId: 0
      - EnemyId: 2
        PathId: 0
      - EnemyId: 0
        PathId: 0
    - Rows:
      - EnemyId: 1
        PathId: 0
      - EnemyId: 1
        PathId: 0
      - EnemyId: 1
        PathId: 0
      - EnemyId: 0
        PathId: 0
      - EnemyId: 1
        PathId: 0
      - EnemyId: 1
        PathId: 0
      - EnemyId: 1
        PathId: 0
    - Rows:
      - EnemyId: 0
        PathId: 0
      - EnemyId: 0
        PathId: 0
      - EnemyId: 0
        PathId: 0
      - EnemyId: 0
        PathId: 0
      - EnemyId: 0
        PathId: 0
      - EnemyId: 0
        PathId: 0
      - EnemyId: 0
        PathId: 0
    - Rows:
      - EnemyId: -1
        PathId: 0
      - EnemyId: -1
        PathId: 0
      - EnemyId: -1
        PathId: 0
      - EnemyId: -1
        PathId: 0
      - EnemyId: -1
        PathId: 0
      - EnemyId: -1
        PathId: 0
      - EnemyId: -1
        PathId: 0
    - Rows:
      - EnemyId: -1
        PathId: 0
      - EnemyId: -1
        PathId: 0
      - EnemyId: -1
        PathId: 0
      - EnemyId: -1
        PathId: 0
      - EnemyId: -1
        PathId: 0
      - EnemyId: -1
        PathId: 0
      - EnemyId: -1
        PathId: 0
    GiftBox:
      NumGiftBox: 0
      Duration: 0
      Speed: 0
    NumEnemyAttack: 1
    SpeedMoveAttack: 8
    DistanceTimeAttack: 0.3
    LoopTimeAttack: 5
    CombatDiff:
      TimeFireRate: 0
      FireRateDecrease: 0
      TimeEnemyAttack: 0
      EnemyAttackDecease: 0
      IsIncreaseNumberFire: 0
      TimeIncreaseNumberFire: 0
    Boss:
      BossIndex: 1
      Hps: []
    Rock:
      StartPosition: {x: 0, y: 0, z: 0}
      EndPosition: {x: 0, y: 0, z: 0}
      Range: 3
      Speed: 3
      NumSmall: 0
      NumNormal: 0
      NumBig: 0
      Duration: 5
    UseWarning: 0
    WarningPositions: []
    IsShow: 1
  - WaveType: 0
    FireRate: 3
    Hp: 5
    Items:
      List:
      - Type: 1
        Num: 3
      NumEnemiesCanHaveItem: 7
    HasPower: 0
    NoDam: 0
    IsTeam: 1
    DestroyOnFinish: 0
    IdleType: 3
    TimeMove: 2
    Ease: 0
    Paths:
    - DelayTime: 0
      Distance: 0.3
      MoveSpeed: 5
      Index: 4
      Offset: {x: 0, y: 1}
      FlipX: 0
      FlipY: 0
      Cells:
      - Row: 3
        Coll: 0
      - Row: 2
        Coll: 0
      - Row: 1
        Coll: 0
      - Row: 0
        Coll: 0
      - Row: 0
        Coll: 1
      - Row: 1
        Coll: 1
      - Row: 2
        Coll: 1
    - DelayTime: 0
      Distance: 0.3
      MoveSpeed: 5
      Index: 4
      Offset: {x: 0, y: 1}
      FlipX: 1
      FlipY: 0
      Cells:
      - Row: 3
        Coll: 6
      - Row: 2
        Coll: 6
      - Row: 1
        Coll: 6
      - Row: 0
        Coll: 6
      - Row: 0
        Coll: 5
      - Row: 1
        Coll: 5
      - Row: 2
        Coll: 5
    - DelayTime: 0
      Distance: 0.3
      MoveSpeed: 5
      Index: 5
      Offset: {x: 0, y: 0}
      FlipX: 0
      FlipY: 0
      Cells:
      - Row: 4
        Coll: 3
      - Row: 3
        Coll: 3
      - Row: 2
        Coll: 3
      - Row: 1
        Coll: 3
      - Row: 0
        Coll: 3
    - DelayTime: 3
      Distance: 0.3
      MoveSpeed: 5
      Index: 4
      Offset: {x: 0, y: -1}
      FlipX: 1
      FlipY: 0
      Cells:
      - Row: 0
        Coll: 2
      - Row: 1
        Coll: 2
      - Row: 2
        Coll: 2
      - Row: 3
        Coll: 2
      - Row: 3
        Coll: 1
      - Row: 4
        Coll: 1
    - DelayTime: 3
      Distance: 0.3
      MoveSpeed: 5
      Index: 4
      Offset: {x: 0, y: -1}
      FlipX: 0
      FlipY: 0
      Cells:
      - Row: 0
        Coll: 4
      - Row: 1
        Coll: 4
      - Row: 2
        Coll: 4
      - Row: 3
        Coll: 4
      - Row: 3
        Coll: 5
      - Row: 4
        Coll: 5
    Enemies:
    - Rows:
      - EnemyId: 0
        PathId: 0
      - EnemyId: 1
        PathId: 0
      - EnemyId: 0
        PathId: 0
      - EnemyId: 1
        PathId: 0
      - EnemyId: 0
        PathId: 0
      - EnemyId: 1
        PathId: 0
      - EnemyId: 0
        PathId: 0
    - Rows:
      - EnemyId: 0
        PathId: 0
      - EnemyId: 2
        PathId: 0
      - EnemyId: 0
        PathId: 0
      - EnemyId: 2
        PathId: 0
      - EnemyId: 0
        PathId: 0
      - EnemyId: 2
        PathId: 0
      - EnemyId: 0
        PathId: 0
    - Rows:
      - EnemyId: 1
        PathId: 0
      - EnemyId: 1
        PathId: 0
      - EnemyId: 1
        PathId: 0
      - EnemyId: 0
        PathId: 0
      - EnemyId: 1
        PathId: 0
      - EnemyId: 1
        PathId: 0
      - EnemyId: 1
        PathId: 0
    - Rows:
      - EnemyId: 0
        PathId: 0
      - EnemyId: 0
        PathId: 0
      - EnemyId: 0
        PathId: 0
      - EnemyId: 0
        PathId: 0
      - EnemyId: 0
        PathId: 0
      - EnemyId: 0
        PathId: 0
      - EnemyId: 0
        PathId: 0
    - Rows:
      - EnemyId: -1
        PathId: 0
      - EnemyId: 2
        PathId: 0
      - EnemyId: -1
        PathId: 0
      - EnemyId: 2
        PathId: 0
      - EnemyId: -1
        PathId: 0
      - EnemyId: 2
        PathId: 0
      - EnemyId: -1
        PathId: 0
    - Rows:
      - EnemyId: -1
        PathId: 0
      - EnemyId: -1
        PathId: 0
      - EnemyId: -1
        PathId: 0
      - EnemyId: -1
        PathId: 0
      - EnemyId: -1
        PathId: 0
      - EnemyId: -1
        PathId: 0
      - EnemyId: -1
        PathId: 0
    - Rows:
      - EnemyId: -1
        PathId: 0
      - EnemyId: -1
        PathId: 0
      - EnemyId: -1
        PathId: 0
      - EnemyId: -1
        PathId: 0
      - EnemyId: -1
        PathId: 0
      - EnemyId: -1
        PathId: 0
      - EnemyId: -1
        PathId: 0
    GiftBox:
      NumGiftBox: 0
      Duration: 0
      Speed: 0
    NumEnemyAttack: 1
    SpeedMoveAttack: 8
    DistanceTimeAttack: 0.3
    LoopTimeAttack: 4
    CombatDiff:
      TimeFireRate: 5
      FireRateDecrease: 0.1
      TimeEnemyAttack: 4
      EnemyAttackDecease: 0.1
      IsIncreaseNumberFire: 0
      TimeIncreaseNumberFire: 0
    Boss:
      BossIndex: 1
      Hps: []
    Rock:
      StartPosition: {x: 0, y: 0, z: 0}
      EndPosition: {x: 0, y: 0, z: 0}
      Range: 3
      Speed: 3
      NumSmall: 0
      NumNormal: 0
      NumBig: 0
      Duration: 5
    UseWarning: 0
    WarningPositions: []
    IsShow: 1
  - WaveType: 0
    FireRate: 3
    Hp: 1
    Items:
      List:
      - Type: 1
        Num: 1
      NumEnemiesCanHaveItem: 1
    HasPower: 0
    NoDam: 0
    IsTeam: 0
    DestroyOnFinish: 1
    IdleType: 0
    TimeMove: 1
    Ease: 0
    Paths:
    - DelayTime: 2.1
      Distance: 0.3
      MoveSpeed: 3
      Index: 3
      Offset: {x: 1, y: 0}
      FlipX: 0
      FlipY: 0
      Cells:
      - Row: 2
        Coll: 0
    - DelayTime: 1
      Distance: 0.3
      MoveSpeed: 3.3
      Index: 3
      Offset: {x: 2, y: 0.2}
      FlipX: 0
      FlipY: 0
      Cells:
      - Row: 3
        Coll: 0
    - DelayTime: 0
      Distance: 0.3
      MoveSpeed: 3.6
      Index: 3
      Offset: {x: -0.6, y: 0}
      FlipX: 0
      FlipY: 0
      Cells:
      - Row: 4
        Coll: 0
    - DelayTime: 3.2
      Distance: 0.3
      MoveSpeed: 3.9
      Index: 3
      Offset: {x: -1.6, y: 0}
      FlipX: 0
      FlipY: 0
      Cells:
      - Row: 5
        Coll: 0
    - DelayTime: 2.5
      Distance: 0.3
      MoveSpeed: 7
      Index: 3
      Offset: {x: 3, y: 1.2}
      FlipX: 0
      FlipY: 0
      Cells:
      - Row: 2
        Coll: 1
    - DelayTime: 0.6
      Distance: 0.3
      MoveSpeed: 4.2
      Index: 3
      Offset: {x: -2, y: 0}
      FlipX: 0
      FlipY: 0
      Cells:
      - Row: 3
        Coll: 1
    - DelayTime: 6
      Distance: 0.3
      MoveSpeed: 4.4
      Index: 3
      Offset: {x: 2.3, y: 0.5}
      FlipX: 0
      FlipY: 0
      Cells:
      - Row: 4
        Coll: 1
    - DelayTime: 2.7
      Distance: 0.3
      MoveSpeed: 4.8
      Index: 3
      Offset: {x: -2.3, y: 0}
      FlipX: 0
      FlipY: 0
      Cells:
      - Row: 5
        Coll: 1
    - DelayTime: 0.4
      Distance: 0.3
      MoveSpeed: 5.1
      Index: 3
      Offset: {x: 1.6, y: 0}
      FlipX: 0
      FlipY: 0
      Cells:
      - Row: 0
        Coll: 2
    - DelayTime: 1
      Distance: 0.3
      MoveSpeed: 5.6
      Index: 3
      Offset: {x: 0, y: 0}
      FlipX: 0
      FlipY: 0
      Cells:
      - Row: 2
        Coll: 2
    - DelayTime: 3.3
      Distance: 0.3
      MoveSpeed: 5.8
      Index: 3
      Offset: {x: 3, y: 1}
      FlipX: 0
      FlipY: 0
      Cells:
      - Row: 3
        Coll: 2
    - DelayTime: 0.8
      Distance: 0.3
      MoveSpeed: 6
      Index: 3
      Offset: {x: -2, y: 0}
      FlipX: 0
      FlipY: 0
      Cells:
      - Row: 4
        Coll: 2
    - DelayTime: 2.4
      Distance: 0.3
      MoveSpeed: 4.4
      Index: 3
      Offset: {x: 3.2, y: 0.5}
      FlipX: 0
      FlipY: 0
      Cells:
      - Row: 5
        Coll: 2
    - DelayTime: 1.6
      Distance: 0.3
      MoveSpeed: 5.1
      Index: 3
      Offset: {x: -2.5, y: 0}
      FlipX: 0
      FlipY: 0
      Cells:
      - Row: 1
        Coll: 3
    - DelayTime: 4
      Distance: 0.3
      MoveSpeed: 6.5
      Index: 3
      Offset: {x: -2.7, y: 0}
      FlipX: 0
      FlipY: 0
      Cells:
      - Row: 2
        Coll: 3
    - DelayTime: 3.7
      Distance: 0.3
      MoveSpeed: 6
      Index: 3
      Offset: {x: 2.3, y: 0}
      FlipX: 0
      FlipY: 0
      Cells:
      - Row: 3
        Coll: 3
    - DelayTime: 4.8
      Distance: 0.3
      MoveSpeed: 6.1
      Index: 3
      Offset: {x: 2.1, y: 0}
      FlipX: 0
      FlipY: 0
      Cells:
      - Row: 4
        Coll: 3
    - DelayTime: 5
      Distance: 0.3
      MoveSpeed: 5.2
      Index: 3
      Offset: {x: 1.8, y: 0}
      FlipX: 0
      FlipY: 0
      Cells:
      - Row: 5
        Coll: 3
    - DelayTime: 3.8
      Distance: 0.3
      MoveSpeed: 3.2
      Index: 3
      Offset: {x: -3, y: 0}
      FlipX: 0
      FlipY: 0
      Cells:
      - Row: 1
        Coll: 4
    - DelayTime: 6
      Distance: 0.3
      MoveSpeed: 4.5
      Index: 3
      Offset: {x: -3.1, y: 0}
      FlipX: 0
      FlipY: 0
      Cells:
      - Row: 3
        Coll: 4
    Enemies:
    - Rows:
      - EnemyId: -1
        PathId: 0
      - EnemyId: -1
        PathId: 0
      - EnemyId: 2
        PathId: 0
      - EnemyId: -1
        PathId: 0
      - EnemyId: -1
        PathId: 0
      - EnemyId: -1
        PathId: 0
      - EnemyId: -1
        PathId: 0
    - Rows:
      - EnemyId: -1
        PathId: 0
      - EnemyId: -1
        PathId: 0
      - EnemyId: -1
        PathId: 0
      - EnemyId: 0
        PathId: 0
      - EnemyId: 1
        PathId: 0
      - EnemyId: -1
        PathId: 0
      - EnemyId: -1
        PathId: 0
    - Rows:
      - EnemyId: 0
        PathId: 0
      - EnemyId: 1
        PathId: 0
      - EnemyId: 2
        PathId: 0
      - EnemyId: 0
        PathId: 0
      - EnemyId: -1
        PathId: 0
      - EnemyId: -1
        PathId: 0
      - EnemyId: -1
        PathId: 0
    - Rows:
      - EnemyId: 2
        PathId: 0
      - EnemyId: 1
        PathId: 0
      - EnemyId: 1
        PathId: 0
      - EnemyId: 2
        PathId: 0
      - EnemyId: 2
        PathId: 0
      - EnemyId: -1
        PathId: 0
      - EnemyId: -1
        PathId: 0
    - Rows:
      - EnemyId: 2
        PathId: 0
      - EnemyId: 1
        PathId: 0
      - EnemyId: 0
        PathId: 0
      - EnemyId: 1
        PathId: 0
      - EnemyId: -1
        PathId: 0
      - EnemyId: -1
        PathId: 0
      - EnemyId: -1
        PathId: 0
    - Rows:
      - EnemyId: 0
        PathId: 0
      - EnemyId: 0
        PathId: 0
      - EnemyId: 0
        PathId: 0
      - EnemyId: 0
        PathId: 0
      - EnemyId: -1
        PathId: 0
      - EnemyId: -1
        PathId: 0
      - EnemyId: -1
        PathId: 0
    - Rows:
      - EnemyId: -1
        PathId: 0
      - EnemyId: -1
        PathId: 0
      - EnemyId: -1
        PathId: 0
      - EnemyId: -1
        PathId: 0
      - EnemyId: -1
        PathId: 0
      - EnemyId: -1
        PathId: 0
      - EnemyId: -1
        PathId: 0
    GiftBox:
      NumGiftBox: 0
      Duration: 0
      Speed: 0
    NumEnemyAttack: 0
    SpeedMoveAttack: 5
    DistanceTimeAttack: 0.3
    LoopTimeAttack: 2
    CombatDiff:
      TimeFireRate: 0
      FireRateDecrease: 0
      TimeEnemyAttack: 0
      EnemyAttackDecease: 0
      IsIncreaseNumberFire: 0
      TimeIncreaseNumberFire: 0
    Boss:
      BossIndex: 1
      Hps: []
    Rock:
      StartPosition: {x: 0, y: 0, z: 0}
      EndPosition: {x: 0, y: 0, z: 0}
      Range: 3
      Speed: 3
      NumSmall: 0
      NumNormal: 0
      NumBig: 0
      Duration: 5
    UseWarning: 0
    WarningPositions: []
    IsShow: 1
  - WaveType: 0
    FireRate: 3
    Hp: 4
    Items:
      List: []
      NumEnemiesCanHaveItem: 1
    HasPower: 0
    NoDam: 0
    IsTeam: 1
    DestroyOnFinish: 0
    IdleType: 5
    TimeMove: 2
    Ease: 0
    Paths:
    - DelayTime: 0
      Distance: 0.3
      MoveSpeed: 4
      Index: 6
      Offset: {x: 0, y: 1.5}
      FlipX: 0
      FlipY: 0
      Cells:
      - Row: 3
        Coll: 2
      - Row: 2
        Coll: 2
      - Row: 1
        Coll: 2
      - Row: 0
        Coll: 2
      - Row: 0
        Coll: 1
      - Row: 0
        Coll: 0
      - Row: 1
        Coll: 0
      - Row: 2
        Coll: 0
      - Row: 2
        Coll: 1
      - Row: 1
        Coll: 1
    - DelayTime: 0
      Distance: 0.3
      MoveSpeed: 4
      Index: 6
      Offset: {x: 0, y: 1.5}
      FlipX: 1
      FlipY: 0
      Cells:
      - Row: 3
        Coll: 4
      - Row: 2
        Coll: 4
      - Row: 1
        Coll: 4
      - Row: 0
        Coll: 4
      - Row: 0
        Coll: 5
      - Row: 0
        Coll: 6
      - Row: 1
        Coll: 6
      - Row: 2
        Coll: 6
      - Row: 2
        Coll: 5
      - Row: 1
        Coll: 5
    - DelayTime: 0.5
      Distance: 0.3
      MoveSpeed: 4
      Index: 1
      Offset: {x: 0, y: 0}
      FlipX: 1
      FlipY: 0
      Cells:
      - Row: 0
        Coll: 3
    - DelayTime: 0.5
      Distance: 0.3
      MoveSpeed: 4
      Index: 1
      Offset: {x: 0, y: 0}
      FlipX: 0
      FlipY: 0
      Cells:
      - Row: 1
        Coll: 3
    - DelayTime: 0.5
      Distance: 0.3
      MoveSpeed: 4
      Index: 1
      Offset: {x: 0, y: 0}
      FlipX: 1
      FlipY: 0
      Cells:
      - Row: 2
        Coll: 3
    - DelayTime: 0.5
      Distance: 0.3
      MoveSpeed: 4
      Index: 1
      Offset: {x: 0, y: 0}
      FlipX: 0
      FlipY: 0
      Cells:
      - Row: 4
        Coll: 1
    - DelayTime: 0.5
      Distance: 0.3
      MoveSpeed: 4
      Index: 1
      Offset: {x: 0, y: 0}
      FlipX: 1
      FlipY: 0
      Cells:
      - Row: 4
        Coll: 2
    - DelayTime: 0.5
      Distance: 0.3
      MoveSpeed: 4
      Index: 1
      Offset: {x: 0, y: 0}
      FlipX: 0
      FlipY: 0
      Cells:
      - Row: 4
        Coll: 3
    - DelayTime: 0.5
      Distance: 0.3
      MoveSpeed: 4
      Index: 1
      Offset: {x: 0, y: 0}
      FlipX: 1
      FlipY: 0
      Cells:
      - Row: 4
        Coll: 4
    - DelayTime: 0.5
      Distance: 0.3
      MoveSpeed: 4
      Index: 1
      Offset: {x: 0, y: 0}
      FlipX: 0
      FlipY: 0
      Cells:
      - Row: 4
        Coll: 5
    - DelayTime: 0.5
      Distance: 0.3
      MoveSpeed: 4
      Index: 1
      Offset: {x: 0, y: 0}
      FlipX: 1
      FlipY: 0
      Cells:
      - Row: 5
        Coll: 3
    Enemies:
    - Rows:
      - EnemyId: 0
        PathId: 0
      - EnemyId: 0
        PathId: 0
      - EnemyId: 0
        PathId: 0
      - EnemyId: 0
        PathId: 0
      - EnemyId: 0
        PathId: 0
      - EnemyId: 1
        PathId: 0
      - EnemyId: 0
        PathId: 0
    - Rows:
      - EnemyId: 0
        PathId: 0
      - EnemyId: 2
        PathId: 0
      - EnemyId: 2
        PathId: 0
      - EnemyId: 2
        PathId: 0
      - EnemyId: 2
        PathId: 0
      - EnemyId: 2
        PathId: 0
      - EnemyId: 0
        PathId: 0
    - Rows:
      - EnemyId: 1
        PathId: 0
      - EnemyId: 1
        PathId: 0
      - EnemyId: 1
        PathId: 0
      - EnemyId: 2
        PathId: 0
      - EnemyId: 1
        PathId: 0
      - EnemyId: 1
        PathId: 0
      - EnemyId: 1
        PathId: 0
    - Rows:
      - EnemyId: -1
        PathId: 0
      - EnemyId: -1
        PathId: 0
      - EnemyId: 3
        PathId: 0
      - EnemyId: -1
        PathId: 0
      - EnemyId: 3
        PathId: 0
      - EnemyId: -1
        PathId: 0
      - EnemyId: -1
        PathId: 0
    - Rows:
      - EnemyId: -1
        PathId: 0
      - EnemyId: 2
        PathId: 0
      - EnemyId: 2
        PathId: 0
      - EnemyId: 2
        PathId: 0
      - EnemyId: 2
        PathId: 0
      - EnemyId: 2
        PathId: 0
      - EnemyId: -1
        PathId: 0
    - Rows:
      - EnemyId: -1
        PathId: 0
      - EnemyId: -1
        PathId: 0
      - EnemyId: -1
        PathId: 0
      - EnemyId: 2
        PathId: 0
      - EnemyId: -1
        PathId: 0
      - EnemyId: -1
        PathId: 0
      - EnemyId: -1
        PathId: 0
    - Rows:
      - EnemyId: -1
        PathId: 0
      - EnemyId: -1
        PathId: 0
      - EnemyId: -1
        PathId: 0
      - EnemyId: -1
        PathId: 0
      - EnemyId: -1
        PathId: 0
      - EnemyId: -1
        PathId: 0
      - EnemyId: -1
        PathId: 0
    GiftBox:
      NumGiftBox: 0
      Duration: 0
      Speed: 0
    NumEnemyAttack: 0
    SpeedMoveAttack: 3
    DistanceTimeAttack: 0.3
    LoopTimeAttack: 2
    CombatDiff:
      TimeFireRate: 0
      FireRateDecrease: 0
      TimeEnemyAttack: 0
      EnemyAttackDecease: 0
      IsIncreaseNumberFire: 0
      TimeIncreaseNumberFire: 0
    Boss:
      BossIndex: 1
      Hps: []
    Rock:
      StartPosition: {x: 0, y: 0, z: 0}
      EndPosition: {x: 0, y: 0, z: 0}
      Range: 3
      Speed: 3
      NumSmall: 0
      NumNormal: 0
      NumBig: 0
      Duration: 5
    UseWarning: 0
    WarningPositions: []
    IsShow: 1
