%YAML 1.1
%TAG !u! tag:unity3d.com,2011:
--- !u!114 &11400000
MonoBehaviour:
  m_ObjectHideFlags: 0
  m_CorrespondingSourceObject: {fileID: 0}
  m_PrefabInstance: {fileID: 0}
  m_PrefabAsset: {fileID: 0}
  m_GameObject: {fileID: 0}
  m_Enabled: 1
  m_EditorHideFlags: 0
  m_Script: {fileID: 11500000, guid: bf5d7ed2671cf0d4b825cab5b09dbcb8, type: 3}
  m_Name: Level 16
  m_EditorClassIdentifier: 
  FuelCost: 2
  CoinReward: 1650
  ReFightCoinReward: 825
  CombatPower: 6265
  EvolveShipNum: 12
  EvolveShipId: 0
  EvolveDroneNum: 12
  EvolveDroneId: 0
  Waves:
  - WaveType: 0
    FireRate: 2
    Hp: 3
    Items:
      List:
      - Type: 1
        Num: 3
      NumEnemiesCanHaveItem: 5
    HasPower: 0
    NoDam: 0
    IsTeam: 1
    DestroyOnFinish: 0
    IdleType: 4
    TimeMove: 1
    Ease: 0
    Paths:
    - DelayTime: 0
      Distance: 0.3
      MoveSpeed: 7
      Index: 7
      Offset: {x: 0, y: 0}
      FlipX: 0
      FlipY: 0
      Cells:
      - Row: 0
        Coll: 1
    - DelayTime: 0
      Distance: 0.3
      MoveSpeed: 7
      Index: 7
      Offset: {x: 0, y: 0}
      FlipX: 0
      FlipY: 0
      Cells:
      - Row: 1
        Coll: 1
    - DelayTime: 0
      Distance: 0.3
      MoveSpeed: 7
      Index: 7
      Offset: {x: 0, y: 0}
      FlipX: 0
      FlipY: 0
      Cells:
      - Row: 1
        Coll: 2
    - DelayTime: 0
      Distance: 0.3
      MoveSpeed: 7
      Index: 7
      Offset: {x: 0, y: 0}
      FlipX: 0
      FlipY: 0
      Cells:
      - Row: 2
        Coll: 0
    - DelayTime: 0
      Distance: 0.3
      MoveSpeed: 7
      Index: 7
      Offset: {x: 0, y: 0}
      FlipX: 0
      FlipY: 0
      Cells:
      - Row: 3
        Coll: 0
    - DelayTime: 0
      Distance: 0.3
      MoveSpeed: 7
      Index: 7
      Offset: {x: 0, y: 0}
      FlipX: 0
      FlipY: 0
      Cells:
      - Row: 3
        Coll: 1
    - DelayTime: 0
      Distance: 0.3
      MoveSpeed: 7
      Index: 7
      Offset: {x: 0, y: 0}
      FlipX: 0
      FlipY: 0
      Cells:
      - Row: 4
        Coll: 1
    - DelayTime: 0
      Distance: 0.3
      MoveSpeed: 7
      Index: 7
      Offset: {x: 0, y: 0}
      FlipX: 0
      FlipY: 0
      Cells:
      - Row: 5
        Coll: 1
    - DelayTime: 0
      Distance: 0.3
      MoveSpeed: 7
      Index: 7
      Offset: {x: 0, y: 0}
      FlipX: 0
      FlipY: 0
      Cells:
      - Row: 4
        Coll: 2
    - DelayTime: 0
      Distance: 0.3
      MoveSpeed: 7
      Index: 7
      Offset: {x: 0, y: 0}
      FlipX: 0
      FlipY: 0
      Cells:
      - Row: 5
        Coll: 2
    - DelayTime: 0
      Distance: 0.3
      MoveSpeed: 7
      Index: 7
      Offset: {x: 0, y: 0}
      FlipX: 0
      FlipY: 0
      Cells:
      - Row: 1
        Coll: 4
    - DelayTime: 0
      Distance: 0.3
      MoveSpeed: 7
      Index: 7
      Offset: {x: 0, y: 0}
      FlipX: 0
      FlipY: 0
      Cells:
      - Row: 0
        Coll: 5
    - DelayTime: 0
      Distance: 0.3
      MoveSpeed: 7
      Index: 7
      Offset: {x: 0, y: 0}
      FlipX: 0
      FlipY: 0
      Cells:
      - Row: 1
        Coll: 5
    - DelayTime: 0
      Distance: 0.3
      MoveSpeed: 7
      Index: 7
      Offset: {x: 0, y: 0}
      FlipX: 0
      FlipY: 0
      Cells:
      - Row: 2
        Coll: 6
    - DelayTime: 0
      Distance: 0.3
      MoveSpeed: 7
      Index: 7
      Offset: {x: 0, y: 0}
      FlipX: 0
      FlipY: 0
      Cells:
      - Row: 3
        Coll: 6
    - DelayTime: 0
      Distance: 0.3
      MoveSpeed: 7
      Index: 7
      Offset: {x: 0, y: 0}
      FlipX: 0
      FlipY: 0
      Cells:
      - Row: 3
        Coll: 5
    - DelayTime: 0
      Distance: 0.3
      MoveSpeed: 7
      Index: 7
      Offset: {x: 0, y: 0}
      FlipX: 0
      FlipY: 0
      Cells:
      - Row: 4
        Coll: 4
    - DelayTime: 0
      Distance: 0.3
      MoveSpeed: 7
      Index: 7
      Offset: {x: 0, y: 0}
      FlipX: 0
      FlipY: 0
      Cells:
      - Row: 4
        Coll: 5
    - DelayTime: 0
      Distance: 0.3
      MoveSpeed: 7
      Index: 7
      Offset: {x: 0, y: 0}
      FlipX: 0
      FlipY: 0
      Cells:
      - Row: 5
        Coll: 5
    - DelayTime: 0
      Distance: 0.3
      MoveSpeed: 7
      Index: 7
      Offset: {x: 0, y: 0}
      FlipX: 0
      FlipY: 0
      Cells:
      - Row: 5
        Coll: 4
    - DelayTime: 0
      Distance: 0.3
      MoveSpeed: 7
      Index: 5
      Offset: {x: 0, y: 0}
      FlipX: 0
      FlipY: 0
      Cells:
      - Row: 6
        Coll: 3
      - Row: 5
        Coll: 3
      - Row: 4
        Coll: 3
      - Row: 2
        Coll: 3
    Enemies:
    - Rows:
      - EnemyId: -1
        PathId: 0
      - EnemyId: 5
        PathId: 0
      - EnemyId: -1
        PathId: 0
      - EnemyId: -1
        PathId: 0
      - EnemyId: -1
        PathId: 0
      - EnemyId: 5
        PathId: 0
      - EnemyId: -1
        PathId: 0
    - Rows:
      - EnemyId: -1
        PathId: 0
      - EnemyId: 5
        PathId: 0
      - EnemyId: 6
        PathId: 0
      - EnemyId: -1
        PathId: 0
      - EnemyId: 6
        PathId: 0
      - EnemyId: 5
        PathId: 0
      - EnemyId: -1
        PathId: 0
    - Rows:
      - EnemyId: 0
        PathId: 0
      - EnemyId: -1
        PathId: 0
      - EnemyId: -1
        PathId: 0
      - EnemyId: 6
        PathId: 0
      - EnemyId: -1
        PathId: 0
      - EnemyId: -1
        PathId: 0
      - EnemyId: 0
        PathId: 0
    - Rows:
      - EnemyId: 2
        PathId: 0
      - EnemyId: 1
        PathId: 0
      - EnemyId: -1
        PathId: 0
      - EnemyId: -1
        PathId: 0
      - EnemyId: -1
        PathId: 0
      - EnemyId: 1
        PathId: 0
      - EnemyId: 2
        PathId: 0
    - Rows:
      - EnemyId: -1
        PathId: 0
      - EnemyId: 2
        PathId: 0
      - EnemyId: 1
        PathId: 0
      - EnemyId: 0
        PathId: 0
      - EnemyId: 1
        PathId: 0
      - EnemyId: 2
        PathId: 0
      - EnemyId: -1
        PathId: 0
    - Rows:
      - EnemyId: -1
        PathId: 0
      - EnemyId: 1
        PathId: 0
      - EnemyId: 2
        PathId: 0
      - EnemyId: 0
        PathId: 0
      - EnemyId: 2
        PathId: 0
      - EnemyId: 1
        PathId: 0
      - EnemyId: -1
        PathId: 0
    - Rows:
      - EnemyId: -1
        PathId: 0
      - EnemyId: -1
        PathId: 0
      - EnemyId: -1
        PathId: 0
      - EnemyId: 1
        PathId: 0
      - EnemyId: -1
        PathId: 0
      - EnemyId: -1
        PathId: 0
      - EnemyId: -1
        PathId: 0
    GiftBox:
      NumGiftBox: 0
      Duration: 0
      Speed: 0
    NumEnemyAttack: 1
    SpeedMoveAttack: 5
    DistanceTimeAttack: 0.3
    LoopTimeAttack: 2
    CombatDiff:
      TimeFireRate: 0
      FireRateDecrease: 0
      TimeEnemyAttack: 0
      EnemyAttackDecease: 0
      IsIncreaseNumberFire: 0
      TimeIncreaseNumberFire: 0
    Boss:
      BossIndex: 1
      Hps: []
    Rock:
      StartPosition: {x: 0, y: 0, z: 0}
      EndPosition: {x: 0, y: 0, z: 0}
      Range: 3
      Speed: 3
      NumSmall: 0
      NumNormal: 0
      NumBig: 0
      Duration: 5
    UseWarning: 0
    WarningPositions: []
    IsShow: 1
  - WaveType: 0
    FireRate: 0.8
    Hp: 5
    Items:
      List:
      - Type: 1
        Num: 2
      NumEnemiesCanHaveItem: 5
    HasPower: 0
    NoDam: 0
    IsTeam: 1
    DestroyOnFinish: 0
    IdleType: 0
    TimeMove: 1
    Ease: 0
    Paths:
    - DelayTime: 0
      Distance: 0.3
      MoveSpeed: 8
      Index: 14
      Offset: {x: 0, y: 0}
      FlipX: 1
      FlipY: 0
      Cells:
      - Row: 0
        Coll: 2
    - DelayTime: 0
      Distance: 0.3
      MoveSpeed: 8
      Index: 14
      Offset: {x: 0, y: 0}
      FlipX: 1
      FlipY: 0
      Cells:
      - Row: 2
        Coll: 0
    - DelayTime: 0
      Distance: 0.3
      MoveSpeed: 8
      Index: 14
      Offset: {x: 0, y: 0}
      FlipX: 1
      FlipY: 0
      Cells:
      - Row: 1
        Coll: 1
    - DelayTime: 0
      Distance: 0.3
      MoveSpeed: 8
      Index: 14
      Offset: {x: 0, y: 0}
      FlipX: 1
      FlipY: 0
      Cells:
      - Row: 2
        Coll: 2
    - DelayTime: 0
      Distance: 0.3
      MoveSpeed: 8
      Index: 14
      Offset: {x: 0, y: 0}
      FlipX: 1
      FlipY: 0
      Cells:
      - Row: 1
        Coll: 3
    - DelayTime: 0
      Distance: 0.3
      MoveSpeed: 8
      Index: 14
      Offset: {x: 0, y: 0}
      FlipX: 1
      FlipY: 0
      Cells:
      - Row: 0
        Coll: 4
    - DelayTime: 0
      Distance: 0.3
      MoveSpeed: 8
      Index: 14
      Offset: {x: 0, y: 0}
      FlipX: 1
      FlipY: 0
      Cells:
      - Row: 2
        Coll: 4
    - DelayTime: 0
      Distance: 0.3
      MoveSpeed: 8
      Index: 14
      Offset: {x: 0, y: 0}
      FlipX: 1
      FlipY: 0
      Cells:
      - Row: 1
        Coll: 5
    - DelayTime: 0
      Distance: 0.3
      MoveSpeed: 8
      Index: 14
      Offset: {x: 0, y: 0}
      FlipX: 1
      FlipY: 0
      Cells:
      - Row: 2
        Coll: 6
    - DelayTime: 0
      Distance: 0.3
      MoveSpeed: 8
      Index: 0
      Offset: {x: 0, y: 0}
      FlipX: 1
      FlipY: 0
      Cells:
      - Row: 5
        Coll: 3
    - DelayTime: 0
      Distance: 0.3
      MoveSpeed: 8
      Index: 0
      Offset: {x: 0, y: 0}
      FlipX: 1
      FlipY: 0
      Cells:
      - Row: 5
        Coll: 4
    - DelayTime: 0
      Distance: 0.3
      MoveSpeed: 8
      Index: 0
      Offset: {x: 0, y: 0}
      FlipX: 1
      FlipY: 0
      Cells:
      - Row: 4
        Coll: 4
    - DelayTime: 0
      Distance: 0.3
      MoveSpeed: 8
      Index: 0
      Offset: {x: 0, y: 0}
      FlipX: 1
      FlipY: 0
      Cells:
      - Row: 4
        Coll: 5
    - DelayTime: 0
      Distance: 0.3
      MoveSpeed: 8
      Index: 0
      Offset: {x: 0, y: 0}
      FlipX: 1
      FlipY: 0
      Cells:
      - Row: 5
        Coll: 5
    - DelayTime: 0
      Distance: 0.3
      MoveSpeed: 8
      Index: 0
      Offset: {x: 0, y: 0}
      FlipX: 1
      FlipY: 0
      Cells:
      - Row: 5
        Coll: 6
    - DelayTime: 0
      Distance: 0.3
      MoveSpeed: 8
      Index: 0
      Offset: {x: 0, y: 0}
      FlipX: 1
      FlipY: 0
      Cells:
      - Row: 4
        Coll: 6
    - DelayTime: 0
      Distance: 0.3
      MoveSpeed: 8
      Index: 0
      Offset: {x: 0, y: 0}
      FlipX: 0
      FlipY: 0
      Cells:
      - Row: 5
        Coll: 0
    - DelayTime: 0
      Distance: 0.3
      MoveSpeed: 8
      Index: 0
      Offset: {x: 0, y: 0}
      FlipX: 0
      FlipY: 0
      Cells:
      - Row: 4
        Coll: 0
    - DelayTime: 0
      Distance: 0.3
      MoveSpeed: 8
      Index: 0
      Offset: {x: 0, y: 0}
      FlipX: 0
      FlipY: 0
      Cells:
      - Row: 4
        Coll: 1
    - DelayTime: 0
      Distance: 0.3
      MoveSpeed: 8
      Index: 0
      Offset: {x: 0, y: 0}
      FlipX: 0
      FlipY: 0
      Cells:
      - Row: 5
        Coll: 1
    - DelayTime: 0
      Distance: 0.3
      MoveSpeed: 8
      Index: 0
      Offset: {x: 0, y: 0}
      FlipX: 0
      FlipY: 0
      Cells:
      - Row: 4
        Coll: 2
    - DelayTime: 0
      Distance: 0.3
      MoveSpeed: 8
      Index: 0
      Offset: {x: 0, y: 0}
      FlipX: 0
      FlipY: 0
      Cells:
      - Row: 5
        Coll: 2
    - DelayTime: 0
      Distance: 0.3
      MoveSpeed: 8
      Index: 0
      Offset: {x: 0, y: 0}
      FlipX: 0
      FlipY: 0
      Cells:
      - Row: 4
        Coll: 3
    Enemies:
    - Rows:
      - EnemyId: -1
        PathId: 0
      - EnemyId: -1
        PathId: 0
      - EnemyId: 6
        PathId: 0
      - EnemyId: -1
        PathId: 0
      - EnemyId: 6
        PathId: 0
      - EnemyId: -1
        PathId: 0
      - EnemyId: -1
        PathId: 0
    - Rows:
      - EnemyId: -1
        PathId: 0
      - EnemyId: 5
        PathId: 0
      - EnemyId: -1
        PathId: 0
      - EnemyId: 5
        PathId: 0
      - EnemyId: -1
        PathId: 0
      - EnemyId: 5
        PathId: 0
      - EnemyId: -1
        PathId: 0
    - Rows:
      - EnemyId: 6
        PathId: 0
      - EnemyId: -1
        PathId: 0
      - EnemyId: 2
        PathId: 0
      - EnemyId: -1
        PathId: 0
      - EnemyId: 2
        PathId: 0
      - EnemyId: -1
        PathId: 0
      - EnemyId: 6
        PathId: 0
    - Rows:
      - EnemyId: -1
        PathId: 0
      - EnemyId: -1
        PathId: 0
      - EnemyId: -1
        PathId: 0
      - EnemyId: -1
        PathId: 0
      - EnemyId: -1
        PathId: 0
      - EnemyId: -1
        PathId: 0
      - EnemyId: -1
        PathId: 0
    - Rows:
      - EnemyId: 0
        PathId: 0
      - EnemyId: 1
        PathId: 0
      - EnemyId: 0
        PathId: 0
      - EnemyId: 1
        PathId: 0
      - EnemyId: 0
        PathId: 0
      - EnemyId: 1
        PathId: 0
      - EnemyId: 0
        PathId: 0
    - Rows:
      - EnemyId: 0
        PathId: 0
      - EnemyId: 1
        PathId: 0
      - EnemyId: 0
        PathId: 0
      - EnemyId: 1
        PathId: 0
      - EnemyId: 0
        PathId: 0
      - EnemyId: 1
        PathId: 0
      - EnemyId: 0
        PathId: 0
    - Rows:
      - EnemyId: -1
        PathId: 0
      - EnemyId: -1
        PathId: 0
      - EnemyId: -1
        PathId: 0
      - EnemyId: -1
        PathId: 0
      - EnemyId: -1
        PathId: 0
      - EnemyId: -1
        PathId: 0
      - EnemyId: -1
        PathId: 0
    GiftBox:
      NumGiftBox: 0
      Duration: 0
      Speed: 0
    NumEnemyAttack: 2
    SpeedMoveAttack: 10
    DistanceTimeAttack: 0.3
    LoopTimeAttack: 2
    CombatDiff:
      TimeFireRate: 2
      FireRateDecrease: 0.1
      TimeEnemyAttack: 2
      EnemyAttackDecease: 0.1
      IsIncreaseNumberFire: 0
      TimeIncreaseNumberFire: 0
    Boss:
      BossIndex: 1
      Hps: []
    Rock:
      StartPosition: {x: 0, y: 0, z: 0}
      EndPosition: {x: 0, y: 0, z: 0}
      Range: 3
      Speed: 3
      NumSmall: 0
      NumNormal: 0
      NumBig: 0
      Duration: 5
    UseWarning: 0
    WarningPositions: []
    IsShow: 1
  - WaveType: 0
    FireRate: 3
    Hp: 1
    Items:
      List:
      - Type: 0
        Num: 1
      NumEnemiesCanHaveItem: 7
    HasPower: 0
    NoDam: 1
    IsTeam: 1
    DestroyOnFinish: 0
    IdleType: 0
    TimeMove: 1
    Ease: 0
    Paths:
    - DelayTime: 0
      Distance: 0.3
      MoveSpeed: 9
      Index: 15
      Offset: {x: 0, y: 0}
      FlipX: 1
      FlipY: 0
      Cells:
      - Row: 0
        Coll: 0
    - DelayTime: 0
      Distance: 0.3
      MoveSpeed: 9
      Index: 15
      Offset: {x: 0, y: 0}
      FlipX: 1
      FlipY: 0
      Cells:
      - Row: 2
        Coll: 2
    - DelayTime: 0
      Distance: 0.3
      MoveSpeed: 9
      Index: 15
      Offset: {x: 0, y: 0}
      FlipX: 1
      FlipY: 0
      Cells:
      - Row: 4
        Coll: 0
    - DelayTime: 0
      Distance: 0.3
      MoveSpeed: 9
      Index: 15
      Offset: {x: 0, y: 0}
      FlipX: 1
      FlipY: 0
      Cells:
      - Row: 4
        Coll: 1
    - DelayTime: 0
      Distance: 0.3
      MoveSpeed: 9
      Index: 15
      Offset: {x: 0, y: 0}
      FlipX: 1
      FlipY: 0
      Cells:
      - Row: 4
        Coll: 2
    - DelayTime: 0
      Distance: 0.3
      MoveSpeed: 9
      Index: 15
      Offset: {x: 0, y: 0}
      FlipX: 1
      FlipY: 0
      Cells:
      - Row: 5
        Coll: 0
    - DelayTime: 0
      Distance: 0.3
      MoveSpeed: 9
      Index: 15
      Offset: {x: 0, y: 0}
      FlipX: 1
      FlipY: 0
      Cells:
      - Row: 5
        Coll: 1
    - DelayTime: 0
      Distance: 0.3
      MoveSpeed: 9
      Index: 15
      Offset: {x: 0, y: 0}
      FlipX: 1
      FlipY: 0
      Cells:
      - Row: 5
        Coll: 2
    - DelayTime: 0
      Distance: 0.3
      MoveSpeed: 9
      Index: 15
      Offset: {x: 0, y: 0}
      FlipX: 1
      FlipY: 0
      Cells:
      - Row: 6
        Coll: 1
    - DelayTime: 0
      Distance: 0.3
      MoveSpeed: 9
      Index: 15
      Offset: {x: 0, y: 0}
      FlipX: 1
      FlipY: 0
      Cells:
      - Row: 6
        Coll: 0
    - DelayTime: 0
      Distance: 0.3
      MoveSpeed: 9
      Index: 15
      Offset: {x: 0, y: 0}
      FlipX: 1
      FlipY: 0
      Cells:
      - Row: 6
        Coll: 2
    - DelayTime: 0
      Distance: 0.3
      MoveSpeed: 9
      Index: 15
      Offset: {x: 0, y: 0}
      FlipX: 1
      FlipY: 0
      Cells:
      - Row: 4
        Coll: 3
    - DelayTime: 0
      Distance: 0.3
      MoveSpeed: 9
      Index: 15
      Offset: {x: 0, y: 0}
      FlipX: 0
      FlipY: 0
      Cells:
      - Row: 5
        Coll: 3
    - DelayTime: 0
      Distance: 0.3
      MoveSpeed: 9
      Index: 15
      Offset: {x: 0, y: 0}
      FlipX: 0
      FlipY: 0
      Cells:
      - Row: 6
        Coll: 3
    - DelayTime: 0
      Distance: 0.3
      MoveSpeed: 9
      Index: 15
      Offset: {x: 0, y: 0}
      FlipX: 0
      FlipY: 0
      Cells:
      - Row: 4
        Coll: 4
    - DelayTime: 0
      Distance: 0.3
      MoveSpeed: 9
      Index: 15
      Offset: {x: 0, y: 0}
      FlipX: 0
      FlipY: 0
      Cells:
      - Row: 5
        Coll: 4
    - DelayTime: 0
      Distance: 0.3
      MoveSpeed: 9
      Index: 15
      Offset: {x: 0, y: 0}
      FlipX: 0
      FlipY: 0
      Cells:
      - Row: 6
        Coll: 4
    - DelayTime: 0
      Distance: 0.3
      MoveSpeed: 9
      Index: 15
      Offset: {x: 0, y: 0}
      FlipX: 0
      FlipY: 0
      Cells:
      - Row: 4
        Coll: 5
    - DelayTime: 0
      Distance: 0.3
      MoveSpeed: 9
      Index: 15
      Offset: {x: 0, y: 0}
      FlipX: 0
      FlipY: 0
      Cells:
      - Row: 5
        Coll: 5
    - DelayTime: 0
      Distance: 0.3
      MoveSpeed: 9
      Index: 15
      Offset: {x: 0, y: 0}
      FlipX: 0
      FlipY: 0
      Cells:
      - Row: 6
        Coll: 5
    - DelayTime: 0
      Distance: 0.3
      MoveSpeed: 9
      Index: 15
      Offset: {x: 0, y: 0}
      FlipX: 0
      FlipY: 0
      Cells:
      - Row: 4
        Coll: 6
    - DelayTime: 0
      Distance: 0.3
      MoveSpeed: 9
      Index: 15
      Offset: {x: 0, y: 0}
      FlipX: 0
      FlipY: 0
      Cells:
      - Row: 5
        Coll: 6
    - DelayTime: 0
      Distance: 0.3
      MoveSpeed: 9
      Index: 15
      Offset: {x: 0, y: 0}
      FlipX: 0
      FlipY: 0
      Cells:
      - Row: 6
        Coll: 6
    - DelayTime: 0
      Distance: 0.3
      MoveSpeed: 9
      Index: 15
      Offset: {x: 0, y: 0}
      FlipX: 0
      FlipY: 0
      Cells:
      - Row: 2
        Coll: 4
    - DelayTime: 0
      Distance: 0.3
      MoveSpeed: 9
      Index: 15
      Offset: {x: 0, y: 0}
      FlipX: 0
      FlipY: 0
      Cells:
      - Row: 0
        Coll: 6
    Enemies:
    - Rows:
      - EnemyId: 9
        PathId: 0
      - EnemyId: -1
        PathId: 0
      - EnemyId: -1
        PathId: 0
      - EnemyId: -1
        PathId: 0
      - EnemyId: -1
        PathId: 0
      - EnemyId: -1
        PathId: 0
      - EnemyId: 9
        PathId: 0
    - Rows:
      - EnemyId: -1
        PathId: 0
      - EnemyId: -1
        PathId: 0
      - EnemyId: -1
        PathId: 0
      - EnemyId: -1
        PathId: 0
      - EnemyId: -1
        PathId: 0
      - EnemyId: -1
        PathId: 0
      - EnemyId: -1
        PathId: 0
    - Rows:
      - EnemyId: -1
        PathId: 0
      - EnemyId: -1
        PathId: 0
      - EnemyId: 6
        PathId: 0
      - EnemyId: -1
        PathId: 0
      - EnemyId: 6
        PathId: 0
      - EnemyId: -1
        PathId: 0
      - EnemyId: -1
        PathId: 0
    - Rows:
      - EnemyId: -1
        PathId: 0
      - EnemyId: -1
        PathId: 0
      - EnemyId: -1
        PathId: 0
      - EnemyId: -1
        PathId: 0
      - EnemyId: -1
        PathId: 0
      - EnemyId: -1
        PathId: 0
      - EnemyId: -1
        PathId: 0
    - Rows:
      - EnemyId: 0
        PathId: 0
      - EnemyId: 5
        PathId: 0
      - EnemyId: 5
        PathId: 0
      - EnemyId: 0
        PathId: 0
      - EnemyId: 5
        PathId: 0
      - EnemyId: 5
        PathId: 0
      - EnemyId: 0
        PathId: 0
    - Rows:
      - EnemyId: 2
        PathId: 0
      - EnemyId: 1
        PathId: 0
      - EnemyId: 1
        PathId: 0
      - EnemyId: 1
        PathId: 0
      - EnemyId: 1
        PathId: 0
      - EnemyId: 1
        PathId: 0
      - EnemyId: 2
        PathId: 0
    - Rows:
      - EnemyId: 2
        PathId: 0
      - EnemyId: 2
        PathId: 0
      - EnemyId: 0
        PathId: 0
      - EnemyId: 0
        PathId: 0
      - EnemyId: 0
        PathId: 0
      - EnemyId: 2
        PathId: 0
      - EnemyId: 2
        PathId: 0
    GiftBox:
      NumGiftBox: 0
      Duration: 0
      Speed: 0
    NumEnemyAttack: 1
    SpeedMoveAttack: 7
    DistanceTimeAttack: 0.3
    LoopTimeAttack: 2
    CombatDiff:
      TimeFireRate: 0
      FireRateDecrease: 0
      TimeEnemyAttack: 3
      EnemyAttackDecease: 0.1
      IsIncreaseNumberFire: 0
      TimeIncreaseNumberFire: 0
    Boss:
      BossIndex: 1
      Hps: []
    Rock:
      StartPosition: {x: 0, y: 0, z: 0}
      EndPosition: {x: 0, y: 0, z: 0}
      Range: 3
      Speed: 3
      NumSmall: 0
      NumNormal: 0
      NumBig: 0
      Duration: 5
    UseWarning: 0
    WarningPositions: []
    IsShow: 1
  - WaveType: 0
    FireRate: 3
    Hp: 2
    Items:
      List:
      - Type: 1
        Num: 2
      - Type: 0
        Num: 1
      NumEnemiesCanHaveItem: 3
    HasPower: 0
    NoDam: 0
    IsTeam: 0
    DestroyOnFinish: 1
    IdleType: 8
    TimeMove: 1
    Ease: 0
    Paths:
    - DelayTime: 1
      Distance: 0.3
      MoveSpeed: 4
      Index: 9
      Offset: {x: 6, y: 0}
      FlipX: 0
      FlipY: 0
      Cells:
      - Row: 0
        Coll: 0
    - DelayTime: 1.2
      Distance: 0.3
      MoveSpeed: 5.9
      Index: 9
      Offset: {x: 0.3, y: 0}
      FlipX: 0
      FlipY: 0
      Cells:
      - Row: 1
        Coll: 0
    - DelayTime: 3
      Distance: 0.3
      MoveSpeed: 6.5
      Index: 9
      Offset: {x: 5.6, y: 0}
      FlipX: 0
      FlipY: 0
      Cells:
      - Row: 2
        Coll: 0
    - DelayTime: 5
      Distance: 0.3
      MoveSpeed: 8.2
      Index: 9
      Offset: {x: 2.1, y: 0}
      FlipX: 0
      FlipY: 0
      Cells:
      - Row: 3
        Coll: 0
    - DelayTime: 1.4
      Distance: 0.3
      MoveSpeed: 1.8
      Index: 9
      Offset: {x: -0.6, y: 0}
      FlipX: 0
      FlipY: 0
      Cells:
      - Row: 2
        Coll: 2
    - DelayTime: 0.9
      Distance: 0.3
      MoveSpeed: 3.8
      Index: 9
      Offset: {x: -3, y: 0}
      FlipX: 0
      FlipY: 0
      Cells:
      - Row: 2
        Coll: 3
    - DelayTime: 1.2
      Distance: 0.3
      MoveSpeed: 4
      Index: 9
      Offset: {x: 2.6, y: 0}
      FlipX: 0
      FlipY: 0
      Cells:
      - Row: 4
        Coll: 0
    - DelayTime: 3.1
      Distance: 0.3
      MoveSpeed: 4
      Index: 9
      Offset: {x: -6, y: 0}
      FlipX: 0
      FlipY: 0
      Cells:
      - Row: 5
        Coll: 0
    - DelayTime: 2
      Distance: 0.3
      MoveSpeed: 4.3
      Index: 9
      Offset: {x: -3.2, y: 0}
      FlipX: 0
      FlipY: 0
      Cells:
      - Row: 6
        Coll: 0
    - DelayTime: 2.5
      Distance: 0.3
      MoveSpeed: 4.3
      Index: 9
      Offset: {x: -4, y: 0}
      FlipX: 0
      FlipY: 0
      Cells:
      - Row: 0
        Coll: 1
    - DelayTime: 1.3
      Distance: 0.3
      MoveSpeed: 4.8
      Index: 9
      Offset: {x: 3.2, y: 0}
      FlipX: 0
      FlipY: 0
      Cells:
      - Row: 1
        Coll: 1
    - DelayTime: 4
      Distance: 0.3
      MoveSpeed: 4.8
      Index: 9
      Offset: {x: 0, y: 0}
      FlipX: 0
      FlipY: 0
      Cells:
      - Row: 2
        Coll: 1
    - DelayTime: 1.6
      Distance: 0.3
      MoveSpeed: 4.8
      Index: 9
      Offset: {x: 0, y: 0}
      FlipX: 0
      FlipY: 0
      Cells:
      - Row: 3
        Coll: 1
    - DelayTime: 2
      Distance: 0.3
      MoveSpeed: 5.3
      Index: 9
      Offset: {x: 0, y: 0}
      FlipX: 0
      FlipY: 0
      Cells:
      - Row: 4
        Coll: 1
    - DelayTime: 0.6
      Distance: 0.3
      MoveSpeed: 5.3
      Index: 9
      Offset: {x: -1.8, y: 0}
      FlipX: 0
      FlipY: 0
      Cells:
      - Row: 5
        Coll: 1
    - DelayTime: 3.7
      Distance: 0.3
      MoveSpeed: 5.3
      Index: 9
      Offset: {x: -3.1, y: 0}
      FlipX: 0
      FlipY: 0
      Cells:
      - Row: 6
        Coll: 1
    - DelayTime: 8.3
      Distance: 0.3
      MoveSpeed: 5.7
      Index: 9
      Offset: {x: 2.4, y: 0}
      FlipX: 0
      FlipY: 0
      Cells:
      - Row: 3
        Coll: 2
    - DelayTime: 7.9
      Distance: 0.3
      MoveSpeed: 5.7
      Index: 9
      Offset: {x: 4.2, y: 0}
      FlipX: 0
      FlipY: 0
      Cells:
      - Row: 4
        Coll: 2
    - DelayTime: 7.5
      Distance: 0.3
      MoveSpeed: 5.7
      Index: 9
      Offset: {x: 3.9, y: 0}
      FlipX: 0
      FlipY: 0
      Cells:
      - Row: 0
        Coll: 2
    - DelayTime: 2.6
      Distance: 0.3
      MoveSpeed: 6
      Index: 9
      Offset: {x: -2, y: 0}
      FlipX: 0
      FlipY: 0
      Cells:
      - Row: 1
        Coll: 2
    - DelayTime: 6.4
      Distance: 0.3
      MoveSpeed: 6
      Index: 9
      Offset: {x: -0.7, y: 0}
      FlipX: 0
      FlipY: 0
      Cells:
      - Row: 5
        Coll: 2
    - DelayTime: 5.1
      Distance: 0.3
      MoveSpeed: 6
      Index: 9
      Offset: {x: 1.3, y: 0}
      FlipX: 0
      FlipY: 0
      Cells:
      - Row: 6
        Coll: 2
    - DelayTime: 1.3
      Distance: 0.3
      MoveSpeed: 6
      Index: 9
      Offset: {x: 2.4, y: 0}
      FlipX: 0
      FlipY: 0
      Cells:
      - Row: 3
        Coll: 3
    - DelayTime: 0.8
      Distance: 0.3
      MoveSpeed: 6.4
      Index: 9
      Offset: {x: -3, y: 0}
      FlipX: 0
      FlipY: 0
      Cells:
      - Row: 4
        Coll: 3
    - DelayTime: 2.5
      Distance: 0.3
      MoveSpeed: 6.4
      Index: 9
      Offset: {x: 4.1, y: 0}
      FlipX: 0
      FlipY: 0
      Cells:
      - Row: 5
        Coll: 3
    - DelayTime: 6.1
      Distance: 0.3
      MoveSpeed: 7
      Index: 9
      Offset: {x: 3.2, y: 0}
      FlipX: 0
      FlipY: 0
      Cells:
      - Row: 6
        Coll: 3
    - DelayTime: 5.7
      Distance: 0.3
      MoveSpeed: 7.3
      Index: 9
      Offset: {x: 1.6, y: 0}
      FlipX: 0
      FlipY: 0
      Cells:
      - Row: 6
        Coll: 4
    - DelayTime: 4.3
      Distance: 0.3
      MoveSpeed: 7.9
      Index: 9
      Offset: {x: -2.1, y: 0}
      FlipX: 0
      FlipY: 0
      Cells:
      - Row: 4
        Coll: 4
    - DelayTime: 5.3
      Distance: 0.3
      MoveSpeed: 7.9
      Index: 9
      Offset: {x: -2.6, y: 0}
      FlipX: 0
      FlipY: 0
      Cells:
      - Row: 5
        Coll: 4
    - DelayTime: 1.6
      Distance: 0.3
      MoveSpeed: 8.3
      Index: 9
      Offset: {x: 1.7, y: 0}
      FlipX: 0
      FlipY: 0
      Cells:
      - Row: 3
        Coll: 4
    - DelayTime: 0.2
      Distance: 0.3
      MoveSpeed: 8.3
      Index: 9
      Offset: {x: 6.2, y: 0}
      FlipX: 0
      FlipY: 0
      Cells:
      - Row: 3
        Coll: 5
    - DelayTime: 2.7
      Distance: 0.3
      MoveSpeed: 8.5
      Index: 9
      Offset: {x: 4.2, y: 0}
      FlipX: 0
      FlipY: 0
      Cells:
      - Row: 4
        Coll: 5
    - DelayTime: 3.6
      Distance: 0.3
      MoveSpeed: 1.5
      Index: 9
      Offset: {x: 3.6, y: 0}
      FlipX: 0
      FlipY: 0
      Cells:
      - Row: 2
        Coll: 5
    - DelayTime: 7.3
      Distance: 0.3
      MoveSpeed: 8.7
      Index: 9
      Offset: {x: -1.8, y: 0}
      FlipX: 0
      FlipY: 0
      Cells:
      - Row: 1
        Coll: 3
    Enemies:
    - Rows:
      - EnemyId: 1
        PathId: 0
      - EnemyId: 0
        PathId: 0
      - EnemyId: 6
        PathId: 0
      - EnemyId: -1
        PathId: 0
      - EnemyId: -1
        PathId: 0
      - EnemyId: -1
        PathId: 0
      - EnemyId: -1
        PathId: 0
    - Rows:
      - EnemyId: 6
        PathId: 0
      - EnemyId: 0
        PathId: 0
      - EnemyId: 6
        PathId: 0
      - EnemyId: 0
        PathId: 0
      - EnemyId: -1
        PathId: 0
      - EnemyId: -1
        PathId: 0
      - EnemyId: -1
        PathId: 0
    - Rows:
      - EnemyId: 0
        PathId: 0
      - EnemyId: 1
        PathId: 0
      - EnemyId: 3
        PathId: 0
      - EnemyId: 9
        PathId: 0
      - EnemyId: -1
        PathId: 0
      - EnemyId: 3
        PathId: 0
      - EnemyId: -1
        PathId: 0
    - Rows:
      - EnemyId: 1
        PathId: 0
      - EnemyId: 0
        PathId: 0
      - EnemyId: 1
        PathId: 0
      - EnemyId: 2
        PathId: 0
      - EnemyId: 2
        PathId: 0
      - EnemyId: 5
        PathId: 0
      - EnemyId: -1
        PathId: 0
    - Rows:
      - EnemyId: 1
        PathId: 0
      - EnemyId: 1
        PathId: 0
      - EnemyId: 1
        PathId: 0
      - EnemyId: 2
        PathId: 0
      - EnemyId: 1
        PathId: 0
      - EnemyId: 0
        PathId: 0
      - EnemyId: -1
        PathId: 0
    - Rows:
      - EnemyId: 1
        PathId: 0
      - EnemyId: 1
        PathId: 0
      - EnemyId: 2
        PathId: 0
      - EnemyId: 1
        PathId: 0
      - EnemyId: 0
        PathId: 0
      - EnemyId: -1
        PathId: 0
      - EnemyId: -1
        PathId: 0
    - Rows:
      - EnemyId: 0
        PathId: 0
      - EnemyId: 1
        PathId: 0
      - EnemyId: 1
        PathId: 0
      - EnemyId: 2
        PathId: 0
      - EnemyId: 5
        PathId: 0
      - EnemyId: -1
        PathId: 0
      - EnemyId: -1
        PathId: 0
    GiftBox:
      NumGiftBox: 0
      Duration: 0
      Speed: 0
    NumEnemyAttack: 0
    SpeedMoveAttack: 5
    DistanceTimeAttack: 0.3
    LoopTimeAttack: 2
    CombatDiff:
      TimeFireRate: 5
      FireRateDecrease: 0.1
      TimeEnemyAttack: 0
      EnemyAttackDecease: 0
      IsIncreaseNumberFire: 0
      TimeIncreaseNumberFire: 0
    Boss:
      BossIndex: 1
      Hps: []
    Rock:
      StartPosition: {x: 0, y: 0, z: 0}
      EndPosition: {x: 0, y: 0, z: 0}
      Range: 3
      Speed: 3
      NumSmall: 0
      NumNormal: 0
      NumBig: 0
      Duration: 5
    UseWarning: 0
    WarningPositions: []
    IsShow: 1
  - WaveType: 1
    FireRate: 1.4
    Hp: 2
    Items:
      List: []
      NumEnemiesCanHaveItem: 0
    HasPower: 0
    NoDam: 1
    IsTeam: 1
    DestroyOnFinish: 0
    IdleType: 0
    TimeMove: 1
    Ease: 0
    Paths: []
    Enemies:
    - Rows:
      - EnemyId: -1
        PathId: 0
      - EnemyId: -1
        PathId: 0
      - EnemyId: -1
        PathId: 0
      - EnemyId: -1
        PathId: 0
      - EnemyId: -1
        PathId: 0
      - EnemyId: -1
        PathId: 0
      - EnemyId: -1
        PathId: 0
    - Rows:
      - EnemyId: -1
        PathId: 0
      - EnemyId: -1
        PathId: 0
      - EnemyId: -1
        PathId: 0
      - EnemyId: -1
        PathId: 0
      - EnemyId: -1
        PathId: 0
      - EnemyId: -1
        PathId: 0
      - EnemyId: -1
        PathId: 0
    - Rows:
      - EnemyId: -1
        PathId: 0
      - EnemyId: -1
        PathId: 0
      - EnemyId: -1
        PathId: 0
      - EnemyId: -1
        PathId: 0
      - EnemyId: -1
        PathId: 0
      - EnemyId: -1
        PathId: 0
      - EnemyId: -1
        PathId: 0
    - Rows:
      - EnemyId: -1
        PathId: 0
      - EnemyId: -1
        PathId: 0
      - EnemyId: -1
        PathId: 0
      - EnemyId: -1
        PathId: 0
      - EnemyId: -1
        PathId: 0
      - EnemyId: -1
        PathId: 0
      - EnemyId: -1
        PathId: 0
    - Rows:
      - EnemyId: -1
        PathId: 0
      - EnemyId: -1
        PathId: 0
      - EnemyId: -1
        PathId: 0
      - EnemyId: -1
        PathId: 0
      - EnemyId: -1
        PathId: 0
      - EnemyId: -1
        PathId: 0
      - EnemyId: -1
        PathId: 0
    - Rows:
      - EnemyId: -1
        PathId: 0
      - EnemyId: -1
        PathId: 0
      - EnemyId: -1
        PathId: 0
      - EnemyId: -1
        PathId: 0
      - EnemyId: -1
        PathId: 0
      - EnemyId: -1
        PathId: 0
      - EnemyId: -1
        PathId: 0
    - Rows:
      - EnemyId: -1
        PathId: 0
      - EnemyId: -1
        PathId: 0
      - EnemyId: -1
        PathId: 0
      - EnemyId: -1
        PathId: 0
      - EnemyId: -1
        PathId: 0
      - EnemyId: -1
        PathId: 0
      - EnemyId: -1
        PathId: 0
    GiftBox:
      NumGiftBox: 0
      Duration: 0
      Speed: 0
    NumEnemyAttack: 0
    SpeedMoveAttack: 5
    DistanceTimeAttack: 0.3
    LoopTimeAttack: 2
    CombatDiff:
      TimeFireRate: 0
      FireRateDecrease: 0
      TimeEnemyAttack: 0
      EnemyAttackDecease: 0
      IsIncreaseNumberFire: 0
      TimeIncreaseNumberFire: 0
    Boss:
      BossIndex: 1
      Hps: []
    Rock:
      StartPosition: {x: -0.0472579, y: 7.230424, z: 0}
      EndPosition: {x: -0.4725746, y: -6.072612, z: 0}
      Range: 4
      Speed: 3
      NumSmall: 30
      NumNormal: 20
      NumBig: 10
      Duration: 7
    UseWarning: 0
    WarningPositions: []
    IsShow: 1
  - WaveType: 0
    FireRate: 2
    Hp: 4
    Items:
      List:
      - Type: 1
        Num: 1
      NumEnemiesCanHaveItem: 5
    HasPower: 0
    NoDam: 0
    IsTeam: 0
    DestroyOnFinish: 0
    IdleType: 2
    TimeMove: 1
    Ease: 0
    Paths:
    - DelayTime: 0
      Distance: 0.3
      MoveSpeed: 6
      Index: 8
      Offset: {x: 0, y: 0}
      FlipX: 0
      FlipY: 0
      Cells:
      - Row: 0
        Coll: 0
      - Row: 1
        Coll: 0
      - Row: 2
        Coll: 0
      - Row: 3
        Coll: 0
      - Row: 4
        Coll: 0
      - Row: 5
        Coll: 0
      - Row: 6
        Coll: 0
      - Row: 6
        Coll: 1
      - Row: 5
        Coll: 1
      - Row: 4
        Coll: 1
      - Row: 3
        Coll: 1
      - Row: 2
        Coll: 1
      - Row: 1
        Coll: 1
      - Row: 0
        Coll: 1
      - Row: 0
        Coll: 2
    - DelayTime: 0
      Distance: 0.3
      MoveSpeed: 6
      Index: 8
      Offset: {x: 0, y: 0}
      FlipX: 1
      FlipY: 0
      Cells:
      - Row: 0
        Coll: 6
      - Row: 1
        Coll: 6
      - Row: 2
        Coll: 6
      - Row: 3
        Coll: 6
      - Row: 4
        Coll: 6
      - Row: 5
        Coll: 6
      - Row: 6
        Coll: 6
      - Row: 6
        Coll: 5
      - Row: 5
        Coll: 5
      - Row: 3
        Coll: 5
      - Row: 2
        Coll: 5
      - Row: 1
        Coll: 5
      - Row: 0
        Coll: 5
      - Row: 0
        Coll: 4
    Enemies:
    - Rows:
      - EnemyId: 0
        PathId: 0
      - EnemyId: 5
        PathId: 0
      - EnemyId: 5
        PathId: 0
      - EnemyId: -1
        PathId: 0
      - EnemyId: 5
        PathId: 0
      - EnemyId: 5
        PathId: 0
      - EnemyId: 0
        PathId: 0
    - Rows:
      - EnemyId: 0
        PathId: 0
      - EnemyId: 5
        PathId: 0
      - EnemyId: -1
        PathId: 0
      - EnemyId: -1
        PathId: 0
      - EnemyId: -1
        PathId: 0
      - EnemyId: 5
        PathId: 0
      - EnemyId: 0
        PathId: 0
    - Rows:
      - EnemyId: 0
        PathId: 0
      - EnemyId: 5
        PathId: 0
      - EnemyId: -1
        PathId: 0
      - EnemyId: -1
        PathId: 0
      - EnemyId: -1
        PathId: 0
      - EnemyId: 5
        PathId: 0
      - EnemyId: 0
        PathId: 0
    - Rows:
      - EnemyId: 1
        PathId: 0
      - EnemyId: 5
        PathId: 0
      - EnemyId: -1
        PathId: 0
      - EnemyId: -1
        PathId: 0
      - EnemyId: -1
        PathId: 0
      - EnemyId: 5
        PathId: 0
      - EnemyId: 1
        PathId: 0
    - Rows:
      - EnemyId: 1
        PathId: 0
      - EnemyId: 2
        PathId: 0
      - EnemyId: -1
        PathId: 0
      - EnemyId: -1
        PathId: 0
      - EnemyId: -1
        PathId: 0
      - EnemyId: 2
        PathId: 0
      - EnemyId: 1
        PathId: 0
    - Rows:
      - EnemyId: 1
        PathId: 0
      - EnemyId: 2
        PathId: 0
      - EnemyId: -1
        PathId: 0
      - EnemyId: -1
        PathId: 0
      - EnemyId: -1
        PathId: 0
      - EnemyId: 2
        PathId: 0
      - EnemyId: 1
        PathId: 0
    - Rows:
      - EnemyId: 1
        PathId: 0
      - EnemyId: 2
        PathId: 0
      - EnemyId: -1
        PathId: 0
      - EnemyId: -1
        PathId: 0
      - EnemyId: -1
        PathId: 0
      - EnemyId: 2
        PathId: 0
      - EnemyId: 1
        PathId: 0
    GiftBox:
      NumGiftBox: 0
      Duration: 0
      Speed: 0
    NumEnemyAttack: 1
    SpeedMoveAttack: 3
    DistanceTimeAttack: 0.5
    LoopTimeAttack: 5
    CombatDiff:
      TimeFireRate: 3
      FireRateDecrease: 0.1
      TimeEnemyAttack: 2
      EnemyAttackDecease: 0.1
      IsIncreaseNumberFire: 0
      TimeIncreaseNumberFire: 0
    Boss:
      BossIndex: 1
      Hps: []
    Rock:
      StartPosition: {x: 0, y: 0, z: 0}
      EndPosition: {x: 0, y: 0, z: 0}
      Range: 3
      Speed: 3
      NumSmall: 0
      NumNormal: 0
      NumBig: 0
      Duration: 5
    UseWarning: 0
    WarningPositions: []
    IsShow: 1
  - WaveType: 1
    FireRate: 1
    Hp: 1
    Items:
      List: []
      NumEnemiesCanHaveItem: 0
    HasPower: 0
    NoDam: 0
    IsTeam: 1
    DestroyOnFinish: 0
    IdleType: 0
    TimeMove: 1
    Ease: 0
    Paths: []
    Enemies:
    - Rows:
      - EnemyId: -1
        PathId: 0
      - EnemyId: -1
        PathId: 0
      - EnemyId: -1
        PathId: 0
      - EnemyId: -1
        PathId: 0
      - EnemyId: -1
        PathId: 0
      - EnemyId: -1
        PathId: 0
      - EnemyId: -1
        PathId: 0
    - Rows:
      - EnemyId: -1
        PathId: 0
      - EnemyId: -1
        PathId: 0
      - EnemyId: -1
        PathId: 0
      - EnemyId: -1
        PathId: 0
      - EnemyId: -1
        PathId: 0
      - EnemyId: -1
        PathId: 0
      - EnemyId: -1
        PathId: 0
    - Rows:
      - EnemyId: -1
        PathId: 0
      - EnemyId: -1
        PathId: 0
      - EnemyId: -1
        PathId: 0
      - EnemyId: -1
        PathId: 0
      - EnemyId: -1
        PathId: 0
      - EnemyId: -1
        PathId: 0
      - EnemyId: -1
        PathId: 0
    - Rows:
      - EnemyId: -1
        PathId: 0
      - EnemyId: -1
        PathId: 0
      - EnemyId: -1
        PathId: 0
      - EnemyId: -1
        PathId: 0
      - EnemyId: -1
        PathId: 0
      - EnemyId: -1
        PathId: 0
      - EnemyId: -1
        PathId: 0
    - Rows:
      - EnemyId: -1
        PathId: 0
      - EnemyId: -1
        PathId: 0
      - EnemyId: -1
        PathId: 0
      - EnemyId: -1
        PathId: 0
      - EnemyId: -1
        PathId: 0
      - EnemyId: -1
        PathId: 0
      - EnemyId: -1
        PathId: 0
    - Rows:
      - EnemyId: -1
        PathId: 0
      - EnemyId: -1
        PathId: 0
      - EnemyId: -1
        PathId: 0
      - EnemyId: -1
        PathId: 0
      - EnemyId: -1
        PathId: 0
      - EnemyId: -1
        PathId: 0
      - EnemyId: -1
        PathId: 0
    - Rows:
      - EnemyId: -1
        PathId: 0
      - EnemyId: -1
        PathId: 0
      - EnemyId: -1
        PathId: 0
      - EnemyId: -1
        PathId: 0
      - EnemyId: -1
        PathId: 0
      - EnemyId: -1
        PathId: 0
      - EnemyId: -1
        PathId: 0
    GiftBox:
      NumGiftBox: 0
      Duration: 0
      Speed: 0
    NumEnemyAttack: 0
    SpeedMoveAttack: 5
    DistanceTimeAttack: 0.3
    LoopTimeAttack: 2
    CombatDiff:
      TimeFireRate: 0
      FireRateDecrease: 0
      TimeEnemyAttack: 0
      EnemyAttackDecease: 0
      IsIncreaseNumberFire: 0
      TimeIncreaseNumberFire: 0
    Boss:
      BossIndex: 1
      Hps: []
    Rock:
      StartPosition: {x: -1.0989347, y: 7.41077, z: 0}
      EndPosition: {x: 1.1834676, y: -8.03068, z: 0}
      Range: 3.5072
      Speed: 5
      NumSmall: 15
      NumNormal: 15
      NumBig: 30
      Duration: 8
    UseWarning: 0
    WarningPositions: []
    IsShow: 1
  - WaveType: 0
    FireRate: 2
    Hp: 4
    Items:
      List:
      - Type: 1
        Num: 1
      NumEnemiesCanHaveItem: 1
    HasPower: 0
    NoDam: 0
    IsTeam: 1
    DestroyOnFinish: 0
    IdleType: 8
    TimeMove: 1
    Ease: 0
    Paths:
    - DelayTime: 0
      Distance: 0.3
      MoveSpeed: 5
      Index: 12
      Offset: {x: 0, y: 0}
      FlipX: 0
      FlipY: 0
      Cells:
      - Row: 4
        Coll: 1
    - DelayTime: 0
      Distance: 0.3
      MoveSpeed: 5
      Index: 12
      Offset: {x: 0, y: 0}
      FlipX: 1
      FlipY: 0
      Cells:
      - Row: 4
        Coll: 5
    - DelayTime: 6
      Distance: 0.3
      MoveSpeed: 5
      Index: 8
      Offset: {x: 0, y: 0}
      FlipX: 0
      FlipY: 0
      Cells:
      - Row: 1
        Coll: 3
    Enemies:
    - Rows:
      - EnemyId: -1
        PathId: 0
      - EnemyId: -1
        PathId: 0
      - EnemyId: -1
        PathId: 0
      - EnemyId: -1
        PathId: 0
      - EnemyId: -1
        PathId: 0
      - EnemyId: -1
        PathId: 0
      - EnemyId: -1
        PathId: 0
    - Rows:
      - EnemyId: -1
        PathId: 0
      - EnemyId: -1
        PathId: 0
      - EnemyId: -1
        PathId: 0
      - EnemyId: 3
        PathId: 0
      - EnemyId: -1
        PathId: 0
      - EnemyId: -1
        PathId: 0
      - EnemyId: -1
        PathId: 0
    - Rows:
      - EnemyId: -1
        PathId: 0
      - EnemyId: -1
        PathId: 0
      - EnemyId: -1
        PathId: 0
      - EnemyId: -1
        PathId: 0
      - EnemyId: -1
        PathId: 0
      - EnemyId: -1
        PathId: 0
      - EnemyId: -1
        PathId: 0
    - Rows:
      - EnemyId: -1
        PathId: 0
      - EnemyId: -1
        PathId: 0
      - EnemyId: -1
        PathId: 0
      - EnemyId: -1
        PathId: 0
      - EnemyId: -1
        PathId: 0
      - EnemyId: -1
        PathId: 0
      - EnemyId: -1
        PathId: 0
    - Rows:
      - EnemyId: -1
        PathId: 0
      - EnemyId: 9
        PathId: 0
      - EnemyId: -1
        PathId: 0
      - EnemyId: -1
        PathId: 0
      - EnemyId: -1
        PathId: 0
      - EnemyId: 9
        PathId: 0
      - EnemyId: -1
        PathId: 0
    - Rows:
      - EnemyId: -1
        PathId: 0
      - EnemyId: -1
        PathId: 0
      - EnemyId: -1
        PathId: 0
      - EnemyId: -1
        PathId: 0
      - EnemyId: -1
        PathId: 0
      - EnemyId: -1
        PathId: 0
      - EnemyId: -1
        PathId: 0
    - Rows:
      - EnemyId: -1
        PathId: 0
      - EnemyId: -1
        PathId: 0
      - EnemyId: -1
        PathId: 0
      - EnemyId: -1
        PathId: 0
      - EnemyId: -1
        PathId: 0
      - EnemyId: -1
        PathId: 0
      - EnemyId: -1
        PathId: 0
    GiftBox:
      NumGiftBox: 0
      Duration: 0
      Speed: 0
    NumEnemyAttack: 0
    SpeedMoveAttack: 5
    DistanceTimeAttack: 0.3
    LoopTimeAttack: 2
    CombatDiff:
      TimeFireRate: 3
      FireRateDecrease: 0.1
      TimeEnemyAttack: 0
      EnemyAttackDecease: 0
      IsIncreaseNumberFire: 0
      TimeIncreaseNumberFire: 0
    Boss:
      BossIndex: 1
      Hps: []
    Rock:
      StartPosition: {x: 0, y: 0, z: 0}
      EndPosition: {x: 0, y: 0, z: 0}
      Range: 3
      Speed: 3
      NumSmall: 0
      NumNormal: 0
      NumBig: 0
      Duration: 5
    UseWarning: 0
    WarningPositions: []
    IsShow: 1
