%YAML 1.1
%TAG !u! tag:unity3d.com,2011:
--- !u!114 &11400000
MonoBehaviour:
  m_ObjectHideFlags: 0
  m_CorrespondingSourceObject: {fileID: 0}
  m_PrefabInstance: {fileID: 0}
  m_PrefabAsset: {fileID: 0}
  m_GameObject: {fileID: 0}
  m_Enabled: 1
  m_EditorHideFlags: 0
  m_Script: {fileID: 11500000, guid: bf5d7ed2671cf0d4b825cab5b09dbcb8, type: 3}
  m_Name: Level 32
  m_EditorClassIdentifier: 
  FuelCost: 3
  CoinReward: 3250
  ReFightCoinReward: 1625
  CombatPower: 21553
  EvolveShipNum: 6
  EvolveShipId: 3
  EvolveDroneNum: 6
  EvolveDroneId: 0
  Waves:
  - WaveType: 0
    FireRate: 1
    Hp: 1
    Items:
      List:
      - Type: 1
        Num: 2
      NumEnemiesCanHaveItem: 25
    HasPower: 0
    NoDam: 1
    IsTeam: 1
    DestroyOnFinish: 0
    IdleType: 9
    TimeMove: 1
    Ease: 0
    Paths:
    - DelayTime: 3
      Distance: 0.3
      MoveSpeed: 8
      Index: 0
      Offset: {x: 0, y: 0}
      FlipX: 1
      FlipY: 0
      Cells:
      - Row: 0
        Coll: 0
    - DelayTime: 3
      Distance: 0.3
      MoveSpeed: 8
      Index: 0
      Offset: {x: 0, y: 0}
      FlipX: 1
      FlipY: 0
      Cells:
      - Row: 0
        Coll: 1
    - DelayTime: 3
      Distance: 0.3
      MoveSpeed: 8
      Index: 0
      Offset: {x: 0, y: 0}
      FlipX: 1
      FlipY: 0
      Cells:
      - Row: 0
        Coll: 2
    - DelayTime: 3
      Distance: 0.3
      MoveSpeed: 8
      Index: 0
      Offset: {x: 0, y: 0}
      FlipX: 1
      FlipY: 0
      Cells:
      - Row: 0
        Coll: 3
    - DelayTime: 3
      Distance: 0.3
      MoveSpeed: 8
      Index: 0
      Offset: {x: 0, y: 0}
      FlipX: 1
      FlipY: 0
      Cells:
      - Row: 0
        Coll: 4
    - DelayTime: 3
      Distance: 0.3
      MoveSpeed: 8
      Index: 0
      Offset: {x: 0, y: 0}
      FlipX: 1
      FlipY: 0
      Cells:
      - Row: 0
        Coll: 5
    - DelayTime: 3
      Distance: 0.3
      MoveSpeed: 8
      Index: 0
      Offset: {x: 0, y: 0}
      FlipX: 1
      FlipY: 0
      Cells:
      - Row: 0
        Coll: 6
    - DelayTime: 3
      Distance: 0.3
      MoveSpeed: 8
      Index: 0
      Offset: {x: 0, y: 0}
      FlipX: 1
      FlipY: 0
      Cells:
      - Row: 1
        Coll: 6
    - DelayTime: 3
      Distance: 0.3
      MoveSpeed: 8
      Index: 0
      Offset: {x: 0, y: 0}
      FlipX: 1
      FlipY: 0
      Cells:
      - Row: 2
        Coll: 6
    - DelayTime: 3
      Distance: 0.3
      MoveSpeed: 8
      Index: 0
      Offset: {x: 0, y: 0}
      FlipX: 1
      FlipY: 0
      Cells:
      - Row: 3
        Coll: 6
    - DelayTime: 3
      Distance: 0.3
      MoveSpeed: 8
      Index: 0
      Offset: {x: 0, y: 0}
      FlipX: 1
      FlipY: 0
      Cells:
      - Row: 4
        Coll: 6
    - DelayTime: 3
      Distance: 0.3
      MoveSpeed: 8
      Index: 0
      Offset: {x: 0, y: 0}
      FlipX: 1
      FlipY: 0
      Cells:
      - Row: 5
        Coll: 6
    - DelayTime: 3
      Distance: 0.3
      MoveSpeed: 8
      Index: 0
      Offset: {x: 0, y: 0}
      FlipX: 1
      FlipY: 0
      Cells:
      - Row: 6
        Coll: 6
    - DelayTime: 3
      Distance: 0.3
      MoveSpeed: 8
      Index: 0
      Offset: {x: 0, y: 0}
      FlipX: 1
      FlipY: 0
      Cells:
      - Row: 6
        Coll: 5
    - DelayTime: 3
      Distance: 0.3
      MoveSpeed: 8
      Index: 0
      Offset: {x: 0, y: 0}
      FlipX: 1
      FlipY: 0
      Cells:
      - Row: 6
        Coll: 4
    - DelayTime: 3
      Distance: 0.3
      MoveSpeed: 8
      Index: 0
      Offset: {x: 0, y: 0}
      FlipX: 1
      FlipY: 0
      Cells:
      - Row: 6
        Coll: 3
    - DelayTime: 3
      Distance: 0.3
      MoveSpeed: 8
      Index: 0
      Offset: {x: 0, y: 0}
      FlipX: 1
      FlipY: 0
      Cells:
      - Row: 6
        Coll: 2
    - DelayTime: 3
      Distance: 0.3
      MoveSpeed: 8
      Index: 0
      Offset: {x: 0, y: 0}
      FlipX: 1
      FlipY: 0
      Cells:
      - Row: 6
        Coll: 1
    - DelayTime: 3
      Distance: 0.3
      MoveSpeed: 8
      Index: 0
      Offset: {x: 0, y: 0}
      FlipX: 1
      FlipY: 0
      Cells:
      - Row: 6
        Coll: 0
    - DelayTime: 3
      Distance: 0.3
      MoveSpeed: 8
      Index: 0
      Offset: {x: 0, y: 0}
      FlipX: 1
      FlipY: 0
      Cells:
      - Row: 5
        Coll: 0
    - DelayTime: 3
      Distance: 0.3
      MoveSpeed: 8
      Index: 0
      Offset: {x: 0, y: 0}
      FlipX: 1
      FlipY: 0
      Cells:
      - Row: 4
        Coll: 0
    - DelayTime: 3
      Distance: 0.3
      MoveSpeed: 8
      Index: 0
      Offset: {x: 0, y: 0}
      FlipX: 1
      FlipY: 0
      Cells:
      - Row: 3
        Coll: 0
    - DelayTime: 3
      Distance: 0.3
      MoveSpeed: 8
      Index: 0
      Offset: {x: 0, y: 0}
      FlipX: 1
      FlipY: 0
      Cells:
      - Row: 2
        Coll: 0
    - DelayTime: 3
      Distance: 0.3
      MoveSpeed: 8
      Index: 0
      Offset: {x: 0, y: 0}
      FlipX: 1
      FlipY: 0
      Cells:
      - Row: 1
        Coll: 0
    - DelayTime: 1
      Distance: 0.3
      MoveSpeed: 8
      Index: 0
      Offset: {x: 0, y: 0}
      FlipX: 1
      FlipY: 0
      Cells:
      - Row: 1
        Coll: 1
    - DelayTime: 1
      Distance: 0.3
      MoveSpeed: 8
      Index: 0
      Offset: {x: 0, y: 0}
      FlipX: 1
      FlipY: 0
      Cells:
      - Row: 1
        Coll: 2
    - DelayTime: 1
      Distance: 0.3
      MoveSpeed: 8
      Index: 0
      Offset: {x: 0, y: 0}
      FlipX: 1
      FlipY: 0
      Cells:
      - Row: 1
        Coll: 3
    - DelayTime: 1
      Distance: 0.3
      MoveSpeed: 8
      Index: 0
      Offset: {x: 0, y: 0}
      FlipX: 1
      FlipY: 0
      Cells:
      - Row: 1
        Coll: 4
    - DelayTime: 1
      Distance: 0.3
      MoveSpeed: 8
      Index: 0
      Offset: {x: 0, y: 0}
      FlipX: 1
      FlipY: 0
      Cells:
      - Row: 1
        Coll: 5
    - DelayTime: 1
      Distance: 0.3
      MoveSpeed: 8
      Index: 0
      Offset: {x: 0, y: 0}
      FlipX: 1
      FlipY: 0
      Cells:
      - Row: 2
        Coll: 5
    - DelayTime: 1
      Distance: 0.3
      MoveSpeed: 8
      Index: 0
      Offset: {x: 0, y: 0}
      FlipX: 1
      FlipY: 0
      Cells:
      - Row: 3
        Coll: 5
    - DelayTime: 1
      Distance: 0.3
      MoveSpeed: 8
      Index: 0
      Offset: {x: 0, y: 0}
      FlipX: 1
      FlipY: 0
      Cells:
      - Row: 4
        Coll: 5
    - DelayTime: 1
      Distance: 0.3
      MoveSpeed: 8
      Index: 0
      Offset: {x: 0, y: 0}
      FlipX: 1
      FlipY: 0
      Cells:
      - Row: 5
        Coll: 5
    - DelayTime: 1
      Distance: 0.3
      MoveSpeed: 8
      Index: 0
      Offset: {x: 0, y: 0}
      FlipX: 1
      FlipY: 0
      Cells:
      - Row: 5
        Coll: 4
    - DelayTime: 1
      Distance: 0.3
      MoveSpeed: 8
      Index: 0
      Offset: {x: 0, y: 0}
      FlipX: 1
      FlipY: 0
      Cells:
      - Row: 5
        Coll: 3
    - DelayTime: 1
      Distance: 0.3
      MoveSpeed: 8
      Index: 0
      Offset: {x: 0, y: 0}
      FlipX: 1
      FlipY: 0
      Cells:
      - Row: 5
        Coll: 2
    - DelayTime: 1
      Distance: 0.3
      MoveSpeed: 8
      Index: 0
      Offset: {x: 0, y: 0}
      FlipX: 1
      FlipY: 0
      Cells:
      - Row: 5
        Coll: 1
    - DelayTime: 1
      Distance: 0.3
      MoveSpeed: 8
      Index: 0
      Offset: {x: 0, y: 0}
      FlipX: 1
      FlipY: 0
      Cells:
      - Row: 4
        Coll: 1
    - DelayTime: 1
      Distance: 0.3
      MoveSpeed: 8
      Index: 0
      Offset: {x: 0, y: 0}
      FlipX: 1
      FlipY: 0
      Cells:
      - Row: 3
        Coll: 1
    - DelayTime: 1
      Distance: 0.3
      MoveSpeed: 8
      Index: 0
      Offset: {x: 0, y: 0}
      FlipX: 1
      FlipY: 0
      Cells:
      - Row: 2
        Coll: 1
    - DelayTime: 1
      Distance: 0.3
      MoveSpeed: 8
      Index: 0
      Offset: {x: 0, y: 0}
      FlipX: 1
      FlipY: 0
      Cells:
      - Row: 3
        Coll: 3
    Enemies:
    - Rows:
      - EnemyId: 18
        PathId: 0
      - EnemyId: 11
        PathId: 0
      - EnemyId: 18
        PathId: 0
      - EnemyId: 11
        PathId: 0
      - EnemyId: 18
        PathId: 0
      - EnemyId: 11
        PathId: 0
      - EnemyId: 18
        PathId: 0
    - Rows:
      - EnemyId: 11
        PathId: 0
      - EnemyId: 5
        PathId: 0
      - EnemyId: 14
        PathId: 0
      - EnemyId: 18
        PathId: 0
      - EnemyId: 14
        PathId: 0
      - EnemyId: 5
        PathId: 0
      - EnemyId: 11
        PathId: 0
    - Rows:
      - EnemyId: 18
        PathId: 0
      - EnemyId: 14
        PathId: 0
      - EnemyId: -1
        PathId: 0
      - EnemyId: -1
        PathId: 0
      - EnemyId: -1
        PathId: 0
      - EnemyId: 14
        PathId: 0
      - EnemyId: 18
        PathId: 0
    - Rows:
      - EnemyId: 11
        PathId: 0
      - EnemyId: 5
        PathId: 0
      - EnemyId: -1
        PathId: 0
      - EnemyId: 19
        PathId: 0
      - EnemyId: -1
        PathId: 0
      - EnemyId: 5
        PathId: 0
      - EnemyId: 11
        PathId: 0
    - Rows:
      - EnemyId: 18
        PathId: 0
      - EnemyId: 14
        PathId: 0
      - EnemyId: -1
        PathId: 0
      - EnemyId: -1
        PathId: 0
      - EnemyId: -1
        PathId: 0
      - EnemyId: 14
        PathId: 0
      - EnemyId: 18
        PathId: 0
    - Rows:
      - EnemyId: 11
        PathId: 0
      - EnemyId: 5
        PathId: 0
      - EnemyId: 14
        PathId: 0
      - EnemyId: 18
        PathId: 0
      - EnemyId: 14
        PathId: 0
      - EnemyId: 5
        PathId: 0
      - EnemyId: 11
        PathId: 0
    - Rows:
      - EnemyId: 18
        PathId: 0
      - EnemyId: 11
        PathId: 0
      - EnemyId: 18
        PathId: 0
      - EnemyId: 11
        PathId: 0
      - EnemyId: 18
        PathId: 0
      - EnemyId: 11
        PathId: 0
      - EnemyId: 18
        PathId: 0
    GiftBox:
      NumGiftBox: 0
      Duration: 0
      Speed: 0
    NumEnemyAttack: 6
    SpeedMoveAttack: 5
    DistanceTimeAttack: 0.3
    LoopTimeAttack: 2
    CombatDiff:
      TimeFireRate: 6
      FireRateDecrease: 0.1
      TimeEnemyAttack: 0
      EnemyAttackDecease: 0
      IsIncreaseNumberFire: 0
      TimeIncreaseNumberFire: 0
    Boss:
      BossIndex: 1
      Hps: []
    Rock:
      StartPosition: {x: 0, y: 0, z: 0}
      EndPosition: {x: 0, y: 0, z: 0}
      Range: 3
      Speed: 3
      NumSmall: 0
      NumNormal: 0
      NumBig: 0
      Duration: 5
    UseWarning: 0
    WarningPositions: []
    IsShow: 1
  - WaveType: 0
    FireRate: 1
    Hp: 1
    Items:
      List: []
      NumEnemiesCanHaveItem: 0
    HasPower: 0
    NoDam: 1
    IsTeam: 1
    DestroyOnFinish: 0
    IdleType: 10
    TimeMove: 2
    Ease: 0
    Paths:
    - DelayTime: 0
      Distance: 0.3
      MoveSpeed: 6
      Index: 7
      Offset: {x: 0, y: 0}
      FlipX: 0
      FlipY: 0
      Cells:
      - Row: 5
        Coll: 3
    - DelayTime: 0.3
      Distance: 0.3
      MoveSpeed: 6
      Index: 7
      Offset: {x: -1, y: 0}
      FlipX: 0
      FlipY: 0
      Cells:
      - Row: 4
        Coll: 2
    - DelayTime: 0.3
      Distance: 0.3
      MoveSpeed: 6
      Index: 7
      Offset: {x: 0, y: 0}
      FlipX: 0
      FlipY: 0
      Cells:
      - Row: 4
        Coll: 3
    - DelayTime: 0.3
      Distance: 0.3
      MoveSpeed: 6
      Index: 7
      Offset: {x: 1, y: 0}
      FlipX: 0
      FlipY: 0
      Cells:
      - Row: 4
        Coll: 4
    - DelayTime: 0.6
      Distance: 0.3
      MoveSpeed: 6
      Index: 7
      Offset: {x: 0, y: 0}
      FlipX: 0
      FlipY: 0
      Cells:
      - Row: 3
        Coll: 3
    - DelayTime: 0.6
      Distance: 0.3
      MoveSpeed: 6
      Index: 7
      Offset: {x: -1, y: 0}
      FlipX: 0
      FlipY: 0
      Cells:
      - Row: 3
        Coll: 2
    - DelayTime: 0.6
      Distance: 0.3
      MoveSpeed: 6
      Index: 7
      Offset: {x: -2, y: 0}
      FlipX: 0
      FlipY: 0
      Cells:
      - Row: 3
        Coll: 1
    - DelayTime: 0.6
      Distance: 0.3
      MoveSpeed: 6
      Index: 7
      Offset: {x: 1, y: 0}
      FlipX: 0
      FlipY: 0
      Cells:
      - Row: 3
        Coll: 4
    - DelayTime: 0.6
      Distance: 0.3
      MoveSpeed: 6
      Index: 7
      Offset: {x: 2, y: 0}
      FlipX: 0
      FlipY: 0
      Cells:
      - Row: 3
        Coll: 5
    - DelayTime: 0.9
      Distance: 0.3
      MoveSpeed: 6
      Index: 7
      Offset: {x: 2, y: 0}
      FlipX: 0
      FlipY: 0
      Cells:
      - Row: 2
        Coll: 5
    - DelayTime: 0.9
      Distance: 0.3
      MoveSpeed: 6
      Index: 7
      Offset: {x: 3, y: 0}
      FlipX: 0
      FlipY: 0
      Cells:
      - Row: 2
        Coll: 6
    - DelayTime: 0.9
      Distance: 0.3
      MoveSpeed: 6
      Index: 7
      Offset: {x: -2, y: 0}
      FlipX: 0
      FlipY: 0
      Cells:
      - Row: 2
        Coll: 1
    - DelayTime: 0.9
      Distance: 0.3
      MoveSpeed: 6
      Index: 7
      Offset: {x: -3, y: 0}
      FlipX: 0
      FlipY: 0
      Cells:
      - Row: 2
        Coll: 0
    - DelayTime: 1.2
      Distance: 0.3
      MoveSpeed: 6
      Index: 7
      Offset: {x: 1, y: 0}
      FlipX: 0
      FlipY: 0
      Cells:
      - Row: 1
        Coll: 4
    - DelayTime: 1.2
      Distance: 0.3
      MoveSpeed: 6
      Index: 7
      Offset: {x: 3, y: 0}
      FlipX: 0
      FlipY: 0
      Cells:
      - Row: 1
        Coll: 6
    - DelayTime: 1.2
      Distance: 0.3
      MoveSpeed: 6
      Index: 7
      Offset: {x: -1, y: 0}
      FlipX: 0
      FlipY: 0
      Cells:
      - Row: 1
        Coll: 2
    - DelayTime: 1.2
      Distance: 0.3
      MoveSpeed: 6
      Index: 7
      Offset: {x: -3, y: 0}
      FlipX: 0
      FlipY: 0
      Cells:
      - Row: 1
        Coll: 0
    - DelayTime: 1.5
      Distance: 0.3
      MoveSpeed: 6
      Index: 7
      Offset: {x: 2, y: 0}
      FlipX: 0
      FlipY: 0
      Cells:
      - Row: 0
        Coll: 5
    - DelayTime: 1.5
      Distance: 0.3
      MoveSpeed: 6
      Index: 7
      Offset: {x: -2, y: 0}
      FlipX: 0
      FlipY: 0
      Cells:
      - Row: 0
        Coll: 1
    Enemies:
    - Rows:
      - EnemyId: -1
        PathId: 0
      - EnemyId: 19
        PathId: 0
      - EnemyId: -1
        PathId: 0
      - EnemyId: -1
        PathId: 0
      - EnemyId: -1
        PathId: 0
      - EnemyId: 19
        PathId: 0
      - EnemyId: -1
        PathId: 0
    - Rows:
      - EnemyId: 19
        PathId: 0
      - EnemyId: -1
        PathId: 0
      - EnemyId: 19
        PathId: 0
      - EnemyId: -1
        PathId: 0
      - EnemyId: 19
        PathId: 0
      - EnemyId: -1
        PathId: 0
      - EnemyId: 19
        PathId: 0
    - Rows:
      - EnemyId: 5
        PathId: 0
      - EnemyId: 19
        PathId: 0
      - EnemyId: -1
        PathId: 0
      - EnemyId: -1
        PathId: 0
      - EnemyId: -1
        PathId: 0
      - EnemyId: 19
        PathId: 0
      - EnemyId: 5
        PathId: 0
    - Rows:
      - EnemyId: -1
        PathId: 0
      - EnemyId: 18
        PathId: 0
      - EnemyId: 8
        PathId: 0
      - EnemyId: 2
        PathId: 0
      - EnemyId: 8
        PathId: 0
      - EnemyId: 18
        PathId: 0
      - EnemyId: -1
        PathId: 0
    - Rows:
      - EnemyId: -1
        PathId: 0
      - EnemyId: -1
        PathId: 0
      - EnemyId: 5
        PathId: 0
      - EnemyId: 8
        PathId: 0
      - EnemyId: 5
        PathId: 0
      - EnemyId: -1
        PathId: 0
      - EnemyId: -1
        PathId: 0
    - Rows:
      - EnemyId: -1
        PathId: 0
      - EnemyId: -1
        PathId: 0
      - EnemyId: -1
        PathId: 0
      - EnemyId: 18
        PathId: 0
      - EnemyId: -1
        PathId: 0
      - EnemyId: -1
        PathId: 0
      - EnemyId: -1
        PathId: 0
    - Rows:
      - EnemyId: -1
        PathId: 0
      - EnemyId: -1
        PathId: 0
      - EnemyId: -1
        PathId: 0
      - EnemyId: -1
        PathId: 0
      - EnemyId: -1
        PathId: 0
      - EnemyId: -1
        PathId: 0
      - EnemyId: -1
        PathId: 0
    GiftBox:
      NumGiftBox: 0
      Duration: 0
      Speed: 0
    NumEnemyAttack: 1
    SpeedMoveAttack: 5
    DistanceTimeAttack: 0.3
    LoopTimeAttack: 5
    CombatDiff:
      TimeFireRate: 5
      FireRateDecrease: 0.1
      TimeEnemyAttack: 5
      EnemyAttackDecease: 0.1
      IsIncreaseNumberFire: 0
      TimeIncreaseNumberFire: 0
    Boss:
      BossIndex: 1
      Hps: []
    Rock:
      StartPosition: {x: 0, y: 0, z: 0}
      EndPosition: {x: 0, y: 0, z: 0}
      Range: 3
      Speed: 3
      NumSmall: 0
      NumNormal: 0
      NumBig: 0
      Duration: 5
    UseWarning: 0
    WarningPositions: []
    IsShow: 1
  - WaveType: 0
    FireRate: 1.5
    Hp: 1
    Items:
      List: []
      NumEnemiesCanHaveItem: 0
    HasPower: 0
    NoDam: 1
    IsTeam: 1
    DestroyOnFinish: 0
    IdleType: 8
    TimeMove: 1
    Ease: 0
    Paths:
    - DelayTime: 0
      Distance: 0.3
      MoveSpeed: 5
      Index: 27
      Offset: {x: 0, y: 0}
      FlipX: 0
      FlipY: 0
      Cells:
      - Row: 1
        Coll: 1
    - DelayTime: 0
      Distance: 0.3
      MoveSpeed: 5
      Index: 27
      Offset: {x: 0, y: 0}
      FlipX: 1
      FlipY: 0
      Cells:
      - Row: 4
        Coll: 5
    Enemies:
    - Rows:
      - EnemyId: -1
        PathId: 0
      - EnemyId: -1
        PathId: 0
      - EnemyId: -1
        PathId: 0
      - EnemyId: -1
        PathId: 0
      - EnemyId: -1
        PathId: 0
      - EnemyId: -1
        PathId: 0
      - EnemyId: -1
        PathId: 0
    - Rows:
      - EnemyId: -1
        PathId: 0
      - EnemyId: 16
        PathId: 0
      - EnemyId: -1
        PathId: 0
      - EnemyId: -1
        PathId: 0
      - EnemyId: -1
        PathId: 0
      - EnemyId: -1
        PathId: 0
      - EnemyId: -1
        PathId: 0
    - Rows:
      - EnemyId: -1
        PathId: 0
      - EnemyId: -1
        PathId: 0
      - EnemyId: -1
        PathId: 0
      - EnemyId: -1
        PathId: 0
      - EnemyId: -1
        PathId: 0
      - EnemyId: -1
        PathId: 0
      - EnemyId: -1
        PathId: 0
    - Rows:
      - EnemyId: -1
        PathId: 0
      - EnemyId: -1
        PathId: 0
      - EnemyId: -1
        PathId: 0
      - EnemyId: -1
        PathId: 0
      - EnemyId: -1
        PathId: 0
      - EnemyId: -1
        PathId: 0
      - EnemyId: -1
        PathId: 0
    - Rows:
      - EnemyId: -1
        PathId: 0
      - EnemyId: -1
        PathId: 0
      - EnemyId: -1
        PathId: 0
      - EnemyId: -1
        PathId: 0
      - EnemyId: -1
        PathId: 0
      - EnemyId: 3
        PathId: 0
      - EnemyId: -1
        PathId: 0
    - Rows:
      - EnemyId: -1
        PathId: 0
      - EnemyId: -1
        PathId: 0
      - EnemyId: -1
        PathId: 0
      - EnemyId: -1
        PathId: 0
      - EnemyId: -1
        PathId: 0
      - EnemyId: -1
        PathId: 0
      - EnemyId: -1
        PathId: 0
    - Rows:
      - EnemyId: -1
        PathId: 0
      - EnemyId: -1
        PathId: 0
      - EnemyId: -1
        PathId: 0
      - EnemyId: -1
        PathId: 0
      - EnemyId: -1
        PathId: 0
      - EnemyId: -1
        PathId: 0
      - EnemyId: -1
        PathId: 0
    GiftBox:
      NumGiftBox: 0
      Duration: 0
      Speed: 0
    NumEnemyAttack: 0
    SpeedMoveAttack: 5
    DistanceTimeAttack: 0.3
    LoopTimeAttack: 2
    CombatDiff:
      TimeFireRate: 3
      FireRateDecrease: 0.1
      TimeEnemyAttack: 0
      EnemyAttackDecease: 0
      IsIncreaseNumberFire: 0
      TimeIncreaseNumberFire: 0
    Boss:
      BossIndex: 1
      Hps: []
    Rock:
      StartPosition: {x: 0, y: 0, z: 0}
      EndPosition: {x: 0, y: 0, z: 0}
      Range: 3
      Speed: 3
      NumSmall: 0
      NumNormal: 0
      NumBig: 0
      Duration: 5
    UseWarning: 0
    WarningPositions: []
    IsShow: 1
  - WaveType: 0
    FireRate: 1
    Hp: 1
    Items:
      List:
      - Type: 1
        Num: 1
      NumEnemiesCanHaveItem: 25
    HasPower: 0
    NoDam: 1
    IsTeam: 1
    DestroyOnFinish: 0
    IdleType: 0
    TimeMove: 1
    Ease: 0
    Paths:
    - DelayTime: 2
      Distance: 0.3
      MoveSpeed: 8
      Index: 7
      Offset: {x: 0, y: 0}
      FlipX: 0
      FlipY: 0
      Cells:
      - Row: 2
        Coll: 3
    - DelayTime: 2
      Distance: 0.3
      MoveSpeed: 8
      Index: 7
      Offset: {x: 0, y: 0}
      FlipX: 0
      FlipY: 0
      Cells:
      - Row: 3
        Coll: 3
    - DelayTime: 2
      Distance: 0.3
      MoveSpeed: 8
      Index: 7
      Offset: {x: 0, y: 0}
      FlipX: 0
      FlipY: 0
      Cells:
      - Row: 4
        Coll: 3
    - DelayTime: 2
      Distance: 0.3
      MoveSpeed: 8
      Index: 7
      Offset: {x: 0, y: 0}
      FlipX: 0
      FlipY: 0
      Cells:
      - Row: 5
        Coll: 0
    - DelayTime: 2
      Distance: 0.3
      MoveSpeed: 8
      Index: 7
      Offset: {x: 0, y: 0}
      FlipX: 0
      FlipY: 0
      Cells:
      - Row: 6
        Coll: 0
    - DelayTime: 2
      Distance: 0.3
      MoveSpeed: 8
      Index: 7
      Offset: {x: 0, y: 0}
      FlipX: 0
      FlipY: 0
      Cells:
      - Row: 6
        Coll: 1
    - DelayTime: 2
      Distance: 0.3
      MoveSpeed: 8
      Index: 7
      Offset: {x: 0, y: 0}
      FlipX: 0
      FlipY: 0
      Cells:
      - Row: 6
        Coll: 2
    - DelayTime: 2
      Distance: 0.3
      MoveSpeed: 8
      Index: 7
      Offset: {x: 0, y: 0}
      FlipX: 0
      FlipY: 0
      Cells:
      - Row: 6
        Coll: 3
    - DelayTime: 2
      Distance: 0.3
      MoveSpeed: 8
      Index: 7
      Offset: {x: 0, y: 0}
      FlipX: 0
      FlipY: 0
      Cells:
      - Row: 6
        Coll: 4
    - DelayTime: 2
      Distance: 0.3
      MoveSpeed: 8
      Index: 7
      Offset: {x: 0, y: 0}
      FlipX: 0
      FlipY: 0
      Cells:
      - Row: 6
        Coll: 5
    - DelayTime: 2
      Distance: 0.3
      MoveSpeed: 8
      Index: 7
      Offset: {x: 0, y: 0}
      FlipX: 0
      FlipY: 0
      Cells:
      - Row: 6
        Coll: 6
    - DelayTime: 2
      Distance: 0.3
      MoveSpeed: 8
      Index: 7
      Offset: {x: 0, y: 0}
      FlipX: 0
      FlipY: 0
      Cells:
      - Row: 5
        Coll: 6
    - DelayTime: 0
      Distance: 0.3
      MoveSpeed: 8
      Index: 14
      Offset: {x: 0, y: 0}
      FlipX: 1
      FlipY: 0
      Cells:
      - Row: 0
        Coll: 2
    - DelayTime: 0
      Distance: 0.3
      MoveSpeed: 8
      Index: 14
      Offset: {x: 0, y: 0}
      FlipX: 1
      FlipY: 0
      Cells:
      - Row: 1
        Coll: 2
    - DelayTime: 0
      Distance: 0.3
      MoveSpeed: 8
      Index: 14
      Offset: {x: 0, y: 0}
      FlipX: 1
      FlipY: 0
      Cells:
      - Row: 2
        Coll: 2
    - DelayTime: 0
      Distance: 0.3
      MoveSpeed: 8
      Index: 14
      Offset: {x: 0, y: 0}
      FlipX: 1
      FlipY: 0
      Cells:
      - Row: 3
        Coll: 2
    - DelayTime: 0
      Distance: 0.3
      MoveSpeed: 8
      Index: 14
      Offset: {x: 0, y: 0}
      FlipX: 1
      FlipY: 0
      Cells:
      - Row: 4
        Coll: 2
    - DelayTime: 0
      Distance: 0.3
      MoveSpeed: 8
      Index: 14
      Offset: {x: 0, y: 0}
      FlipX: 1
      FlipY: 0
      Cells:
      - Row: 0
        Coll: 1
    - DelayTime: 0
      Distance: 0.3
      MoveSpeed: 8
      Index: 14
      Offset: {x: 0, y: 0}
      FlipX: 1
      FlipY: 0
      Cells:
      - Row: 1
        Coll: 1
    - DelayTime: 0
      Distance: 0.3
      MoveSpeed: 8
      Index: 14
      Offset: {x: 0, y: 0}
      FlipX: 1
      FlipY: 0
      Cells:
      - Row: 2
        Coll: 1
    - DelayTime: 0
      Distance: 0.3
      MoveSpeed: 8
      Index: 14
      Offset: {x: 0, y: 0}
      FlipX: 1
      FlipY: 0
      Cells:
      - Row: 3
        Coll: 1
    - DelayTime: 0
      Distance: 0.3
      MoveSpeed: 8
      Index: 14
      Offset: {x: 0, y: 0}
      FlipX: 1
      FlipY: 0
      Cells:
      - Row: 0
        Coll: 0
    - DelayTime: 0
      Distance: 0.3
      MoveSpeed: 8
      Index: 14
      Offset: {x: 0, y: 0}
      FlipX: 1
      FlipY: 0
      Cells:
      - Row: 1
        Coll: 0
    - DelayTime: 0
      Distance: 0.3
      MoveSpeed: 8
      Index: 14
      Offset: {x: 0, y: 0}
      FlipX: 1
      FlipY: 0
      Cells:
      - Row: 2
        Coll: 0
    - DelayTime: 0.5
      Distance: 0.3
      MoveSpeed: 8
      Index: 14
      Offset: {x: 0, y: 0}
      FlipX: 0
      FlipY: 0
      Cells:
      - Row: 0
        Coll: 4
    - DelayTime: 0.5
      Distance: 0.3
      MoveSpeed: 8
      Index: 14
      Offset: {x: 0, y: 0}
      FlipX: 0
      FlipY: 0
      Cells:
      - Row: 1
        Coll: 4
    - DelayTime: 0.5
      Distance: 0.3
      MoveSpeed: 8
      Index: 14
      Offset: {x: 0, y: 0}
      FlipX: 0
      FlipY: 0
      Cells:
      - Row: 2
        Coll: 4
    - DelayTime: 0.5
      Distance: 0.3
      MoveSpeed: 8
      Index: 14
      Offset: {x: 0, y: 0}
      FlipX: 0
      FlipY: 0
      Cells:
      - Row: 3
        Coll: 4
    - DelayTime: 0.5
      Distance: 0.3
      MoveSpeed: 8
      Index: 14
      Offset: {x: 0, y: 0}
      FlipX: 0
      FlipY: 0
      Cells:
      - Row: 4
        Coll: 4
    - DelayTime: 0.5
      Distance: 0.3
      MoveSpeed: 8
      Index: 14
      Offset: {x: 0, y: 0}
      FlipX: 0
      FlipY: 0
      Cells:
      - Row: 0
        Coll: 5
    - DelayTime: 0.5
      Distance: 0.3
      MoveSpeed: 8
      Index: 14
      Offset: {x: 0, y: 0}
      FlipX: 0
      FlipY: 0
      Cells:
      - Row: 1
        Coll: 5
    - DelayTime: 0.5
      Distance: 0.3
      MoveSpeed: 8
      Index: 14
      Offset: {x: 0, y: 0}
      FlipX: 0
      FlipY: 0
      Cells:
      - Row: 2
        Coll: 5
    - DelayTime: 0.5
      Distance: 0.3
      MoveSpeed: 8
      Index: 14
      Offset: {x: 0, y: 0}
      FlipX: 0
      FlipY: 0
      Cells:
      - Row: 3
        Coll: 5
    - DelayTime: 0.5
      Distance: 0.3
      MoveSpeed: 8
      Index: 14
      Offset: {x: 0, y: 0}
      FlipX: 0
      FlipY: 0
      Cells:
      - Row: 0
        Coll: 6
    - DelayTime: 0.5
      Distance: 0.3
      MoveSpeed: 8
      Index: 14
      Offset: {x: 0, y: 0}
      FlipX: 0
      FlipY: 0
      Cells:
      - Row: 1
        Coll: 6
    - DelayTime: 0.5
      Distance: 0.3
      MoveSpeed: 8
      Index: 14
      Offset: {x: 0, y: 0}
      FlipX: 0
      FlipY: 0
      Cells:
      - Row: 2
        Coll: 6
    Enemies:
    - Rows:
      - EnemyId: 18
        PathId: 0
      - EnemyId: 14
        PathId: 0
      - EnemyId: 18
        PathId: 0
      - EnemyId: -1
        PathId: 0
      - EnemyId: 18
        PathId: 0
      - EnemyId: 14
        PathId: 0
      - EnemyId: 18
        PathId: 0
    - Rows:
      - EnemyId: 18
        PathId: 0
      - EnemyId: 19
        PathId: 0
      - EnemyId: 18
        PathId: 0
      - EnemyId: -1
        PathId: 0
      - EnemyId: 18
        PathId: 0
      - EnemyId: 19
        PathId: 0
      - EnemyId: 18
        PathId: 0
    - Rows:
      - EnemyId: 18
        PathId: 0
      - EnemyId: 18
        PathId: 0
      - EnemyId: 19
        PathId: 0
      - EnemyId: 19
        PathId: 0
      - EnemyId: 19
        PathId: 0
      - EnemyId: 18
        PathId: 0
      - EnemyId: 18
        PathId: 0
    - Rows:
      - EnemyId: -1
        PathId: 0
      - EnemyId: 18
        PathId: 0
      - EnemyId: 18
        PathId: 0
      - EnemyId: 18
        PathId: 0
      - EnemyId: 18
        PathId: 0
      - EnemyId: 18
        PathId: 0
      - EnemyId: -1
        PathId: 0
    - Rows:
      - EnemyId: -1
        PathId: 0
      - EnemyId: -1
        PathId: 0
      - EnemyId: 18
        PathId: 0
      - EnemyId: 18
        PathId: 0
      - EnemyId: 18
        PathId: 0
      - EnemyId: -1
        PathId: 0
      - EnemyId: -1
        PathId: 0
    - Rows:
      - EnemyId: 11
        PathId: 0
      - EnemyId: -1
        PathId: 0
      - EnemyId: -1
        PathId: 0
      - EnemyId: -1
        PathId: 0
      - EnemyId: -1
        PathId: 0
      - EnemyId: -1
        PathId: 0
      - EnemyId: 11
        PathId: 0
    - Rows:
      - EnemyId: 5
        PathId: 0
      - EnemyId: 11
        PathId: 0
      - EnemyId: 5
        PathId: 0
      - EnemyId: 11
        PathId: 0
      - EnemyId: 5
        PathId: 0
      - EnemyId: 11
        PathId: 0
      - EnemyId: 5
        PathId: 0
    GiftBox:
      NumGiftBox: 0
      Duration: 0
      Speed: 0
    NumEnemyAttack: 2
    SpeedMoveAttack: 5
    DistanceTimeAttack: 0.3
    LoopTimeAttack: 5
    CombatDiff:
      TimeFireRate: 0
      FireRateDecrease: 0
      TimeEnemyAttack: 3
      EnemyAttackDecease: 0.2
      IsIncreaseNumberFire: 0
      TimeIncreaseNumberFire: 0
    Boss:
      BossIndex: 1
      Hps: []
    Rock:
      StartPosition: {x: 0, y: 0, z: 0}
      EndPosition: {x: 0, y: 0, z: 0}
      Range: 3
      Speed: 3
      NumSmall: 0
      NumNormal: 0
      NumBig: 0
      Duration: 5
    UseWarning: 0
    WarningPositions: []
    IsShow: 1
  - WaveType: 1
    FireRate: 1
    Hp: 1
    Items:
      List: []
      NumEnemiesCanHaveItem: 0
    HasPower: 0
    NoDam: 0
    IsTeam: 1
    DestroyOnFinish: 0
    IdleType: 0
    TimeMove: 1
    Ease: 0
    Paths: []
    Enemies:
    - Rows:
      - EnemyId: -1
        PathId: 0
      - EnemyId: -1
        PathId: 0
      - EnemyId: -1
        PathId: 0
      - EnemyId: -1
        PathId: 0
      - EnemyId: -1
        PathId: 0
      - EnemyId: -1
        PathId: 0
      - EnemyId: -1
        PathId: 0
    - Rows:
      - EnemyId: -1
        PathId: 0
      - EnemyId: -1
        PathId: 0
      - EnemyId: -1
        PathId: 0
      - EnemyId: -1
        PathId: 0
      - EnemyId: -1
        PathId: 0
      - EnemyId: -1
        PathId: 0
      - EnemyId: -1
        PathId: 0
    - Rows:
      - EnemyId: -1
        PathId: 0
      - EnemyId: -1
        PathId: 0
      - EnemyId: -1
        PathId: 0
      - EnemyId: -1
        PathId: 0
      - EnemyId: -1
        PathId: 0
      - EnemyId: -1
        PathId: 0
      - EnemyId: -1
        PathId: 0
    - Rows:
      - EnemyId: -1
        PathId: 0
      - EnemyId: -1
        PathId: 0
      - EnemyId: -1
        PathId: 0
      - EnemyId: -1
        PathId: 0
      - EnemyId: -1
        PathId: 0
      - EnemyId: -1
        PathId: 0
      - EnemyId: -1
        PathId: 0
    - Rows:
      - EnemyId: -1
        PathId: 0
      - EnemyId: -1
        PathId: 0
      - EnemyId: -1
        PathId: 0
      - EnemyId: -1
        PathId: 0
      - EnemyId: -1
        PathId: 0
      - EnemyId: -1
        PathId: 0
      - EnemyId: -1
        PathId: 0
    - Rows:
      - EnemyId: -1
        PathId: 0
      - EnemyId: -1
        PathId: 0
      - EnemyId: -1
        PathId: 0
      - EnemyId: -1
        PathId: 0
      - EnemyId: -1
        PathId: 0
      - EnemyId: -1
        PathId: 0
      - EnemyId: -1
        PathId: 0
    - Rows:
      - EnemyId: -1
        PathId: 0
      - EnemyId: -1
        PathId: 0
      - EnemyId: -1
        PathId: 0
      - EnemyId: -1
        PathId: 0
      - EnemyId: -1
        PathId: 0
      - EnemyId: -1
        PathId: 0
      - EnemyId: -1
        PathId: 0
    GiftBox:
      NumGiftBox: 0
      Duration: 0
      Speed: 0
    NumEnemyAttack: 0
    SpeedMoveAttack: 5
    DistanceTimeAttack: 0.3
    LoopTimeAttack: 2
    CombatDiff:
      TimeFireRate: 0
      FireRateDecrease: 0
      TimeEnemyAttack: 0
      EnemyAttackDecease: 0
      IsIncreaseNumberFire: 0
      TimeIncreaseNumberFire: 0
    Boss:
      BossIndex: 1
      Hps: []
    Rock:
      StartPosition: {x: -0.31374145, y: 8.756414, z: 0}
      EndPosition: {x: 0.05306959, y: -9.5016, z: 0}
      Range: 3.9643626
      Speed: 5
      NumSmall: 35
      NumNormal: 20
      NumBig: 10
      Duration: 5
    UseWarning: 0
    WarningPositions: []
    IsShow: 1
  - WaveType: 0
    FireRate: 1
    Hp: 1
    Items:
      List:
      - Type: 1
        Num: 1
      NumEnemiesCanHaveItem: 20
    HasPower: 0
    NoDam: 1
    IsTeam: 1
    DestroyOnFinish: 0
    IdleType: 9
    TimeMove: 1
    Ease: 0
    Paths:
    - DelayTime: 0
      Distance: 0.3
      MoveSpeed: 6
      Index: 7
      Offset: {x: 0, y: 0}
      FlipX: 0
      FlipY: 0
      Cells:
      - Row: 5
        Coll: 3
    - DelayTime: 0
      Distance: 0.3
      MoveSpeed: 6
      Index: 7
      Offset: {x: 0, y: 0}
      FlipX: 0
      FlipY: 0
      Cells:
      - Row: 6
        Coll: 3
    - DelayTime: 0
      Distance: 0.3
      MoveSpeed: 6
      Index: 7
      Offset: {x: 0, y: 0}
      FlipX: 0
      FlipY: 0
      Cells:
      - Row: 0
        Coll: 2
    - DelayTime: 0
      Distance: 0.3
      MoveSpeed: 6
      Index: 7
      Offset: {x: 0, y: 0}
      FlipX: 0
      FlipY: 0
      Cells:
      - Row: 1
        Coll: 2
    - DelayTime: 0
      Distance: 0.3
      MoveSpeed: 6
      Index: 7
      Offset: {x: 0, y: 0}
      FlipX: 0
      FlipY: 0
      Cells:
      - Row: 2
        Coll: 2
    - DelayTime: 0
      Distance: 0.3
      MoveSpeed: 6
      Index: 7
      Offset: {x: 0, y: 0}
      FlipX: 0
      FlipY: 0
      Cells:
      - Row: 3
        Coll: 2
    - DelayTime: 0
      Distance: 0.3
      MoveSpeed: 6
      Index: 7
      Offset: {x: 0, y: 0}
      FlipX: 0
      FlipY: 0
      Cells:
      - Row: 4
        Coll: 2
    - DelayTime: 0
      Distance: 0.3
      MoveSpeed: 6
      Index: 7
      Offset: {x: 0, y: 0}
      FlipX: 0
      FlipY: 0
      Cells:
      - Row: 2
        Coll: 1
    - DelayTime: 0
      Distance: 0.3
      MoveSpeed: 6
      Index: 7
      Offset: {x: 0, y: 0}
      FlipX: 0
      FlipY: 0
      Cells:
      - Row: 3
        Coll: 1
    - DelayTime: 0
      Distance: 0.3
      MoveSpeed: 6
      Index: 7
      Offset: {x: 0, y: 0}
      FlipX: 0
      FlipY: 0
      Cells:
      - Row: 4
        Coll: 1
    - DelayTime: 0
      Distance: 0.3
      MoveSpeed: 6
      Index: 7
      Offset: {x: 0, y: 0}
      FlipX: 0
      FlipY: 0
      Cells:
      - Row: 2
        Coll: 0
    - DelayTime: 0
      Distance: 0.3
      MoveSpeed: 6
      Index: 7
      Offset: {x: 0, y: 0}
      FlipX: 0
      FlipY: 0
      Cells:
      - Row: 3
        Coll: 0
    - DelayTime: 0
      Distance: 0.3
      MoveSpeed: 6
      Index: 7
      Offset: {x: 0, y: 0}
      FlipX: 0
      FlipY: 0
      Cells:
      - Row: 4
        Coll: 0
    - DelayTime: 0
      Distance: 0.3
      MoveSpeed: 6
      Index: 7
      Offset: {x: 0, y: 0}
      FlipX: 0
      FlipY: 0
      Cells:
      - Row: 0
        Coll: 4
    - DelayTime: 0
      Distance: 0.3
      MoveSpeed: 6
      Index: 7
      Offset: {x: 0, y: 0}
      FlipX: 0
      FlipY: 0
      Cells:
      - Row: 1
        Coll: 4
    - DelayTime: 0
      Distance: 0.3
      MoveSpeed: 6
      Index: 7
      Offset: {x: 0, y: 0}
      FlipX: 0
      FlipY: 0
      Cells:
      - Row: 2
        Coll: 4
    - DelayTime: 0
      Distance: 0.3
      MoveSpeed: 6
      Index: 7
      Offset: {x: 0, y: 0}
      FlipX: 0
      FlipY: 0
      Cells:
      - Row: 2
        Coll: 5
    - DelayTime: 0
      Distance: 0.3
      MoveSpeed: 6
      Index: 7
      Offset: {x: 0, y: 0}
      FlipX: 0
      FlipY: 0
      Cells:
      - Row: 2
        Coll: 6
    - DelayTime: 0
      Distance: 0.3
      MoveSpeed: 6
      Index: 7
      Offset: {x: 0, y: 0}
      FlipX: 0
      FlipY: 0
      Cells:
      - Row: 3
        Coll: 4
    - DelayTime: 0
      Distance: 0.3
      MoveSpeed: 6
      Index: 7
      Offset: {x: 0, y: 0}
      FlipX: 0
      FlipY: 0
      Cells:
      - Row: 3
        Coll: 5
    - DelayTime: 0
      Distance: 0.3
      MoveSpeed: 6
      Index: 7
      Offset: {x: 0, y: 0}
      FlipX: 0
      FlipY: 0
      Cells:
      - Row: 3
        Coll: 6
    - DelayTime: 0
      Distance: 0.3
      MoveSpeed: 6
      Index: 7
      Offset: {x: 0, y: 0}
      FlipX: 0
      FlipY: 0
      Cells:
      - Row: 4
        Coll: 4
    - DelayTime: 0
      Distance: 0.3
      MoveSpeed: 6
      Index: 7
      Offset: {x: 0, y: 0}
      FlipX: 0
      FlipY: 0
      Cells:
      - Row: 4
        Coll: 5
    - DelayTime: 0
      Distance: 0.3
      MoveSpeed: 6
      Index: 7
      Offset: {x: 0, y: 0}
      FlipX: 0
      FlipY: 0
      Cells:
      - Row: 4
        Coll: 6
    Enemies:
    - Rows:
      - EnemyId: -1
        PathId: 0
      - EnemyId: -1
        PathId: 0
      - EnemyId: 18
        PathId: 0
      - EnemyId: -1
        PathId: 0
      - EnemyId: 18
        PathId: 0
      - EnemyId: -1
        PathId: 0
      - EnemyId: -1
        PathId: 0
    - Rows:
      - EnemyId: -1
        PathId: 0
      - EnemyId: -1
        PathId: 0
      - EnemyId: 11
        PathId: 0
      - EnemyId: -1
        PathId: 0
      - EnemyId: 11
        PathId: 0
      - EnemyId: -1
        PathId: 0
      - EnemyId: -1
        PathId: 0
    - Rows:
      - EnemyId: 18
        PathId: 0
      - EnemyId: 19
        PathId: 0
      - EnemyId: 18
        PathId: 0
      - EnemyId: -1
        PathId: 0
      - EnemyId: 18
        PathId: 0
      - EnemyId: 19
        PathId: 0
      - EnemyId: 18
        PathId: 0
    - Rows:
      - EnemyId: 19
        PathId: 0
      - EnemyId: 18
        PathId: 0
      - EnemyId: 19
        PathId: 0
      - EnemyId: -1
        PathId: 0
      - EnemyId: 19
        PathId: 0
      - EnemyId: 18
        PathId: 0
      - EnemyId: 19
        PathId: 0
    - Rows:
      - EnemyId: 14
        PathId: 0
      - EnemyId: 19
        PathId: 0
      - EnemyId: 11
        PathId: 0
      - EnemyId: -1
        PathId: 0
      - EnemyId: 11
        PathId: 0
      - EnemyId: 19
        PathId: 0
      - EnemyId: 14
        PathId: 0
    - Rows:
      - EnemyId: -1
        PathId: 0
      - EnemyId: -1
        PathId: 0
      - EnemyId: -1
        PathId: 0
      - EnemyId: 5
        PathId: 0
      - EnemyId: -1
        PathId: 0
      - EnemyId: -1
        PathId: 0
      - EnemyId: -1
        PathId: 0
    - Rows:
      - EnemyId: -1
        PathId: 0
      - EnemyId: -1
        PathId: 0
      - EnemyId: -1
        PathId: 0
      - EnemyId: 5
        PathId: 0
      - EnemyId: -1
        PathId: 0
      - EnemyId: -1
        PathId: 0
      - EnemyId: -1
        PathId: 0
    GiftBox:
      NumGiftBox: 0
      Duration: 0
      Speed: 0
    NumEnemyAttack: 1
    SpeedMoveAttack: 5
    DistanceTimeAttack: 0.3
    LoopTimeAttack: 6
    CombatDiff:
      TimeFireRate: 4
      FireRateDecrease: 0.1
      TimeEnemyAttack: 5
      EnemyAttackDecease: 0.2
      IsIncreaseNumberFire: 0
      TimeIncreaseNumberFire: 0
    Boss:
      BossIndex: 1
      Hps: []
    Rock:
      StartPosition: {x: 0, y: 0, z: 0}
      EndPosition: {x: 0, y: 0, z: 0}
      Range: 3
      Speed: 3
      NumSmall: 0
      NumNormal: 0
      NumBig: 0
      Duration: 5
    UseWarning: 0
    WarningPositions: []
    IsShow: 1
  - WaveType: 0
    FireRate: 2
    Hp: 1
    Items:
      List:
      - Type: 0
        Num: 1
      NumEnemiesCanHaveItem: 10
    HasPower: 0
    NoDam: 1
    IsTeam: 1
    DestroyOnFinish: 0
    IdleType: 10
    TimeMove: 2
    Ease: 0
    Paths:
    - DelayTime: 0
      Distance: 0.3
      MoveSpeed: 10
      Index: 27
      Offset: {x: 0, y: 0}
      FlipX: 0
      FlipY: 0
      Cells:
      - Row: 3
        Coll: 0
      - Row: 4
        Coll: 0
      - Row: 5
        Coll: 0
      - Row: 5
        Coll: 1
      - Row: 4
        Coll: 1
      - Row: 3
        Coll: 1
      - Row: 2
        Coll: 1
      - Row: 1
        Coll: 1
      - Row: 0
        Coll: 1
      - Row: 0
        Coll: 2
      - Row: 1
        Coll: 2
      - Row: 2
        Coll: 2
      - Row: 3
        Coll: 2
      - Row: 4
        Coll: 2
      - Row: 5
        Coll: 2
      - Row: 5
        Coll: 3
      - Row: 4
        Coll: 3
    - DelayTime: 0
      Distance: 0.3
      MoveSpeed: 10
      Index: 27
      Offset: {x: 0, y: 0}
      FlipX: 1
      FlipY: 0
      Cells:
      - Row: 3
        Coll: 6
      - Row: 4
        Coll: 6
      - Row: 5
        Coll: 6
      - Row: 5
        Coll: 5
      - Row: 4
        Coll: 5
      - Row: 3
        Coll: 5
      - Row: 2
        Coll: 5
      - Row: 1
        Coll: 5
      - Row: 0
        Coll: 5
      - Row: 0
        Coll: 4
      - Row: 1
        Coll: 4
      - Row: 2
        Coll: 4
      - Row: 3
        Coll: 4
      - Row: 4
        Coll: 4
      - Row: 5
        Coll: 4
      - Row: 3
        Coll: 3
    Enemies:
    - Rows:
      - EnemyId: -1
        PathId: 0
      - EnemyId: 19
        PathId: 0
      - EnemyId: 2
        PathId: 0
      - EnemyId: -1
        PathId: 0
      - EnemyId: 2
        PathId: 0
      - EnemyId: 19
        PathId: 0
      - EnemyId: -1
        PathId: 0
    - Rows:
      - EnemyId: -1
        PathId: 0
      - EnemyId: 19
        PathId: 0
      - EnemyId: 19
        PathId: 0
      - EnemyId: -1
        PathId: 0
      - EnemyId: 19
        PathId: 0
      - EnemyId: 19
        PathId: 0
      - EnemyId: -1
        PathId: 0
    - Rows:
      - EnemyId: -1
        PathId: 0
      - EnemyId: 19
        PathId: 0
      - EnemyId: 19
        PathId: 0
      - EnemyId: -1
        PathId: 0
      - EnemyId: 19
        PathId: 0
      - EnemyId: 19
        PathId: 0
      - EnemyId: -1
        PathId: 0
    - Rows:
      - EnemyId: 5
        PathId: 0
      - EnemyId: 5
        PathId: 0
      - EnemyId: 5
        PathId: 0
      - EnemyId: 18
        PathId: 0
      - EnemyId: 5
        PathId: 0
      - EnemyId: 5
        PathId: 0
      - EnemyId: 5
        PathId: 0
    - Rows:
      - EnemyId: 18
        PathId: 0
      - EnemyId: 11
        PathId: 0
      - EnemyId: 14
        PathId: 0
      - EnemyId: 14
        PathId: 0
      - EnemyId: 14
        PathId: 0
      - EnemyId: 11
        PathId: 0
      - EnemyId: 18
        PathId: 0
    - Rows:
      - EnemyId: 11
        PathId: 0
      - EnemyId: 18
        PathId: 0
      - EnemyId: 11
        PathId: 0
      - EnemyId: 18
        PathId: 0
      - EnemyId: 11
        PathId: 0
      - EnemyId: 18
        PathId: 0
      - EnemyId: 11
        PathId: 0
    - Rows:
      - EnemyId: -1
        PathId: 0
      - EnemyId: -1
        PathId: 0
      - EnemyId: -1
        PathId: 0
      - EnemyId: -1
        PathId: 0
      - EnemyId: -1
        PathId: 0
      - EnemyId: -1
        PathId: 0
      - EnemyId: -1
        PathId: 0
    GiftBox:
      NumGiftBox: 0
      Duration: 0
      Speed: 0
    NumEnemyAttack: 0
    SpeedMoveAttack: 5
    DistanceTimeAttack: 0.3
    LoopTimeAttack: 2
    CombatDiff:
      TimeFireRate: 4
      FireRateDecrease: 0.1
      TimeEnemyAttack: 0
      EnemyAttackDecease: 0
      IsIncreaseNumberFire: 0
      TimeIncreaseNumberFire: 0
    Boss:
      BossIndex: 1
      Hps: []
    Rock:
      StartPosition: {x: 0, y: 0, z: 0}
      EndPosition: {x: 0, y: 0, z: 0}
      Range: 3
      Speed: 3
      NumSmall: 0
      NumNormal: 0
      NumBig: 0
      Duration: 5
    UseWarning: 0
    WarningPositions: []
    IsShow: 1
  - WaveType: 0
    FireRate: 0.8
    Hp: 1
    Items:
      List: []
      NumEnemiesCanHaveItem: 0
    HasPower: 0
    NoDam: 1
    IsTeam: 1
    DestroyOnFinish: 0
    IdleType: 9
    TimeMove: 2
    Ease: 0
    Paths:
    - DelayTime: 0
      Distance: 0.3
      MoveSpeed: 9
      Index: 13
      Offset: {x: 0, y: 0}
      FlipX: 0
      FlipY: 0
      Cells:
      - Row: 0
        Coll: 3
      - Row: 0
        Coll: 2
      - Row: 1
        Coll: 2
      - Row: 2
        Coll: 0
      - Row: 2
        Coll: 1
      - Row: 2
        Coll: 2
      - Row: 3
        Coll: 1
      - Row: 3
        Coll: 2
      - Row: 4
        Coll: 1
      - Row: 5
        Coll: 1
      - Row: 5
        Coll: 2
      - Row: 1
        Coll: 3
      - Row: 2
        Coll: 3
    - DelayTime: 0
      Distance: 0.3
      MoveSpeed: 9
      Index: 13
      Offset: {x: 0, y: 0}
      FlipX: 0
      FlipY: 0
      Cells:
      - Row: 3
        Coll: 3
      - Row: 0
        Coll: 4
      - Row: 1
        Coll: 4
      - Row: 2
        Coll: 4
      - Row: 2
        Coll: 5
      - Row: 2
        Coll: 6
      - Row: 3
        Coll: 5
      - Row: 4
        Coll: 5
      - Row: 5
        Coll: 5
      - Row: 5
        Coll: 4
      - Row: 3
        Coll: 4
    - DelayTime: 18
      Distance: 0.3
      MoveSpeed: 4
      Index: 14
      Offset: {x: 0, y: 0}
      FlipX: 1
      FlipY: 0
      Cells:
      - Row: 1
        Coll: 1
    - DelayTime: 18
      Distance: 0.3
      MoveSpeed: 4
      Index: 14
      Offset: {x: 0, y: 0}
      FlipX: 0
      FlipY: 0
      Cells:
      - Row: 1
        Coll: 5
    - DelayTime: 18
      Distance: 0.3
      MoveSpeed: 4
      Index: 0
      Offset: {x: 0, y: 0}
      FlipX: 1
      FlipY: 0
      Cells:
      - Row: 4
        Coll: 4
    - DelayTime: 18
      Distance: 0.3
      MoveSpeed: 4
      Index: 0
      Offset: {x: 0, y: 0}
      FlipX: 0
      FlipY: 0
      Cells:
      - Row: 4
        Coll: 2
    Enemies:
    - Rows:
      - EnemyId: -1
        PathId: 0
      - EnemyId: -1
        PathId: 0
      - EnemyId: 18
        PathId: 0
      - EnemyId: 14
        PathId: 0
      - EnemyId: 18
        PathId: 0
      - EnemyId: -1
        PathId: 0
      - EnemyId: -1
        PathId: 0
    - Rows:
      - EnemyId: -1
        PathId: 0
      - EnemyId: 9
        PathId: 0
      - EnemyId: 18
        PathId: 0
      - EnemyId: 19
        PathId: 0
      - EnemyId: 18
        PathId: 0
      - EnemyId: 9
        PathId: 0
      - EnemyId: -1
        PathId: 0
    - Rows:
      - EnemyId: 5
        PathId: 0
      - EnemyId: 18
        PathId: 0
      - EnemyId: 19
        PathId: 0
      - EnemyId: 19
        PathId: 0
      - EnemyId: 19
        PathId: 0
      - EnemyId: 18
        PathId: 0
      - EnemyId: 5
        PathId: 0
    - Rows:
      - EnemyId: -1
        PathId: 0
      - EnemyId: 11
        PathId: 0
      - EnemyId: 18
        PathId: 0
      - EnemyId: 18
        PathId: 0
      - EnemyId: 18
        PathId: 0
      - EnemyId: 11
        PathId: 0
      - EnemyId: -1
        PathId: 0
    - Rows:
      - EnemyId: -1
        PathId: 0
      - EnemyId: 11
        PathId: 0
      - EnemyId: 9
        PathId: 0
      - EnemyId: -1
        PathId: 0
      - EnemyId: 9
        PathId: 0
      - EnemyId: 11
        PathId: 0
      - EnemyId: -1
        PathId: 0
    - Rows:
      - EnemyId: -1
        PathId: 0
      - EnemyId: 14
        PathId: 0
      - EnemyId: 11
        PathId: 0
      - EnemyId: -1
        PathId: 0
      - EnemyId: 11
        PathId: 0
      - EnemyId: 14
        PathId: 0
      - EnemyId: -1
        PathId: 0
    - Rows:
      - EnemyId: -1
        PathId: 0
      - EnemyId: -1
        PathId: 0
      - EnemyId: -1
        PathId: 0
      - EnemyId: -1
        PathId: 0
      - EnemyId: -1
        PathId: 0
      - EnemyId: -1
        PathId: 0
      - EnemyId: -1
        PathId: 0
    GiftBox:
      NumGiftBox: 0
      Duration: 0
      Speed: 0
    NumEnemyAttack: 1
    SpeedMoveAttack: 5
    DistanceTimeAttack: 0.3
    LoopTimeAttack: 5
    CombatDiff:
      TimeFireRate: 5
      FireRateDecrease: 0.1
      TimeEnemyAttack: 3
      EnemyAttackDecease: 0.2
      IsIncreaseNumberFire: 0
      TimeIncreaseNumberFire: 0
    Boss:
      BossIndex: 1
      Hps: []
    Rock:
      StartPosition: {x: 0, y: 0, z: 0}
      EndPosition: {x: 0, y: 0, z: 0}
      Range: 3
      Speed: 3
      NumSmall: 0
      NumNormal: 0
      NumBig: 0
      Duration: 5
    UseWarning: 0
    WarningPositions: []
    IsShow: 1
