%YAML 1.1
%TAG !u! tag:unity3d.com,2011:
--- !u!114 &11400000
MonoBehaviour:
  m_ObjectHideFlags: 0
  m_CorrespondingSourceObject: {fileID: 0}
  m_PrefabInstance: {fileID: 0}
  m_PrefabAsset: {fileID: 0}
  m_GameObject: {fileID: 0}
  m_Enabled: 1
  m_EditorHideFlags: 0
  m_Script: {fileID: 11500000, guid: bf5d7ed2671cf0d4b825cab5b09dbcb8, type: 3}
  m_Name: Level 01
  m_EditorClassIdentifier: 
  FuelCost: 1
  CoinReward: 150
  ReFightCoinReward: 75
  CombatPower: 1000
  EvolveShipNum: 3
  EvolveShipId: 0
  EvolveDroneNum: 3
  EvolveDroneId: 0
  Waves:
  - WaveType: 0
    FireRate: 2
    Hp: 1
    Items:
      List:
      - Type: 1
        Num: 7
      - Type: 2
        Num: 5
      - Type: 0
        Num: 2
      - Type: 3
        Num: 5
      NumEnemiesCanHaveItem: 4
    HasPower: 0
    NoDam: 0
    IsTeam: 1
    DestroyOnFinish: 0
    IdleType: 0
    TimeMove: 3
    Ease: 0
    Paths:
    - DelayTime: 0
      Distance: 0.3
      MoveSpeed: 4
      Index: 11
      Offset: {x: 0, y: 0}
      FlipX: 0
      FlipY: 0
      Cells:
      - Row: 2
        Coll: 0
      - Row: 3
        Coll: 0
      - Row: 4
        Coll: 1
      - Row: 3
        Coll: 1
      - Row: 2
        Coll: 1
      - Row: 1
        Coll: 1
      - Row: 0
        Coll: 2
      - Row: 1
        Coll: 2
      - Row: 2
        Coll: 2
      - Row: 3
        Coll: 2
      - Row: 4
        Coll: 2
      - Row: 5
        Coll: 2
    - DelayTime: 3
      Distance: 0.3
      MoveSpeed: 4
      Index: 11
      Offset: {x: 0, y: 0}
      FlipX: 1
      FlipY: 0
      Cells:
      - Row: 2
        Coll: 6
      - Row: 3
        Coll: 6
      - Row: 4
        Coll: 5
      - Row: 3
        Coll: 5
      - Row: 2
        Coll: 5
      - Row: 1
        Coll: 5
      - Row: 0
        Coll: 4
      - Row: 1
        Coll: 4
      - Row: 2
        Coll: 4
      - Row: 3
        Coll: 4
      - Row: 4
        Coll: 4
      - Row: 5
        Coll: 4
    Enemies:
    - Rows:
      - EnemyId: -1
        PathId: 0
      - EnemyId: -1
        PathId: 0
      - EnemyId: 0
        PathId: 0
      - EnemyId: -1
        PathId: 0
      - EnemyId: 0
        PathId: 0
      - EnemyId: -1
        PathId: 0
      - EnemyId: -1
        PathId: 0
    - Rows:
      - EnemyId: -1
        PathId: 0
      - EnemyId: 0
        PathId: 0
      - EnemyId: 0
        PathId: 0
      - EnemyId: -1
        PathId: 0
      - EnemyId: 0
        PathId: 0
      - EnemyId: 0
        PathId: 0
      - EnemyId: -1
        PathId: 0
    - Rows:
      - EnemyId: 0
        PathId: 0
      - EnemyId: 1
        PathId: 0
      - EnemyId: 1
        PathId: 0
      - EnemyId: -1
        PathId: 0
      - EnemyId: 1
        PathId: 0
      - EnemyId: 1
        PathId: 0
      - EnemyId: 0
        PathId: 0
    - Rows:
      - EnemyId: 1
        PathId: 0
      - EnemyId: 1
        PathId: 0
      - EnemyId: 1
        PathId: 0
      - EnemyId: -1
        PathId: 0
      - EnemyId: 1
        PathId: 0
      - EnemyId: 1
        PathId: 0
      - EnemyId: 1
        PathId: 0
    - Rows:
      - EnemyId: -1
        PathId: 0
      - EnemyId: 0
        PathId: 0
      - EnemyId: 0
        PathId: 0
      - EnemyId: -1
        PathId: 0
      - EnemyId: 0
        PathId: 0
      - EnemyId: 0
        PathId: 0
      - EnemyId: -1
        PathId: 0
    - Rows:
      - EnemyId: -1
        PathId: 0
      - EnemyId: -1
        PathId: 0
      - EnemyId: 0
        PathId: 0
      - EnemyId: -1
        PathId: 0
      - EnemyId: 0
        PathId: 0
      - EnemyId: -1
        PathId: 0
      - EnemyId: -1
        PathId: 0
    - Rows:
      - EnemyId: -1
        PathId: 0
      - EnemyId: -1
        PathId: 0
      - EnemyId: -1
        PathId: 0
      - EnemyId: -1
        PathId: 0
      - EnemyId: -1
        PathId: 0
      - EnemyId: -1
        PathId: 0
      - EnemyId: -1
        PathId: 0
    GiftBox:
      NumGiftBox: 0
      Duration: 0
      Speed: 0
    NumEnemyAttack: 0
    SpeedMoveAttack: 5
    DistanceTimeAttack: 0.3
    LoopTimeAttack: 2
    CombatDiff:
      TimeFireRate: 0
      FireRateDecrease: 0
      TimeEnemyAttack: 0
      EnemyAttackDecease: 0
      IsIncreaseNumberFire: 0
      TimeIncreaseNumberFire: 0
    Boss:
      BossIndex: 1
      Hps: []
    Rock:
      StartPosition: {x: 0, y: 0, z: 0}
      EndPosition: {x: 0, y: 0, z: 0}
      Range: 3
      Speed: 3
      NumSmall: 0
      NumNormal: 0
      NumBig: 0
      Duration: 5
    UseWarning: 0
    WarningPositions: []
    IsShow: 1
  - WaveType: 0
    FireRate: 0
    Hp: 1
    Items:
      List:
      - Type: 1
        Num: 3
      NumEnemiesCanHaveItem: 7
    HasPower: 0
    NoDam: 0
    IsTeam: 1
    DestroyOnFinish: 0
    IdleType: 9
    TimeMove: 3
    Ease: 0
    Paths:
    - DelayTime: 0.5
      Distance: 0.5
      MoveSpeed: 5
      Index: 1
      Offset: {x: 0, y: 0}
      FlipX: 0
      FlipY: 0
      Cells:
      - Row: 1
        Coll: 6
      - Row: 1
        Coll: 5
      - Row: 1
        Coll: 4
      - Row: 1
        Coll: 3
      - Row: 1
        Coll: 2
      - Row: 1
        Coll: 1
      - Row: 1
        Coll: 0
    - DelayTime: 1.5
      Distance: 0.5
      MoveSpeed: 5
      Index: 1
      Offset: {x: 0, y: -2}
      FlipX: 0
      FlipY: 0
      Cells:
      - Row: 3
        Coll: 6
      - Row: 3
        Coll: 5
      - Row: 3
        Coll: 4
      - Row: 3
        Coll: 3
      - Row: 3
        Coll: 2
      - Row: 3
        Coll: 1
      - Row: 3
        Coll: 0
    - DelayTime: 1
      Distance: 0.3
      MoveSpeed: 5
      Index: 2
      Offset: {x: 0, y: 0}
      FlipX: 0
      FlipY: 0
      Cells:
      - Row: 2
        Coll: 0
      - Row: 2
        Coll: 1
      - Row: 2
        Coll: 2
      - Row: 2
        Coll: 3
      - Row: 2
        Coll: 4
      - Row: 2
        Coll: 5
      - Row: 2
        Coll: 6
    - DelayTime: 0
      Distance: 0.3
      MoveSpeed: 5
      Index: 2
      Offset: {x: 0, y: 2}
      FlipX: 0
      FlipY: 0
      Cells:
      - Row: 0
        Coll: 0
      - Row: 0
        Coll: 1
      - Row: 0
        Coll: 2
      - Row: 0
        Coll: 3
      - Row: 0
        Coll: 4
      - Row: 0
        Coll: 5
      - Row: 0
        Coll: 6
    Enemies:
    - Rows:
      - EnemyId: 1
        PathId: 0
      - EnemyId: 1
        PathId: 0
      - EnemyId: 1
        PathId: 0
      - EnemyId: 1
        PathId: 0
      - EnemyId: 1
        PathId: 0
      - EnemyId: 1
        PathId: 0
      - EnemyId: 1
        PathId: 0
    - Rows:
      - EnemyId: 0
        PathId: 0
      - EnemyId: 0
        PathId: 0
      - EnemyId: 0
        PathId: 0
      - EnemyId: 0
        PathId: 0
      - EnemyId: 0
        PathId: 0
      - EnemyId: 0
        PathId: 0
      - EnemyId: 0
        PathId: 0
    - Rows:
      - EnemyId: 0
        PathId: 0
      - EnemyId: 0
        PathId: 0
      - EnemyId: 0
        PathId: 0
      - EnemyId: 0
        PathId: 0
      - EnemyId: 0
        PathId: 0
      - EnemyId: 0
        PathId: 0
      - EnemyId: 0
        PathId: 0
    - Rows:
      - EnemyId: 0
        PathId: 0
      - EnemyId: 0
        PathId: 0
      - EnemyId: 0
        PathId: 0
      - EnemyId: 0
        PathId: 0
      - EnemyId: 0
        PathId: 0
      - EnemyId: 0
        PathId: 0
      - EnemyId: 0
        PathId: 0
    - Rows:
      - EnemyId: -1
        PathId: 0
      - EnemyId: -1
        PathId: 0
      - EnemyId: -1
        PathId: 0
      - EnemyId: -1
        PathId: 0
      - EnemyId: -1
        PathId: 0
      - EnemyId: -1
        PathId: 0
      - EnemyId: -1
        PathId: 0
    - Rows:
      - EnemyId: -1
        PathId: 0
      - EnemyId: -1
        PathId: 0
      - EnemyId: -1
        PathId: 0
      - EnemyId: -1
        PathId: 0
      - EnemyId: -1
        PathId: 0
      - EnemyId: -1
        PathId: 0
      - EnemyId: -1
        PathId: 0
    - Rows:
      - EnemyId: -1
        PathId: 0
      - EnemyId: -1
        PathId: 0
      - EnemyId: -1
        PathId: 0
      - EnemyId: -1
        PathId: 0
      - EnemyId: -1
        PathId: 0
      - EnemyId: -1
        PathId: 0
      - EnemyId: -1
        PathId: 0
    GiftBox:
      NumGiftBox: 0
      Duration: 0
      Speed: 0
    NumEnemyAttack: 0
    SpeedMoveAttack: 5
    DistanceTimeAttack: 0.3
    LoopTimeAttack: 2
    CombatDiff:
      TimeFireRate: 0
      FireRateDecrease: 0
      TimeEnemyAttack: 0
      EnemyAttackDecease: 0
      IsIncreaseNumberFire: 0
      TimeIncreaseNumberFire: 0
    Boss:
      BossIndex: 5
      Hps: []
    Rock:
      StartPosition: {x: 0, y: 0, z: 0}
      EndPosition: {x: 0, y: 0, z: 0}
      Range: 3
      Speed: 3
      NumSmall: 0
      NumNormal: 0
      NumBig: 0
      Duration: 5
    UseWarning: 0
    WarningPositions: []
    IsShow: 1
  - WaveType: 0
    FireRate: 3
    Hp: 1
    Items:
      List:
      - Type: 1
        Num: 3
      - Type: 0
        Num: 1
      NumEnemiesCanHaveItem: 7
    HasPower: 0
    NoDam: 0
    IsTeam: 1
    DestroyOnFinish: 0
    IdleType: 0
    TimeMove: 3
    Ease: 0
    Paths:
    - DelayTime: 0
      Distance: 0.3
      MoveSpeed: 4
      Index: 7
      Offset: {x: -2, y: 0}
      FlipX: 0
      FlipY: 0
      Cells:
      - Row: 5
        Coll: 3
      - Row: 4
        Coll: 2
      - Row: 3
        Coll: 3
      - Row: 3
        Coll: 2
      - Row: 3
        Coll: 1
      - Row: 2
        Coll: 0
      - Row: 2
        Coll: 1
      - Row: 2
        Coll: 2
      - Row: 1
        Coll: 2
      - Row: 1
        Coll: 1
      - Row: 1
        Coll: 0
      - Row: 0
        Coll: 1
      - Row: 0
        Coll: 2
    - DelayTime: 3
      Distance: 0.3
      MoveSpeed: 4
      Index: 7
      Offset: {x: 2, y: 0}
      FlipX: 1
      FlipY: 0
      Cells:
      - Row: 4
        Coll: 3
      - Row: 4
        Coll: 4
      - Row: 3
        Coll: 4
      - Row: 3
        Coll: 5
      - Row: 2
        Coll: 6
      - Row: 2
        Coll: 5
      - Row: 2
        Coll: 4
      - Row: 2
        Coll: 3
      - Row: 1
        Coll: 3
      - Row: 1
        Coll: 4
      - Row: 1
        Coll: 5
      - Row: 1
        Coll: 6
      - Row: 0
        Coll: 5
      - Row: 0
        Coll: 4
    Enemies:
    - Rows:
      - EnemyId: -1
        PathId: 0
      - EnemyId: 0
        PathId: 0
      - EnemyId: 1
        PathId: 0
      - EnemyId: -1
        PathId: 0
      - EnemyId: 1
        PathId: 0
      - EnemyId: 0
        PathId: 0
      - EnemyId: -1
        PathId: 0
    - Rows:
      - EnemyId: 0
        PathId: 0
      - EnemyId: 1
        PathId: 0
      - EnemyId: 0
        PathId: 0
      - EnemyId: 1
        PathId: 0
      - EnemyId: 0
        PathId: 0
      - EnemyId: 1
        PathId: 0
      - EnemyId: 0
        PathId: 0
    - Rows:
      - EnemyId: 0
        PathId: 0
      - EnemyId: 1
        PathId: 0
      - EnemyId: 0
        PathId: 0
      - EnemyId: 0
        PathId: 0
      - EnemyId: 0
        PathId: 0
      - EnemyId: 0
        PathId: 0
      - EnemyId: 0
        PathId: 0
    - Rows:
      - EnemyId: -1
        PathId: 0
      - EnemyId: 1
        PathId: 0
      - EnemyId: 1
        PathId: 0
      - EnemyId: 1
        PathId: 0
      - EnemyId: 0
        PathId: 0
      - EnemyId: 1
        PathId: 0
      - EnemyId: -1
        PathId: 0
    - Rows:
      - EnemyId: -1
        PathId: 0
      - EnemyId: -1
        PathId: 0
      - EnemyId: 0
        PathId: 0
      - EnemyId: 0
        PathId: 0
      - EnemyId: 0
        PathId: 0
      - EnemyId: -1
        PathId: 0
      - EnemyId: -1
        PathId: 0
    - Rows:
      - EnemyId: -1
        PathId: 0
      - EnemyId: -1
        PathId: 0
      - EnemyId: -1
        PathId: 0
      - EnemyId: 0
        PathId: 0
      - EnemyId: -1
        PathId: 0
      - EnemyId: -1
        PathId: 0
      - EnemyId: -1
        PathId: 0
    - Rows:
      - EnemyId: -1
        PathId: 0
      - EnemyId: -1
        PathId: 0
      - EnemyId: -1
        PathId: 0
      - EnemyId: -1
        PathId: 0
      - EnemyId: -1
        PathId: 0
      - EnemyId: -1
        PathId: 0
      - EnemyId: -1
        PathId: 0
    GiftBox:
      NumGiftBox: 0
      Duration: 0
      Speed: 0
    NumEnemyAttack: 0
    SpeedMoveAttack: 5
    DistanceTimeAttack: 0.3
    LoopTimeAttack: 2
    CombatDiff:
      TimeFireRate: 0
      FireRateDecrease: 0
      TimeEnemyAttack: 0
      EnemyAttackDecease: 0
      IsIncreaseNumberFire: 0
      TimeIncreaseNumberFire: 0
    Boss:
      BossIndex: 1
      Hps: []
    Rock:
      StartPosition: {x: 0, y: 0, z: 0}
      EndPosition: {x: 0, y: 0, z: 0}
      Range: 3
      Speed: 3
      NumSmall: 0
      NumNormal: 0
      NumBig: 0
      Duration: 5
    UseWarning: 0
    WarningPositions: []
    IsShow: 1
