%YAML 1.1
%TAG !u! tag:unity3d.com,2011:
--- !u!114 &11400000
MonoBehaviour:
  m_ObjectHideFlags: 0
  m_CorrespondingSourceObject: {fileID: 0}
  m_PrefabInstance: {fileID: 0}
  m_PrefabAsset: {fileID: 0}
  m_GameObject: {fileID: 0}
  m_Enabled: 1
  m_EditorHideFlags: 0
  m_Script: {fileID: 11500000, guid: bf5d7ed2671cf0d4b825cab5b09dbcb8, type: 3}
  m_Name: Level 39
  m_EditorClassIdentifier: 
  FuelCost: 4
  CoinReward: 3950
  ReFightCoinReward: 1975
  CombatPower: 31381
  EvolveShipNum: 9
  EvolveShipId: 2
  EvolveDroneNum: 9
  EvolveDroneId: 2
  Waves:
  - WaveType: 0
    FireRate: 1
    Hp: 1
    Items:
      List:
      - Type: 1
        Num: 3
      NumEnemiesCanHaveItem: 6
    HasPower: 0
    NoDam: 1
    IsTeam: 1
    DestroyOnFinish: 0
    IdleType: 9
    TimeMove: 2
    Ease: 0
    Paths:
    - DelayTime: 0
      Distance: 0.3
      MoveSpeed: 8
      Index: 14
      Offset: {x: 0, y: 0}
      FlipX: 0
      FlipY: 0
      Cells:
      - Row: 2
        Coll: 2
    - DelayTime: 0
      Distance: 0.3
      MoveSpeed: 8
      Index: 14
      Offset: {x: 0, y: 0}
      FlipX: 0
      FlipY: 0
      Cells:
      - Row: 2
        Coll: 3
    - DelayTime: 0
      Distance: 0.3
      MoveSpeed: 8
      Index: 14
      Offset: {x: 0, y: 0}
      FlipX: 0
      FlipY: 0
      Cells:
      - Row: 2
        Coll: 4
    - DelayTime: 0
      Distance: 0.3
      MoveSpeed: 8
      Index: 14
      Offset: {x: 0, y: 0}
      FlipX: 0
      FlipY: 0
      Cells:
      - Row: 3
        Coll: 4
    - DelayTime: 0
      Distance: 0.3
      MoveSpeed: 8
      Index: 14
      Offset: {x: 0, y: 0}
      FlipX: 0
      FlipY: 0
      Cells:
      - Row: 4
        Coll: 4
    - DelayTime: 0
      Distance: 0.3
      MoveSpeed: 8
      Index: 14
      Offset: {x: 0, y: 0}
      FlipX: 0
      FlipY: 0
      Cells:
      - Row: 4
        Coll: 3
    - DelayTime: 0
      Distance: 0.3
      MoveSpeed: 8
      Index: 14
      Offset: {x: 0, y: 0}
      FlipX: 0
      FlipY: 0
      Cells:
      - Row: 4
        Coll: 2
    - DelayTime: 0
      Distance: 0.3
      MoveSpeed: 8
      Index: 14
      Offset: {x: 0, y: 0}
      FlipX: 0
      FlipY: 0
      Cells:
      - Row: 3
        Coll: 2
    - DelayTime: 1.5
      Distance: 0.3
      MoveSpeed: 8
      Index: 0
      Offset: {x: 0, y: 0}
      FlipX: 0
      FlipY: 0
      Cells:
      - Row: 3
        Coll: 3
    - DelayTime: 1.5
      Distance: 0.3
      MoveSpeed: 8
      Index: 0
      Offset: {x: 0, y: 0}
      FlipX: 0
      FlipY: 0
      Cells:
      - Row: 1
        Coll: 0
    - DelayTime: 1.5
      Distance: 0.3
      MoveSpeed: 8
      Index: 0
      Offset: {x: 0, y: 0}
      FlipX: 0
      FlipY: 0
      Cells:
      - Row: 0
        Coll: 0
    - DelayTime: 1.5
      Distance: 0.3
      MoveSpeed: 8
      Index: 0
      Offset: {x: 0, y: 0}
      FlipX: 0
      FlipY: 0
      Cells:
      - Row: 0
        Coll: 1
    - DelayTime: 1.5
      Distance: 0.3
      MoveSpeed: 8
      Index: 0
      Offset: {x: 0, y: 0}
      FlipX: 0
      FlipY: 0
      Cells:
      - Row: 0
        Coll: 2
    - DelayTime: 1.5
      Distance: 0.3
      MoveSpeed: 8
      Index: 0
      Offset: {x: 0, y: 0}
      FlipX: 0
      FlipY: 0
      Cells:
      - Row: 0
        Coll: 4
    - DelayTime: 1.5
      Distance: 0.3
      MoveSpeed: 8
      Index: 0
      Offset: {x: 0, y: 0}
      FlipX: 0
      FlipY: 0
      Cells:
      - Row: 0
        Coll: 5
    - DelayTime: 1.5
      Distance: 0.3
      MoveSpeed: 8
      Index: 0
      Offset: {x: 0, y: 0}
      FlipX: 0
      FlipY: 0
      Cells:
      - Row: 0
        Coll: 6
    - DelayTime: 1.5
      Distance: 0.3
      MoveSpeed: 8
      Index: 0
      Offset: {x: 0, y: 0}
      FlipX: 0
      FlipY: 0
      Cells:
      - Row: 1
        Coll: 6
    - DelayTime: 1.5
      Distance: 0.3
      MoveSpeed: 8
      Index: 0
      Offset: {x: 0, y: 0}
      FlipX: 0
      FlipY: 0
      Cells:
      - Row: 3
        Coll: 6
    - DelayTime: 1.5
      Distance: 0.3
      MoveSpeed: 8
      Index: 0
      Offset: {x: 0, y: 0}
      FlipX: 0
      FlipY: 0
      Cells:
      - Row: 5
        Coll: 6
    - DelayTime: 1.5
      Distance: 0.3
      MoveSpeed: 8
      Index: 0
      Offset: {x: 0, y: 0}
      FlipX: 0
      FlipY: 0
      Cells:
      - Row: 6
        Coll: 6
    - DelayTime: 1.5
      Distance: 0.3
      MoveSpeed: 8
      Index: 0
      Offset: {x: 0, y: 0}
      FlipX: 0
      FlipY: 0
      Cells:
      - Row: 6
        Coll: 5
    - DelayTime: 1.5
      Distance: 0.3
      MoveSpeed: 8
      Index: 0
      Offset: {x: 0, y: 0}
      FlipX: 0
      FlipY: 0
      Cells:
      - Row: 6
        Coll: 4
    - DelayTime: 1.5
      Distance: 0.3
      MoveSpeed: 8
      Index: 0
      Offset: {x: 0, y: 0}
      FlipX: 0
      FlipY: 0
      Cells:
      - Row: 6
        Coll: 2
    - DelayTime: 1.5
      Distance: 0.3
      MoveSpeed: 8
      Index: 0
      Offset: {x: 0, y: 0}
      FlipX: 0
      FlipY: 0
      Cells:
      - Row: 6
        Coll: 1
    - DelayTime: 1.5
      Distance: 0.3
      MoveSpeed: 8
      Index: 0
      Offset: {x: 0, y: 0}
      FlipX: 0
      FlipY: 0
      Cells:
      - Row: 6
        Coll: 0
    - DelayTime: 1.5
      Distance: 0.3
      MoveSpeed: 8
      Index: 0
      Offset: {x: 0, y: 0}
      FlipX: 0
      FlipY: 0
      Cells:
      - Row: 5
        Coll: 0
    - DelayTime: 1.5
      Distance: 0.3
      MoveSpeed: 8
      Index: 0
      Offset: {x: 0, y: 0}
      FlipX: 0
      FlipY: 0
      Cells:
      - Row: 3
        Coll: 0
    Enemies:
    - Rows:
      - EnemyId: 21
        PathId: 0
      - EnemyId: 14
        PathId: 0
      - EnemyId: 21
        PathId: 0
      - EnemyId: -1
        PathId: 0
      - EnemyId: 21
        PathId: 0
      - EnemyId: 14
        PathId: 0
      - EnemyId: 21
        PathId: 0
    - Rows:
      - EnemyId: 21
        PathId: 0
      - EnemyId: -1
        PathId: 0
      - EnemyId: -1
        PathId: 0
      - EnemyId: -1
        PathId: 0
      - EnemyId: -1
        PathId: 0
      - EnemyId: -1
        PathId: 0
      - EnemyId: 21
        PathId: 0
    - Rows:
      - EnemyId: -1
        PathId: 0
      - EnemyId: -1
        PathId: 0
      - EnemyId: 22
        PathId: 0
      - EnemyId: 18
        PathId: 0
      - EnemyId: 22
        PathId: 0
      - EnemyId: -1
        PathId: 0
      - EnemyId: -1
        PathId: 0
    - Rows:
      - EnemyId: 21
        PathId: 0
      - EnemyId: -1
        PathId: 0
      - EnemyId: 18
        PathId: 0
      - EnemyId: 15
        PathId: 0
      - EnemyId: 18
        PathId: 0
      - EnemyId: -1
        PathId: 0
      - EnemyId: 21
        PathId: 0
    - Rows:
      - EnemyId: -1
        PathId: 0
      - EnemyId: -1
        PathId: 0
      - EnemyId: 22
        PathId: 0
      - EnemyId: 18
        PathId: 0
      - EnemyId: 22
        PathId: 0
      - EnemyId: -1
        PathId: 0
      - EnemyId: -1
        PathId: 0
    - Rows:
      - EnemyId: 21
        PathId: 0
      - EnemyId: -1
        PathId: 0
      - EnemyId: -1
        PathId: 0
      - EnemyId: -1
        PathId: 0
      - EnemyId: -1
        PathId: 0
      - EnemyId: -1
        PathId: 0
      - EnemyId: 21
        PathId: 0
    - Rows:
      - EnemyId: 21
        PathId: 0
      - EnemyId: 14
        PathId: 0
      - EnemyId: 21
        PathId: 0
      - EnemyId: -1
        PathId: 0
      - EnemyId: 21
        PathId: 0
      - EnemyId: 14
        PathId: 0
      - EnemyId: 21
        PathId: 0
    GiftBox:
      NumGiftBox: 0
      Duration: 0
      Speed: 0
    NumEnemyAttack: 3
    SpeedMoveAttack: 5
    DistanceTimeAttack: 0.3
    LoopTimeAttack: 2
    CombatDiff:
      TimeFireRate: 0
      FireRateDecrease: 0
      TimeEnemyAttack: 0
      EnemyAttackDecease: 0
      IsIncreaseNumberFire: 0
      TimeIncreaseNumberFire: 0
    Boss:
      BossIndex: 1
      Hps: []
    Rock:
      StartPosition: {x: 0, y: 0, z: 0}
      EndPosition: {x: 0, y: 0, z: 0}
      Range: 3
      Speed: 3
      NumSmall: 0
      NumNormal: 0
      NumBig: 0
      Duration: 5
    UseWarning: 0
    WarningPositions: []
    IsShow: 1
  - WaveType: 0
    FireRate: 1.5
    Hp: 1
    Items:
      List:
      - Type: 0
        Num: 1
      NumEnemiesCanHaveItem: 1
    HasPower: 0
    NoDam: 0
    IsTeam: 0
    DestroyOnFinish: 1
    IdleType: 9
    TimeMove: 1
    Ease: 0
    Paths:
    - DelayTime: 0
      Distance: 0.3
      MoveSpeed: 3.5
      Index: 9
      Offset: {x: 1.3, y: 0}
      FlipX: 0
      FlipY: 0
      Cells:
      - Row: 0
        Coll: 0
    - DelayTime: 2
      Distance: 0.3
      MoveSpeed: 3.7
      Index: 9
      Offset: {x: 2.7, y: 0}
      FlipX: 0
      FlipY: 0
      Cells:
      - Row: 1
        Coll: 0
    - DelayTime: 1.6
      Distance: 0.3
      MoveSpeed: 4
      Index: 9
      Offset: {x: 4, y: 0}
      FlipX: 0
      FlipY: 0
      Cells:
      - Row: 2
        Coll: 0
    - DelayTime: 4
      Distance: 0.3
      MoveSpeed: 4.1
      Index: 9
      Offset: {x: 5.6, y: 0}
      FlipX: 0
      FlipY: 0
      Cells:
      - Row: 3
        Coll: 0
    - DelayTime: 5
      Distance: 0.3
      MoveSpeed: 10.1
      Index: 9
      Offset: {x: 3.7, y: 0}
      FlipX: 0
      FlipY: 0
      Cells:
      - Row: 4
        Coll: 0
    - DelayTime: 2.3
      Distance: 0.3
      MoveSpeed: 4.5
      Index: 9
      Offset: {x: -0.3, y: 0}
      FlipX: 0
      FlipY: 0
      Cells:
      - Row: 5
        Coll: 0
    - DelayTime: 0.6
      Distance: 0.3
      MoveSpeed: 4.8
      Index: 9
      Offset: {x: -0.7, y: 0}
      FlipX: 0
      FlipY: 0
      Cells:
      - Row: 6
        Coll: 0
    - DelayTime: 7
      Distance: 0.3
      MoveSpeed: 4.8
      Index: 9
      Offset: {x: 1.2, y: 0}
      FlipX: 0
      FlipY: 0
      Cells:
      - Row: 0
        Coll: 1
    - DelayTime: 4.2
      Distance: 0.3
      MoveSpeed: 9.4
      Index: 9
      Offset: {x: 2.6, y: 0}
      FlipX: 0
      FlipY: 0
      Cells:
      - Row: 1
        Coll: 1
    - DelayTime: 3.1
      Distance: 0.3
      MoveSpeed: 5.3
      Index: 9
      Offset: {x: 4.8, y: 0}
      FlipX: 0
      FlipY: 0
      Cells:
      - Row: 2
        Coll: 1
    - DelayTime: 5.3
      Distance: 0.3
      MoveSpeed: 5.9
      Index: 9
      Offset: {x: 5, y: 0}
      FlipX: 0
      FlipY: 0
      Cells:
      - Row: 3
        Coll: 1
    - DelayTime: 1.2
      Distance: 0.3
      MoveSpeed: 5.9
      Index: 9
      Offset: {x: 6, y: 0}
      FlipX: 0
      FlipY: 0
      Cells:
      - Row: 4
        Coll: 1
    - DelayTime: 3.4
      Distance: 0.3
      MoveSpeed: 6.3
      Index: 9
      Offset: {x: 1.7, y: 0}
      FlipX: 0
      FlipY: 0
      Cells:
      - Row: 5
        Coll: 1
    - DelayTime: 2.4
      Distance: 0.3
      MoveSpeed: 6.3
      Index: 9
      Offset: {x: 2.6, y: 0}
      FlipX: 0
      FlipY: 0
      Cells:
      - Row: 6
        Coll: 1
    - DelayTime: 1.3
      Distance: 0.3
      MoveSpeed: 6.4
      Index: 9
      Offset: {x: 3.2, y: 0}
      FlipX: 0
      FlipY: 0
      Cells:
      - Row: 0
        Coll: 2
    - DelayTime: 0.8
      Distance: 0.3
      MoveSpeed: 6.5
      Index: 9
      Offset: {x: 4.7, y: 0}
      FlipX: 0
      FlipY: 0
      Cells:
      - Row: 1
        Coll: 2
    - DelayTime: 6
      Distance: 0.3
      MoveSpeed: 6.8
      Index: 9
      Offset: {x: 5.4, y: 0}
      FlipX: 0
      FlipY: 0
      Cells:
      - Row: 2
        Coll: 2
    - DelayTime: 4.2
      Distance: 0.3
      MoveSpeed: 6.8
      Index: 9
      Offset: {x: 3.2, y: 0}
      FlipX: 0
      FlipY: 0
      Cells:
      - Row: 3
        Coll: 2
    - DelayTime: 3.1
      Distance: 0.3
      MoveSpeed: 7.2
      Index: 9
      Offset: {x: 1.8, y: 0}
      FlipX: 0
      FlipY: 0
      Cells:
      - Row: 4
        Coll: 2
    - DelayTime: 2.6
      Distance: 0.3
      MoveSpeed: 7.9
      Index: 9
      Offset: {x: -1.1, y: 0}
      FlipX: 0
      FlipY: 0
      Cells:
      - Row: 5
        Coll: 2
    - DelayTime: 1.3
      Distance: 0.3
      MoveSpeed: 8.5
      Index: 9
      Offset: {x: 1.9, y: 0}
      FlipX: 0
      FlipY: 0
      Cells:
      - Row: 6
        Coll: 2
    - DelayTime: 0
      Distance: 0.3
      MoveSpeed: 9.6
      Index: 9
      Offset: {x: 2.9, y: 0}
      FlipX: 0
      FlipY: 0
      Cells:
      - Row: 0
        Coll: 3
    - DelayTime: 3.8
      Distance: 0.3
      MoveSpeed: 10
      Index: 9
      Offset: {x: 3.8, y: 0}
      FlipX: 0
      FlipY: 0
      Cells:
      - Row: 1
        Coll: 3
    - DelayTime: 4.1
      Distance: 0.3
      MoveSpeed: 12
      Index: 9
      Offset: {x: -0.8, y: 0}
      FlipX: 0
      FlipY: 0
      Cells:
      - Row: 1
        Coll: 4
    - DelayTime: 5.2
      Distance: 0.3
      MoveSpeed: 11.5
      Index: 9
      Offset: {x: 3.8, y: 0}
      FlipX: 0
      FlipY: 0
      Cells:
      - Row: 2
        Coll: 3
    - DelayTime: 6.4
      Distance: 0.3
      MoveSpeed: 3.7
      Index: 20
      Offset: {x: 0, y: 0}
      FlipX: 0
      FlipY: 0
      Cells:
      - Row: 3
        Coll: 3
    - DelayTime: 2
      Distance: 0.3
      MoveSpeed: 4
      Index: 20
      Offset: {x: 0, y: 1.2}
      FlipX: 0
      FlipY: 0
      Cells:
      - Row: 4
        Coll: 3
    - DelayTime: 0
      Distance: 0.3
      MoveSpeed: 4.1
      Index: 20
      Offset: {x: 0, y: -0.5}
      FlipX: 0
      FlipY: 0
      Cells:
      - Row: 5
        Coll: 3
    - DelayTime: 3.1
      Distance: 0.3
      MoveSpeed: 4.2
      Index: 20
      Offset: {x: 0, y: -4}
      FlipX: 0
      FlipY: 0
      Cells:
      - Row: 6
        Coll: 3
    - DelayTime: 1
      Distance: 0.3
      MoveSpeed: 4.3
      Index: 20
      Offset: {x: 0, y: -6.8}
      FlipX: 0
      FlipY: 0
      Cells:
      - Row: 0
        Coll: 4
    - DelayTime: 4.5
      Distance: 0.3
      MoveSpeed: 4.9
      Index: 20
      Offset: {x: 0, y: 1.6}
      FlipX: 0
      FlipY: 0
      Cells:
      - Row: 2
        Coll: 4
    - DelayTime: 6.2
      Distance: 0.3
      MoveSpeed: 5
      Index: 20
      Offset: {x: 0, y: 2.6}
      FlipX: 0
      FlipY: 0
      Cells:
      - Row: 3
        Coll: 5
    - DelayTime: 1.7
      Distance: 0.3
      MoveSpeed: 5.1
      Index: 20
      Offset: {x: 0, y: 1.8}
      FlipX: 0
      FlipY: 0
      Cells:
      - Row: 3
        Coll: 4
    - DelayTime: 2.3
      Distance: 0.3
      MoveSpeed: 5.3
      Index: 20
      Offset: {x: 0, y: -3.7}
      FlipX: 0
      FlipY: 0
      Cells:
      - Row: 4
        Coll: 4
    - DelayTime: 0.8
      Distance: 0.3
      MoveSpeed: 5.8
      Index: 20
      Offset: {x: 0, y: -1.9}
      FlipX: 0
      FlipY: 0
      Cells:
      - Row: 5
        Coll: 4
    - DelayTime: 2.6
      Distance: 0.3
      MoveSpeed: 6.3
      Index: 20
      Offset: {x: 0, y: -3.8}
      FlipX: 0
      FlipY: 0
      Cells:
      - Row: 4
        Coll: 5
    - DelayTime: 1.1
      Distance: 0.3
      MoveSpeed: 6.3
      Index: 20
      Offset: {x: 0, y: -2.5}
      FlipX: 0
      FlipY: 0
      Cells:
      - Row: 6
        Coll: 4
    - DelayTime: 2.6
      Distance: 0.3
      MoveSpeed: 6.7
      Index: 20
      Offset: {x: 0, y: -5.6}
      FlipX: 0
      FlipY: 0
      Cells:
      - Row: 5
        Coll: 5
    - DelayTime: 4.3
      Distance: 0.3
      MoveSpeed: 6.7
      Index: 20
      Offset: {x: 0, y: -0.7}
      FlipX: 0
      FlipY: 0
      Cells:
      - Row: 6
        Coll: 5
    - DelayTime: 4.8
      Distance: 0.3
      MoveSpeed: 7.5
      Index: 20
      Offset: {x: 0, y: 0.3}
      FlipX: 0
      FlipY: 0
      Cells:
      - Row: 0
        Coll: 5
    - DelayTime: 5.3
      Distance: 0.3
      MoveSpeed: 8.1
      Index: 20
      Offset: {x: 0, y: 1.6}
      FlipX: 0
      FlipY: 0
      Cells:
      - Row: 1
        Coll: 5
    - DelayTime: 6.4
      Distance: 0.3
      MoveSpeed: 8.1
      Index: 20
      Offset: {x: 0, y: 3.4}
      FlipX: 0
      FlipY: 0
      Cells:
      - Row: 2
        Coll: 5
    - DelayTime: 7
      Distance: 0.3
      MoveSpeed: 9
      Index: 20
      Offset: {x: 0, y: -6}
      FlipX: 0
      FlipY: 0
      Cells:
      - Row: 0
        Coll: 6
    - DelayTime: 0.6
      Distance: 0.3
      MoveSpeed: 10.1
      Index: 20
      Offset: {x: 0, y: 2.2}
      FlipX: 0
      FlipY: 0
      Cells:
      - Row: 1
        Coll: 6
    - DelayTime: 1.4
      Distance: 0.3
      MoveSpeed: 11.3
      Index: 20
      Offset: {x: 0, y: 1.8}
      FlipX: 0
      FlipY: 0
      Cells:
      - Row: 2
        Coll: 6
    - DelayTime: 2.3
      Distance: 0.3
      MoveSpeed: 11.5
      Index: 20
      Offset: {x: 0, y: 1.7}
      FlipX: 0
      FlipY: 0
      Cells:
      - Row: 3
        Coll: 6
    - DelayTime: 3.7
      Distance: 0.3
      MoveSpeed: 11.7
      Index: 20
      Offset: {x: 0, y: 2.6}
      FlipX: 0
      FlipY: 0
      Cells:
      - Row: 4
        Coll: 6
    - DelayTime: 2.7
      Distance: 0.3
      MoveSpeed: 12
      Index: 20
      Offset: {x: 0, y: -2}
      FlipX: 0
      FlipY: 0
      Cells:
      - Row: 5
        Coll: 6
    - DelayTime: 6.3
      Distance: 0.3
      MoveSpeed: 12.3
      Index: 20
      Offset: {x: 0, y: -1.5}
      FlipX: 0
      FlipY: 0
      Cells:
      - Row: 6
        Coll: 6
    Enemies:
    - Rows:
      - EnemyId: 8
        PathId: 0
      - EnemyId: 21
        PathId: 0
      - EnemyId: 21
        PathId: 0
      - EnemyId: 8
        PathId: 0
      - EnemyId: 8
        PathId: 0
      - EnemyId: 21
        PathId: 0
      - EnemyId: 19
        PathId: 0
    - Rows:
      - EnemyId: 11
        PathId: 0
      - EnemyId: 21
        PathId: 0
      - EnemyId: 11
        PathId: 0
      - EnemyId: 3
        PathId: 0
      - EnemyId: 19
        PathId: 0
      - EnemyId: 21
        PathId: 0
      - EnemyId: 19
        PathId: 0
    - Rows:
      - EnemyId: 11
        PathId: 0
      - EnemyId: 15
        PathId: 0
      - EnemyId: 15
        PathId: 0
      - EnemyId: 23
        PathId: 0
      - EnemyId: 19
        PathId: 0
      - EnemyId: 21
        PathId: 0
      - EnemyId: 18
        PathId: 0
    - Rows:
      - EnemyId: 9
        PathId: 0
      - EnemyId: 15
        PathId: 0
      - EnemyId: 15
        PathId: 0
      - EnemyId: 15
        PathId: 0
      - EnemyId: 15
        PathId: 0
      - EnemyId: 5
        PathId: 0
      - EnemyId: 3
        PathId: 0
    - Rows:
      - EnemyId: 8
        PathId: 0
      - EnemyId: 15
        PathId: 0
      - EnemyId: 11
        PathId: 0
      - EnemyId: 15
        PathId: 0
      - EnemyId: 19
        PathId: 0
      - EnemyId: 5
        PathId: 0
      - EnemyId: 18
        PathId: 0
    - Rows:
      - EnemyId: 5
        PathId: 0
      - EnemyId: 22
        PathId: 0
      - EnemyId: 9
        PathId: 0
      - EnemyId: 5
        PathId: 0
      - EnemyId: 21
        PathId: 0
      - EnemyId: 5
        PathId: 0
      - EnemyId: 18
        PathId: 0
    - Rows:
      - EnemyId: 5
        PathId: 0
      - EnemyId: 5
        PathId: 0
      - EnemyId: 5
        PathId: 0
      - EnemyId: 5
        PathId: 0
      - EnemyId: 9
        PathId: 0
      - EnemyId: 18
        PathId: 0
      - EnemyId: 18
        PathId: 0
    GiftBox:
      NumGiftBox: 0
      Duration: 0
      Speed: 0
    NumEnemyAttack: 0
    SpeedMoveAttack: 5
    DistanceTimeAttack: 0.3
    LoopTimeAttack: 2
    CombatDiff:
      TimeFireRate: 3
      FireRateDecrease: 0.1
      TimeEnemyAttack: 0
      EnemyAttackDecease: 0
      IsIncreaseNumberFire: 0
      TimeIncreaseNumberFire: 0
    Boss:
      BossIndex: 1
      Hps: []
    Rock:
      StartPosition: {x: 0, y: 0, z: 0}
      EndPosition: {x: 0, y: 0, z: 0}
      Range: 3
      Speed: 3
      NumSmall: 0
      NumNormal: 0
      NumBig: 0
      Duration: 5
    UseWarning: 0
    WarningPositions: []
    IsShow: 1
  - WaveType: 0
    FireRate: 1
    Hp: 1
    Items:
      List:
      - Type: 1
        Num: 2
      NumEnemiesCanHaveItem: 10
    HasPower: 0
    NoDam: 1
    IsTeam: 1
    DestroyOnFinish: 0
    IdleType: 0
    TimeMove: 1
    Ease: 0
    Paths:
    - DelayTime: 0
      Distance: 0.3
      MoveSpeed: 6
      Index: 7
      Offset: {x: 0, y: 0}
      FlipX: 0
      FlipY: 0
      Cells:
      - Row: 0
        Coll: 2
    - DelayTime: 0
      Distance: 0.3
      MoveSpeed: 6
      Index: 7
      Offset: {x: 0, y: 0}
      FlipX: 0
      FlipY: 0
      Cells:
      - Row: 0
        Coll: 1
    - DelayTime: 0
      Distance: 0.3
      MoveSpeed: 6
      Index: 7
      Offset: {x: 0, y: 0}
      FlipX: 0
      FlipY: 0
      Cells:
      - Row: 0
        Coll: 3
    - DelayTime: 0
      Distance: 0.3
      MoveSpeed: 6
      Index: 7
      Offset: {x: 0, y: 0}
      FlipX: 0
      FlipY: 0
      Cells:
      - Row: 1
        Coll: 3
    - DelayTime: 0
      Distance: 0.3
      MoveSpeed: 6
      Index: 7
      Offset: {x: 0, y: 0}
      FlipX: 0
      FlipY: 0
      Cells:
      - Row: 0
        Coll: 4
    - DelayTime: 0
      Distance: 0.3
      MoveSpeed: 6
      Index: 7
      Offset: {x: 0, y: 0}
      FlipX: 0
      FlipY: 0
      Cells:
      - Row: 0
        Coll: 5
    - DelayTime: 0
      Distance: 0.3
      MoveSpeed: 6
      Index: 7
      Offset: {x: 0, y: 0}
      FlipX: 0
      FlipY: 0
      Cells:
      - Row: 1
        Coll: 6
    - DelayTime: 0
      Distance: 0.3
      MoveSpeed: 6
      Index: 7
      Offset: {x: 0, y: 0}
      FlipX: 0
      FlipY: 0
      Cells:
      - Row: 2
        Coll: 6
    - DelayTime: 0
      Distance: 0.3
      MoveSpeed: 6
      Index: 7
      Offset: {x: 0, y: 0}
      FlipX: 0
      FlipY: 0
      Cells:
      - Row: 3
        Coll: 6
    - DelayTime: 0
      Distance: 0.3
      MoveSpeed: 6
      Index: 7
      Offset: {x: 0, y: 0}
      FlipX: 0
      FlipY: 0
      Cells:
      - Row: 4
        Coll: 6
    - DelayTime: 0
      Distance: 0.3
      MoveSpeed: 6
      Index: 7
      Offset: {x: 0, y: 0}
      FlipX: 0
      FlipY: 0
      Cells:
      - Row: 2
        Coll: 5
    - DelayTime: 0
      Distance: 0.3
      MoveSpeed: 6
      Index: 7
      Offset: {x: 0, y: 0}
      FlipX: 0
      FlipY: 0
      Cells:
      - Row: 3
        Coll: 5
    - DelayTime: 0
      Distance: 0.3
      MoveSpeed: 6
      Index: 7
      Offset: {x: 0, y: 0}
      FlipX: 0
      FlipY: 0
      Cells:
      - Row: 2
        Coll: 4
    - DelayTime: 0
      Distance: 0.3
      MoveSpeed: 6
      Index: 7
      Offset: {x: 0, y: 0}
      FlipX: 0
      FlipY: 0
      Cells:
      - Row: 3
        Coll: 4
    - DelayTime: 0
      Distance: 0.3
      MoveSpeed: 6
      Index: 7
      Offset: {x: 0, y: 0}
      FlipX: 0
      FlipY: 0
      Cells:
      - Row: 4
        Coll: 3
    - DelayTime: 0
      Distance: 0.3
      MoveSpeed: 6
      Index: 7
      Offset: {x: 0, y: 0}
      FlipX: 0
      FlipY: 0
      Cells:
      - Row: 5
        Coll: 1
    - DelayTime: 0
      Distance: 0.3
      MoveSpeed: 6
      Index: 7
      Offset: {x: 0, y: 0}
      FlipX: 0
      FlipY: 0
      Cells:
      - Row: 5
        Coll: 2
    - DelayTime: 0
      Distance: 0.3
      MoveSpeed: 6
      Index: 7
      Offset: {x: 0, y: 0}
      FlipX: 0
      FlipY: 0
      Cells:
      - Row: 5
        Coll: 3
    - DelayTime: 0
      Distance: 0.3
      MoveSpeed: 6
      Index: 7
      Offset: {x: 0, y: 0}
      FlipX: 0
      FlipY: 0
      Cells:
      - Row: 5
        Coll: 4
    - DelayTime: 0
      Distance: 0.3
      MoveSpeed: 6
      Index: 7
      Offset: {x: 0, y: 0}
      FlipX: 0
      FlipY: 0
      Cells:
      - Row: 5
        Coll: 5
    - DelayTime: 0
      Distance: 0.3
      MoveSpeed: 6
      Index: 7
      Offset: {x: 0, y: 0}
      FlipX: 0
      FlipY: 0
      Cells:
      - Row: 2
        Coll: 2
    - DelayTime: 0
      Distance: 0.3
      MoveSpeed: 6
      Index: 7
      Offset: {x: 0, y: 0}
      FlipX: 0
      FlipY: 0
      Cells:
      - Row: 3
        Coll: 2
    - DelayTime: 0
      Distance: 0.3
      MoveSpeed: 6
      Index: 7
      Offset: {x: 0, y: 0}
      FlipX: 0
      FlipY: 0
      Cells:
      - Row: 2
        Coll: 1
    - DelayTime: 0
      Distance: 0.3
      MoveSpeed: 6
      Index: 7
      Offset: {x: 0, y: 0}
      FlipX: 0
      FlipY: 0
      Cells:
      - Row: 3
        Coll: 1
    - DelayTime: 0
      Distance: 0.3
      MoveSpeed: 6
      Index: 7
      Offset: {x: 0, y: 0}
      FlipX: 0
      FlipY: 0
      Cells:
      - Row: 1
        Coll: 0
    - DelayTime: 0
      Distance: 0.3
      MoveSpeed: 6
      Index: 7
      Offset: {x: 0, y: 0}
      FlipX: 0
      FlipY: 0
      Cells:
      - Row: 2
        Coll: 0
    - DelayTime: 0
      Distance: 0.3
      MoveSpeed: 6
      Index: 7
      Offset: {x: 0, y: 0}
      FlipX: 0
      FlipY: 0
      Cells:
      - Row: 3
        Coll: 0
    - DelayTime: 0
      Distance: 0.3
      MoveSpeed: 6
      Index: 7
      Offset: {x: 0, y: 0}
      FlipX: 0
      FlipY: 0
      Cells:
      - Row: 4
        Coll: 0
    Enemies:
    - Rows:
      - EnemyId: -1
        PathId: 0
      - EnemyId: 21
        PathId: 0
      - EnemyId: 11
        PathId: 0
      - EnemyId: 11
        PathId: 0
      - EnemyId: 11
        PathId: 0
      - EnemyId: 21
        PathId: 0
      - EnemyId: -1
        PathId: 0
    - Rows:
      - EnemyId: 14
        PathId: 0
      - EnemyId: -1
        PathId: 0
      - EnemyId: -1
        PathId: 0
      - EnemyId: 21
        PathId: 0
      - EnemyId: -1
        PathId: 0
      - EnemyId: -1
        PathId: 0
      - EnemyId: 14
        PathId: 0
    - Rows:
      - EnemyId: 14
        PathId: 0
      - EnemyId: 15
        PathId: 0
      - EnemyId: 22
        PathId: 0
      - EnemyId: -1
        PathId: 0
      - EnemyId: 22
        PathId: 0
      - EnemyId: 15
        PathId: 0
      - EnemyId: 14
        PathId: 0
    - Rows:
      - EnemyId: 14
        PathId: 0
      - EnemyId: 22
        PathId: 0
      - EnemyId: 15
        PathId: 0
      - EnemyId: -1
        PathId: 0
      - EnemyId: 15
        PathId: 0
      - EnemyId: 22
        PathId: 0
      - EnemyId: 14
        PathId: 0
    - Rows:
      - EnemyId: 14
        PathId: 0
      - EnemyId: -1
        PathId: 0
      - EnemyId: -1
        PathId: 0
      - EnemyId: 21
        PathId: 0
      - EnemyId: -1
        PathId: 0
      - EnemyId: -1
        PathId: 0
      - EnemyId: 14
        PathId: 0
    - Rows:
      - EnemyId: -1
        PathId: 0
      - EnemyId: 21
        PathId: 0
      - EnemyId: 8
        PathId: 0
      - EnemyId: 21
        PathId: 0
      - EnemyId: 8
        PathId: 0
      - EnemyId: 21
        PathId: 0
      - EnemyId: -1
        PathId: 0
    - Rows:
      - EnemyId: -1
        PathId: 0
      - EnemyId: -1
        PathId: 0
      - EnemyId: -1
        PathId: 0
      - EnemyId: -1
        PathId: 0
      - EnemyId: -1
        PathId: 0
      - EnemyId: -1
        PathId: 0
      - EnemyId: -1
        PathId: 0
    GiftBox:
      NumGiftBox: 0
      Duration: 0
      Speed: 0
    NumEnemyAttack: 6
    SpeedMoveAttack: 5
    DistanceTimeAttack: 0.3
    LoopTimeAttack: 2
    CombatDiff:
      TimeFireRate: 0
      FireRateDecrease: 0
      TimeEnemyAttack: 0
      EnemyAttackDecease: 0
      IsIncreaseNumberFire: 0
      TimeIncreaseNumberFire: 0
    Boss:
      BossIndex: 1
      Hps: []
    Rock:
      StartPosition: {x: 0, y: 0, z: 0}
      EndPosition: {x: 0, y: 0, z: 0}
      Range: 3
      Speed: 3
      NumSmall: 0
      NumNormal: 0
      NumBig: 0
      Duration: 5
    UseWarning: 0
    WarningPositions: []
    IsShow: 1
  - WaveType: 0
    FireRate: 1
    Hp: 1
    Items:
      List: []
      NumEnemiesCanHaveItem: 0
    HasPower: 0
    NoDam: 0
    IsTeam: 0
    DestroyOnFinish: 0
    IdleType: 0
    TimeMove: 1
    Ease: 0
    Paths:
    - DelayTime: 0
      Distance: 0.3
      MoveSpeed: 8
      Index: 12
      Offset: {x: 0, y: 0}
      FlipX: 0
      FlipY: 0
      Cells:
      - Row: 0
        Coll: 0
      - Row: 1
        Coll: 0
      - Row: 2
        Coll: 0
      - Row: 3
        Coll: 0
      - Row: 4
        Coll: 0
      - Row: 5
        Coll: 0
      - Row: 6
        Coll: 0
      - Row: 0
        Coll: 1
      - Row: 1
        Coll: 1
      - Row: 2
        Coll: 1
      - Row: 3
        Coll: 1
      - Row: 4
        Coll: 1
      - Row: 5
        Coll: 1
      - Row: 6
        Coll: 1
      - Row: 6
        Coll: 2
      - Row: 5
        Coll: 2
      - Row: 4
        Coll: 2
      - Row: 3
        Coll: 2
    - DelayTime: 0
      Distance: 0.3
      MoveSpeed: 8
      Index: 12
      Offset: {x: 0, y: 0}
      FlipX: 1
      FlipY: 0
      Cells:
      - Row: 0
        Coll: 6
      - Row: 2
        Coll: 6
      - Row: 3
        Coll: 6
      - Row: 4
        Coll: 6
      - Row: 5
        Coll: 6
      - Row: 6
        Coll: 6
      - Row: 0
        Coll: 5
      - Row: 1
        Coll: 5
      - Row: 2
        Coll: 5
      - Row: 3
        Coll: 5
      - Row: 4
        Coll: 5
      - Row: 5
        Coll: 5
      - Row: 6
        Coll: 5
      - Row: 6
        Coll: 4
      - Row: 5
        Coll: 4
      - Row: 4
        Coll: 4
      - Row: 3
        Coll: 4
    Enemies:
    - Rows:
      - EnemyId: 21
        PathId: 0
      - EnemyId: 15
        PathId: 0
      - EnemyId: -1
        PathId: 0
      - EnemyId: -1
        PathId: 0
      - EnemyId: -1
        PathId: 0
      - EnemyId: 15
        PathId: 0
      - EnemyId: 21
        PathId: 0
    - Rows:
      - EnemyId: 21
        PathId: 0
      - EnemyId: 11
        PathId: 0
      - EnemyId: -1
        PathId: 0
      - EnemyId: -1
        PathId: 0
      - EnemyId: -1
        PathId: 0
      - EnemyId: 11
        PathId: 0
      - EnemyId: 21
        PathId: 0
    - Rows:
      - EnemyId: 22
        PathId: 0
      - EnemyId: 11
        PathId: 0
      - EnemyId: -1
        PathId: 0
      - EnemyId: -1
        PathId: 0
      - EnemyId: -1
        PathId: 0
      - EnemyId: 11
        PathId: 0
      - EnemyId: 22
        PathId: 0
    - Rows:
      - EnemyId: 22
        PathId: 0
      - EnemyId: 11
        PathId: 0
      - EnemyId: 5
        PathId: 0
      - EnemyId: -1
        PathId: 0
      - EnemyId: 5
        PathId: 0
      - EnemyId: 11
        PathId: 0
      - EnemyId: 22
        PathId: 0
    - Rows:
      - EnemyId: 22
        PathId: 0
      - EnemyId: 11
        PathId: 0
      - EnemyId: 5
        PathId: 0
      - EnemyId: -1
        PathId: 0
      - EnemyId: 5
        PathId: 0
      - EnemyId: 11
        PathId: 0
      - EnemyId: 22
        PathId: 0
    - Rows:
      - EnemyId: 15
        PathId: 0
      - EnemyId: 8
        PathId: 0
      - EnemyId: 8
        PathId: 0
      - EnemyId: -1
        PathId: 0
      - EnemyId: 8
        PathId: 0
      - EnemyId: 8
        PathId: 0
      - EnemyId: 15
        PathId: 0
    - Rows:
      - EnemyId: 15
        PathId: 0
      - EnemyId: 8
        PathId: 0
      - EnemyId: 8
        PathId: 0
      - EnemyId: -1
        PathId: 0
      - EnemyId: 8
        PathId: 0
      - EnemyId: 8
        PathId: 0
      - EnemyId: 15
        PathId: 0
    GiftBox:
      NumGiftBox: 0
      Duration: 0
      Speed: 0
    NumEnemyAttack: 0
    SpeedMoveAttack: 5
    DistanceTimeAttack: 0.3
    LoopTimeAttack: 2
    CombatDiff:
      TimeFireRate: 3
      FireRateDecrease: 0.1
      TimeEnemyAttack: 0
      EnemyAttackDecease: 0
      IsIncreaseNumberFire: 0
      TimeIncreaseNumberFire: 0
    Boss:
      BossIndex: 1
      Hps: []
    Rock:
      StartPosition: {x: 0, y: 0, z: 0}
      EndPosition: {x: 0, y: 0, z: 0}
      Range: 3
      Speed: 3
      NumSmall: 0
      NumNormal: 0
      NumBig: 0
      Duration: 5
    UseWarning: 0
    WarningPositions: []
    IsShow: 1
  - WaveType: 0
    FireRate: 1.5
    Hp: 1
    Items:
      List: []
      NumEnemiesCanHaveItem: 0
    HasPower: 0
    NoDam: 1
    IsTeam: 1
    DestroyOnFinish: 0
    IdleType: 8
    TimeMove: 1.5
    Ease: 0
    Paths:
    - DelayTime: 0
      Distance: 0.3
      MoveSpeed: 4
      Index: 0
      Offset: {x: 0, y: 0}
      FlipX: 0
      FlipY: 0
      Cells:
      - Row: 3
        Coll: 1
    - DelayTime: 0
      Distance: 0.3
      MoveSpeed: 4
      Index: 0
      Offset: {x: 0, y: 0}
      FlipX: 1
      FlipY: 0
      Cells:
      - Row: 3
        Coll: 5
    - DelayTime: 0
      Distance: 0.3
      MoveSpeed: 4
      Index: 9
      Offset: {x: 0, y: 0}
      FlipX: 0
      FlipY: 0
      Cells:
      - Row: 5
        Coll: 3
    Enemies:
    - Rows:
      - EnemyId: -1
        PathId: 0
      - EnemyId: -1
        PathId: 0
      - EnemyId: -1
        PathId: 0
      - EnemyId: -1
        PathId: 0
      - EnemyId: -1
        PathId: 0
      - EnemyId: -1
        PathId: 0
      - EnemyId: -1
        PathId: 0
    - Rows:
      - EnemyId: -1
        PathId: 0
      - EnemyId: -1
        PathId: 0
      - EnemyId: -1
        PathId: 0
      - EnemyId: -1
        PathId: 0
      - EnemyId: -1
        PathId: 0
      - EnemyId: -1
        PathId: 0
      - EnemyId: -1
        PathId: 0
    - Rows:
      - EnemyId: -1
        PathId: 0
      - EnemyId: -1
        PathId: 0
      - EnemyId: -1
        PathId: 0
      - EnemyId: -1
        PathId: 0
      - EnemyId: -1
        PathId: 0
      - EnemyId: -1
        PathId: 0
      - EnemyId: -1
        PathId: 0
    - Rows:
      - EnemyId: -1
        PathId: 0
      - EnemyId: 23
        PathId: 0
      - EnemyId: -1
        PathId: 0
      - EnemyId: -1
        PathId: 0
      - EnemyId: -1
        PathId: 0
      - EnemyId: 23
        PathId: 0
      - EnemyId: -1
        PathId: 0
    - Rows:
      - EnemyId: -1
        PathId: 0
      - EnemyId: -1
        PathId: 0
      - EnemyId: -1
        PathId: 0
      - EnemyId: -1
        PathId: 0
      - EnemyId: -1
        PathId: 0
      - EnemyId: -1
        PathId: 0
      - EnemyId: -1
        PathId: 0
    - Rows:
      - EnemyId: -1
        PathId: 0
      - EnemyId: -1
        PathId: 0
      - EnemyId: -1
        PathId: 0
      - EnemyId: 23
        PathId: 0
      - EnemyId: -1
        PathId: 0
      - EnemyId: -1
        PathId: 0
      - EnemyId: -1
        PathId: 0
    - Rows:
      - EnemyId: -1
        PathId: 0
      - EnemyId: -1
        PathId: 0
      - EnemyId: -1
        PathId: 0
      - EnemyId: -1
        PathId: 0
      - EnemyId: -1
        PathId: 0
      - EnemyId: -1
        PathId: 0
      - EnemyId: -1
        PathId: 0
    GiftBox:
      NumGiftBox: 0
      Duration: 0
      Speed: 0
    NumEnemyAttack: 0
    SpeedMoveAttack: 5
    DistanceTimeAttack: 0.3
    LoopTimeAttack: 2
    CombatDiff:
      TimeFireRate: 3
      FireRateDecrease: 0.1
      TimeEnemyAttack: 0
      EnemyAttackDecease: 0
      IsIncreaseNumberFire: 0
      TimeIncreaseNumberFire: 0
    Boss:
      BossIndex: 1
      Hps: []
    Rock:
      StartPosition: {x: 0, y: 0, z: 0}
      EndPosition: {x: 0, y: 0, z: 0}
      Range: 3
      Speed: 3
      NumSmall: 0
      NumNormal: 0
      NumBig: 0
      Duration: 5
    UseWarning: 0
    WarningPositions: []
    IsShow: 1
  - WaveType: 0
    FireRate: 1
    Hp: 1
    Items:
      List: []
      NumEnemiesCanHaveItem: 0
    HasPower: 0
    NoDam: 1
    IsTeam: 1
    DestroyOnFinish: 0
    IdleType: 9
    TimeMove: 1
    Ease: 0
    Paths:
    - DelayTime: 2
      Distance: 0.3
      MoveSpeed: 4
      Index: 7
      Offset: {x: 0, y: 0}
      FlipX: 0
      FlipY: 0
      Cells: []
    - DelayTime: 0
      Distance: 0.3
      MoveSpeed: 8
      Index: 0
      Offset: {x: 0, y: 0}
      FlipX: 0
      FlipY: 0
      Cells:
      - Row: 4
        Coll: 0
    - DelayTime: 0
      Distance: 0.3
      MoveSpeed: 8
      Index: 0
      Offset: {x: 0, y: 0}
      FlipX: 0
      FlipY: 0
      Cells:
      - Row: 4
        Coll: 1
    - DelayTime: 0
      Distance: 0.3
      MoveSpeed: 8
      Index: 0
      Offset: {x: 0, y: 0}
      FlipX: 0
      FlipY: 0
      Cells:
      - Row: 5
        Coll: 0
    - DelayTime: 0
      Distance: 0.3
      MoveSpeed: 8
      Index: 0
      Offset: {x: 0, y: 0}
      FlipX: 0
      FlipY: 0
      Cells:
      - Row: 5
        Coll: 1
    - DelayTime: 0
      Distance: 0.3
      MoveSpeed: 8
      Index: 0
      Offset: {x: 0, y: 0}
      FlipX: 0
      FlipY: 0
      Cells:
      - Row: 5
        Coll: 2
    - DelayTime: 0
      Distance: 0.3
      MoveSpeed: 8
      Index: 0
      Offset: {x: 0, y: 0}
      FlipX: 0
      FlipY: 0
      Cells:
      - Row: 6
        Coll: 0
    - DelayTime: 0
      Distance: 0.3
      MoveSpeed: 8
      Index: 0
      Offset: {x: 0, y: 0}
      FlipX: 0
      FlipY: 0
      Cells:
      - Row: 6
        Coll: 1
    - DelayTime: 0
      Distance: 0.3
      MoveSpeed: 8
      Index: 0
      Offset: {x: 0, y: 0}
      FlipX: 0
      FlipY: 0
      Cells:
      - Row: 6
        Coll: 2
    - DelayTime: 0.7
      Distance: 0.3
      MoveSpeed: 8
      Index: 0
      Offset: {x: 0, y: 0}
      FlipX: 1
      FlipY: 0
      Cells:
      - Row: 4
        Coll: 5
    - DelayTime: 0.7
      Distance: 0.3
      MoveSpeed: 8
      Index: 0
      Offset: {x: 0, y: 0}
      FlipX: 1
      FlipY: 0
      Cells:
      - Row: 4
        Coll: 6
    - DelayTime: 0.7
      Distance: 0.3
      MoveSpeed: 8
      Index: 0
      Offset: {x: 0, y: 0}
      FlipX: 1
      FlipY: 0
      Cells:
      - Row: 5
        Coll: 4
    - DelayTime: 0.7
      Distance: 0.3
      MoveSpeed: 8
      Index: 0
      Offset: {x: 0, y: 0}
      FlipX: 1
      FlipY: 0
      Cells:
      - Row: 5
        Coll: 5
    - DelayTime: 0.7
      Distance: 0.3
      MoveSpeed: 8
      Index: 0
      Offset: {x: 0, y: 0}
      FlipX: 1
      FlipY: 0
      Cells:
      - Row: 5
        Coll: 6
    - DelayTime: 0.7
      Distance: 0.3
      MoveSpeed: 8
      Index: 0
      Offset: {x: 0, y: 0}
      FlipX: 1
      FlipY: 0
      Cells:
      - Row: 6
        Coll: 4
    - DelayTime: 0.7
      Distance: 0.3
      MoveSpeed: 8
      Index: 0
      Offset: {x: 0, y: 0}
      FlipX: 1
      FlipY: 0
      Cells:
      - Row: 6
        Coll: 5
    - DelayTime: 0.7
      Distance: 0.3
      MoveSpeed: 8
      Index: 0
      Offset: {x: 0, y: 0}
      FlipX: 1
      FlipY: 0
      Cells:
      - Row: 6
        Coll: 6
    - DelayTime: 0
      Distance: 0.3
      MoveSpeed: 8
      Index: 14
      Offset: {x: 0, y: 0}
      FlipX: 0
      FlipY: 0
      Cells:
      - Row: 0
        Coll: 4
    - DelayTime: 0
      Distance: 0.3
      MoveSpeed: 8
      Index: 14
      Offset: {x: 0, y: 0}
      FlipX: 0
      FlipY: 0
      Cells:
      - Row: 0
        Coll: 5
    - DelayTime: 0
      Distance: 0.3
      MoveSpeed: 8
      Index: 14
      Offset: {x: 0, y: 0}
      FlipX: 0
      FlipY: 0
      Cells:
      - Row: 0
        Coll: 6
    - DelayTime: 0
      Distance: 0.3
      MoveSpeed: 8
      Index: 14
      Offset: {x: 0, y: 0}
      FlipX: 0
      FlipY: 0
      Cells:
      - Row: 1
        Coll: 4
    - DelayTime: 0
      Distance: 0.3
      MoveSpeed: 8
      Index: 14
      Offset: {x: 0, y: 0}
      FlipX: 0
      FlipY: 0
      Cells:
      - Row: 1
        Coll: 5
    - DelayTime: 0
      Distance: 0.3
      MoveSpeed: 8
      Index: 14
      Offset: {x: 0, y: 0}
      FlipX: 0
      FlipY: 0
      Cells:
      - Row: 1
        Coll: 6
    - DelayTime: 0
      Distance: 0.3
      MoveSpeed: 8
      Index: 14
      Offset: {x: 0, y: 0}
      FlipX: 0
      FlipY: 0
      Cells:
      - Row: 2
        Coll: 5
    - DelayTime: 0
      Distance: 0.3
      MoveSpeed: 8
      Index: 14
      Offset: {x: 0, y: 0}
      FlipX: 0
      FlipY: 0
      Cells:
      - Row: 2
        Coll: 6
    - DelayTime: 0.7
      Distance: 0.3
      MoveSpeed: 8
      Index: 14
      Offset: {x: 0, y: 0}
      FlipX: 1
      FlipY: 0
      Cells:
      - Row: 0
        Coll: 0
    - DelayTime: 0.7
      Distance: 0.3
      MoveSpeed: 8
      Index: 14
      Offset: {x: 0, y: 0}
      FlipX: 1
      FlipY: 0
      Cells:
      - Row: 0
        Coll: 1
    - DelayTime: 0.7
      Distance: 0.3
      MoveSpeed: 8
      Index: 14
      Offset: {x: 0, y: 0}
      FlipX: 1
      FlipY: 0
      Cells:
      - Row: 0
        Coll: 2
    - DelayTime: 0.7
      Distance: 0.3
      MoveSpeed: 8
      Index: 14
      Offset: {x: 0, y: 0}
      FlipX: 1
      FlipY: 0
      Cells:
      - Row: 1
        Coll: 0
    - DelayTime: 0.7
      Distance: 0.3
      MoveSpeed: 8
      Index: 14
      Offset: {x: 0, y: 0}
      FlipX: 1
      FlipY: 0
      Cells:
      - Row: 1
        Coll: 1
    - DelayTime: 0.7
      Distance: 0.3
      MoveSpeed: 8
      Index: 14
      Offset: {x: 0, y: 0}
      FlipX: 1
      FlipY: 0
      Cells:
      - Row: 1
        Coll: 2
    - DelayTime: 0.7
      Distance: 0.3
      MoveSpeed: 8
      Index: 14
      Offset: {x: 0, y: 0}
      FlipX: 1
      FlipY: 0
      Cells:
      - Row: 2
        Coll: 0
    - DelayTime: 0.7
      Distance: 0.3
      MoveSpeed: 8
      Index: 14
      Offset: {x: 0, y: 0}
      FlipX: 1
      FlipY: 0
      Cells:
      - Row: 3
        Coll: 3
      - Row: 2
        Coll: 1
    Enemies:
    - Rows:
      - EnemyId: 19
        PathId: 0
      - EnemyId: 19
        PathId: 0
      - EnemyId: 19
        PathId: 0
      - EnemyId: -1
        PathId: 0
      - EnemyId: 18
        PathId: 0
      - EnemyId: 18
        PathId: 0
      - EnemyId: 18
        PathId: 0
    - Rows:
      - EnemyId: 19
        PathId: 0
      - EnemyId: 21
        PathId: 0
      - EnemyId: 21
        PathId: 0
      - EnemyId: -1
        PathId: 0
      - EnemyId: 21
        PathId: 0
      - EnemyId: 21
        PathId: 0
      - EnemyId: 18
        PathId: 0
    - Rows:
      - EnemyId: 19
        PathId: 0
      - EnemyId: 21
        PathId: 0
      - EnemyId: -1
        PathId: 0
      - EnemyId: -1
        PathId: 0
      - EnemyId: -1
        PathId: 0
      - EnemyId: 21
        PathId: 0
      - EnemyId: 18
        PathId: 0
    - Rows:
      - EnemyId: -1
        PathId: 0
      - EnemyId: -1
        PathId: 0
      - EnemyId: -1
        PathId: 0
      - EnemyId: 23
        PathId: 0
      - EnemyId: -1
        PathId: 0
      - EnemyId: -1
        PathId: 0
      - EnemyId: -1
        PathId: 0
    - Rows:
      - EnemyId: 18
        PathId: 0
      - EnemyId: 21
        PathId: 0
      - EnemyId: -1
        PathId: 0
      - EnemyId: -1
        PathId: 0
      - EnemyId: -1
        PathId: 0
      - EnemyId: 21
        PathId: 0
      - EnemyId: 19
        PathId: 0
    - Rows:
      - EnemyId: 18
        PathId: 0
      - EnemyId: 21
        PathId: 0
      - EnemyId: 21
        PathId: 0
      - EnemyId: -1
        PathId: 0
      - EnemyId: 21
        PathId: 0
      - EnemyId: 21
        PathId: 0
      - EnemyId: 19
        PathId: 0
    - Rows:
      - EnemyId: 18
        PathId: 0
      - EnemyId: 18
        PathId: 0
      - EnemyId: 18
        PathId: 0
      - EnemyId: -1
        PathId: 0
      - EnemyId: 19
        PathId: 0
      - EnemyId: 19
        PathId: 0
      - EnemyId: 19
        PathId: 0
    GiftBox:
      NumGiftBox: 0
      Duration: 0
      Speed: 0
    NumEnemyAttack: 0
    SpeedMoveAttack: 5
    DistanceTimeAttack: 0.3
    LoopTimeAttack: 2
    CombatDiff:
      TimeFireRate: 3
      FireRateDecrease: 0.1
      TimeEnemyAttack: 0
      EnemyAttackDecease: 0
      IsIncreaseNumberFire: 0
      TimeIncreaseNumberFire: 0
    Boss:
      BossIndex: 1
      Hps: []
    Rock:
      StartPosition: {x: 0, y: 0, z: 0}
      EndPosition: {x: 0, y: 0, z: 0}
      Range: 3
      Speed: 3
      NumSmall: 0
      NumNormal: 0
      NumBig: 0
      Duration: 5
    UseWarning: 0
    WarningPositions: []
    IsShow: 1
  - WaveType: 0
    FireRate: 1
    Hp: 1
    Items:
      List: []
      NumEnemiesCanHaveItem: 0
    HasPower: 0
    NoDam: 1
    IsTeam: 1
    DestroyOnFinish: 0
    IdleType: 9
    TimeMove: 1
    Ease: 0
    Paths:
    - DelayTime: 0
      Distance: 0.3
      MoveSpeed: 8
      Index: 14
      Offset: {x: 0, y: 0}
      FlipX: 0
      FlipY: 0
      Cells:
      - Row: 4
        Coll: 3
    - DelayTime: 0.3
      Distance: 0.3
      MoveSpeed: 8
      Index: 14
      Offset: {x: 0, y: 0}
      FlipX: 1
      FlipY: 0
      Cells:
      - Row: 3
        Coll: 4
    - DelayTime: 0.6
      Distance: 0.3
      MoveSpeed: 8
      Index: 0
      Offset: {x: 0, y: 0}
      FlipX: 0
      FlipY: 0
      Cells:
      - Row: 2
        Coll: 3
    - DelayTime: 0.9
      Distance: 0.3
      MoveSpeed: 8
      Index: 0
      Offset: {x: 0, y: 0}
      FlipX: 1
      FlipY: 0
      Cells:
      - Row: 3
        Coll: 2
    - DelayTime: 1.2
      Distance: 0.3
      MoveSpeed: 8
      Index: 14
      Offset: {x: 0, y: 0}
      FlipX: 0
      FlipY: 0
      Cells:
      - Row: 4
        Coll: 2
    - DelayTime: 1.2
      Distance: 0.3
      MoveSpeed: 8
      Index: 14
      Offset: {x: 0, y: 0}
      FlipX: 0
      FlipY: 0
      Cells:
      - Row: 5
        Coll: 3
    - DelayTime: 1.5
      Distance: 0.3
      MoveSpeed: 8
      Index: 14
      Offset: {x: 0, y: 0}
      FlipX: 1
      FlipY: 0
      Cells:
      - Row: 3
        Coll: 5
    - DelayTime: 1.5
      Distance: 0.3
      MoveSpeed: 8
      Index: 14
      Offset: {x: 0, y: 0}
      FlipX: 1
      FlipY: 0
      Cells:
      - Row: 4
        Coll: 4
    - DelayTime: 1.8
      Distance: 0.3
      MoveSpeed: 8
      Index: 0
      Offset: {x: 0, y: 0}
      FlipX: 0
      FlipY: 0
      Cells:
      - Row: 2
        Coll: 4
    - DelayTime: 1.8
      Distance: 0.3
      MoveSpeed: 8
      Index: 0
      Offset: {x: 0, y: 0}
      FlipX: 0
      FlipY: 0
      Cells:
      - Row: 1
        Coll: 3
    - DelayTime: 2.1
      Distance: 0.3
      MoveSpeed: 8
      Index: 0
      Offset: {x: 0, y: 0}
      FlipX: 1
      FlipY: 0
      Cells:
      - Row: 2
        Coll: 2
    - DelayTime: 2.1
      Distance: 0.3
      MoveSpeed: 8
      Index: 0
      Offset: {x: 0, y: 0}
      FlipX: 1
      FlipY: 0
      Cells:
      - Row: 3
        Coll: 1
    - DelayTime: 2.4
      Distance: 0.3
      MoveSpeed: 8
      Index: 14
      Offset: {x: 0, y: 0}
      FlipX: 0
      FlipY: 0
      Cells:
      - Row: 4
        Coll: 1
    - DelayTime: 2.4
      Distance: 0.3
      MoveSpeed: 8
      Index: 14
      Offset: {x: 0, y: 0}
      FlipX: 0
      FlipY: 0
      Cells:
      - Row: 5
        Coll: 2
    - DelayTime: 2.4
      Distance: 0.3
      MoveSpeed: 8
      Index: 14
      Offset: {x: 0, y: 0}
      FlipX: 0
      FlipY: 0
      Cells:
      - Row: 6
        Coll: 3
    - DelayTime: 2.7
      Distance: 0.3
      MoveSpeed: 8
      Index: 14
      Offset: {x: 0, y: 0}
      FlipX: 1
      FlipY: 0
      Cells:
      - Row: 5
        Coll: 4
    - DelayTime: 2.7
      Distance: 0.3
      MoveSpeed: 8
      Index: 14
      Offset: {x: 0, y: 0}
      FlipX: 1
      FlipY: 0
      Cells:
      - Row: 4
        Coll: 5
    - DelayTime: 2.7
      Distance: 0.3
      MoveSpeed: 8
      Index: 14
      Offset: {x: 0, y: 0}
      FlipX: 1
      FlipY: 0
      Cells:
      - Row: 3
        Coll: 6
    - DelayTime: 3
      Distance: 0.3
      MoveSpeed: 8
      Index: 0
      Offset: {x: 0, y: 0}
      FlipX: 0
      FlipY: 0
      Cells:
      - Row: 2
        Coll: 5
    - DelayTime: 3
      Distance: 0.3
      MoveSpeed: 8
      Index: 0
      Offset: {x: 0, y: 0}
      FlipX: 0
      FlipY: 0
      Cells:
      - Row: 1
        Coll: 4
    - DelayTime: 3
      Distance: 0.3
      MoveSpeed: 8
      Index: 0
      Offset: {x: 0, y: 0}
      FlipX: 0
      FlipY: 0
      Cells:
      - Row: 0
        Coll: 3
    - DelayTime: 3.3
      Distance: 0.3
      MoveSpeed: 8
      Index: 0
      Offset: {x: 0, y: 0}
      FlipX: 1
      FlipY: 0
      Cells:
      - Row: 1
        Coll: 2
    - DelayTime: 3.3
      Distance: 0.3
      MoveSpeed: 8
      Index: 0
      Offset: {x: 0, y: 0}
      FlipX: 1
      FlipY: 0
      Cells:
      - Row: 2
        Coll: 1
    - DelayTime: 3.3
      Distance: 0.3
      MoveSpeed: 8
      Index: 0
      Offset: {x: 0, y: 0}
      FlipX: 1
      FlipY: 0
      Cells:
      - Row: 3
        Coll: 0
    Enemies:
    - Rows:
      - EnemyId: -1
        PathId: 0
      - EnemyId: -1
        PathId: 0
      - EnemyId: -1
        PathId: 0
      - EnemyId: 21
        PathId: 0
      - EnemyId: -1
        PathId: 0
      - EnemyId: -1
        PathId: 0
      - EnemyId: -1
        PathId: 0
    - Rows:
      - EnemyId: -1
        PathId: 0
      - EnemyId: -1
        PathId: 0
      - EnemyId: 21
        PathId: 0
      - EnemyId: 22
        PathId: 0
      - EnemyId: 21
        PathId: 0
      - EnemyId: -1
        PathId: 0
      - EnemyId: -1
        PathId: 0
    - Rows:
      - EnemyId: -1
        PathId: 0
      - EnemyId: 21
        PathId: 0
      - EnemyId: 22
        PathId: 0
      - EnemyId: 18
        PathId: 0
      - EnemyId: 22
        PathId: 0
      - EnemyId: 21
        PathId: 0
      - EnemyId: -1
        PathId: 0
    - Rows:
      - EnemyId: 21
        PathId: 0
      - EnemyId: 22
        PathId: 0
      - EnemyId: 18
        PathId: 0
      - EnemyId: -1
        PathId: 0
      - EnemyId: 18
        PathId: 0
      - EnemyId: 22
        PathId: 0
      - EnemyId: 21
        PathId: 0
    - Rows:
      - EnemyId: -1
        PathId: 0
      - EnemyId: 21
        PathId: 0
      - EnemyId: 22
        PathId: 0
      - EnemyId: 18
        PathId: 0
      - EnemyId: 22
        PathId: 0
      - EnemyId: 21
        PathId: 0
      - EnemyId: -1
        PathId: 0
    - Rows:
      - EnemyId: -1
        PathId: 0
      - EnemyId: -1
        PathId: 0
      - EnemyId: 21
        PathId: 0
      - EnemyId: 22
        PathId: 0
      - EnemyId: 21
        PathId: 0
      - EnemyId: -1
        PathId: 0
      - EnemyId: -1
        PathId: 0
    - Rows:
      - EnemyId: -1
        PathId: 0
      - EnemyId: -1
        PathId: 0
      - EnemyId: -1
        PathId: 0
      - EnemyId: 21
        PathId: 0
      - EnemyId: -1
        PathId: 0
      - EnemyId: -1
        PathId: 0
      - EnemyId: -1
        PathId: 0
    GiftBox:
      NumGiftBox: 0
      Duration: 0
      Speed: 0
    NumEnemyAttack: 0
    SpeedMoveAttack: 5
    DistanceTimeAttack: 0.3
    LoopTimeAttack: 2
    CombatDiff:
      TimeFireRate: 0
      FireRateDecrease: 0
      TimeEnemyAttack: 0
      EnemyAttackDecease: 0
      IsIncreaseNumberFire: 0
      TimeIncreaseNumberFire: 0
    Boss:
      BossIndex: 1
      Hps: []
    Rock:
      StartPosition: {x: 0, y: 0, z: 0}
      EndPosition: {x: 0, y: 0, z: 0}
      Range: 3
      Speed: 3
      NumSmall: 0
      NumNormal: 0
      NumBig: 0
      Duration: 5
    UseWarning: 0
    WarningPositions: []
    IsShow: 1
  - WaveType: 0
    FireRate: 1
    Hp: 1
    Items:
      List:
      - Type: 1
        Num: 1
      NumEnemiesCanHaveItem: 10
    HasPower: 0
    NoDam: 0
    IsTeam: 0
    DestroyOnFinish: 0
    IdleType: 8
    TimeMove: 1
    Ease: 0
    Paths:
    - DelayTime: 0
      Distance: 0.3
      MoveSpeed: 7
      Index: 8
      Offset: {x: 0, y: 0}
      FlipX: 0
      FlipY: 0
      Cells:
      - Row: 0
        Coll: 0
      - Row: 1
        Coll: 0
      - Row: 2
        Coll: 0
      - Row: 3
        Coll: 0
      - Row: 4
        Coll: 0
      - Row: 5
        Coll: 0
      - Row: 6
        Coll: 0
      - Row: 0
        Coll: 1
      - Row: 1
        Coll: 1
      - Row: 2
        Coll: 1
      - Row: 3
        Coll: 1
      - Row: 4
        Coll: 1
      - Row: 5
        Coll: 1
      - Row: 6
        Coll: 1
      - Row: 6
        Coll: 2
      - Row: 5
        Coll: 2
    - DelayTime: 0
      Distance: 0.3
      MoveSpeed: 7
      Index: 8
      Offset: {x: 0, y: 0}
      FlipX: 1
      FlipY: 0
      Cells:
      - Row: 0
        Coll: 6
      - Row: 1
        Coll: 6
      - Row: 2
        Coll: 6
      - Row: 3
        Coll: 6
      - Row: 4
        Coll: 6
      - Row: 5
        Coll: 6
      - Row: 6
        Coll: 6
      - Row: 0
        Coll: 5
      - Row: 1
        Coll: 5
      - Row: 2
        Coll: 5
      - Row: 3
        Coll: 5
      - Row: 4
        Coll: 5
      - Row: 5
        Coll: 5
      - Row: 6
        Coll: 5
      - Row: 6
        Coll: 4
      - Row: 5
        Coll: 4
    Enemies:
    - Rows:
      - EnemyId: 21
        PathId: 0
      - EnemyId: 22
        PathId: 0
      - EnemyId: -1
        PathId: 0
      - EnemyId: -1
        PathId: 0
      - EnemyId: -1
        PathId: 0
      - EnemyId: 22
        PathId: 0
      - EnemyId: 21
        PathId: 0
    - Rows:
      - EnemyId: 22
        PathId: 0
      - EnemyId: 18
        PathId: 0
      - EnemyId: -1
        PathId: 0
      - EnemyId: -1
        PathId: 0
      - EnemyId: -1
        PathId: 0
      - EnemyId: 18
        PathId: 0
      - EnemyId: 22
        PathId: 0
    - Rows:
      - EnemyId: 22
        PathId: 0
      - EnemyId: 18
        PathId: 0
      - EnemyId: -1
        PathId: 0
      - EnemyId: -1
        PathId: 0
      - EnemyId: -1
        PathId: 0
      - EnemyId: 18
        PathId: 0
      - EnemyId: 22
        PathId: 0
    - Rows:
      - EnemyId: 22
        PathId: 0
      - EnemyId: 18
        PathId: 0
      - EnemyId: -1
        PathId: 0
      - EnemyId: -1
        PathId: 0
      - EnemyId: -1
        PathId: 0
      - EnemyId: 18
        PathId: 0
      - EnemyId: 22
        PathId: 0
    - Rows:
      - EnemyId: 21
        PathId: 0
      - EnemyId: 21
        PathId: 0
      - EnemyId: -1
        PathId: 0
      - EnemyId: -1
        PathId: 0
      - EnemyId: -1
        PathId: 0
      - EnemyId: 21
        PathId: 0
      - EnemyId: 21
        PathId: 0
    - Rows:
      - EnemyId: 21
        PathId: 0
      - EnemyId: 21
        PathId: 0
      - EnemyId: 19
        PathId: 0
      - EnemyId: -1
        PathId: 0
      - EnemyId: 19
        PathId: 0
      - EnemyId: 21
        PathId: 0
      - EnemyId: 21
        PathId: 0
    - Rows:
      - EnemyId: 22
        PathId: 0
      - EnemyId: 19
        PathId: 0
      - EnemyId: 19
        PathId: 0
      - EnemyId: -1
        PathId: 0
      - EnemyId: 19
        PathId: 0
      - EnemyId: 19
        PathId: 0
      - EnemyId: 22
        PathId: 0
    GiftBox:
      NumGiftBox: 0
      Duration: 0
      Speed: 0
    NumEnemyAttack: 2
    SpeedMoveAttack: 15
    DistanceTimeAttack: 0.3
    LoopTimeAttack: 3
    CombatDiff:
      TimeFireRate: 0
      FireRateDecrease: 0
      TimeEnemyAttack: 3
      EnemyAttackDecease: 0.2
      IsIncreaseNumberFire: 0
      TimeIncreaseNumberFire: 0
    Boss:
      BossIndex: 1
      Hps: []
    Rock:
      StartPosition: {x: 0, y: 0, z: 0}
      EndPosition: {x: 0, y: 0, z: 0}
      Range: 3
      Speed: 3
      NumSmall: 0
      NumNormal: 0
      NumBig: 0
      Duration: 5
    UseWarning: 0
    WarningPositions: []
    IsShow: 1
  - WaveType: 0
    FireRate: 1
    Hp: 1
    Items:
      List: []
      NumEnemiesCanHaveItem: 0
    HasPower: 0
    NoDam: 1
    IsTeam: 1
    DestroyOnFinish: 0
    IdleType: 8
    TimeMove: 1
    Ease: 0
    Paths:
    - DelayTime: 0
      Distance: 0.3
      MoveSpeed: 6
      Index: 4
      Offset: {x: 0, y: 0}
      FlipX: 0
      FlipY: 0
      Cells:
      - Row: 0
        Coll: 2
      - Row: 1
        Coll: 2
      - Row: 2
        Coll: 2
      - Row: 1
        Coll: 1
      - Row: 2
        Coll: 1
      - Row: 1
        Coll: 0
      - Row: 2
        Coll: 0
    - DelayTime: 0
      Distance: 0.3
      MoveSpeed: 6
      Index: 4
      Offset: {x: 0, y: 0}
      FlipX: 1
      FlipY: 0
      Cells:
      - Row: 0
        Coll: 4
      - Row: 1
        Coll: 4
      - Row: 2
        Coll: 4
      - Row: 1
        Coll: 5
      - Row: 2
        Coll: 5
      - Row: 1
        Coll: 6
      - Row: 2
        Coll: 6
    - DelayTime: 1
      Distance: 0.3
      MoveSpeed: 4
      Index: 15
      Offset: {x: 0, y: 0}
      FlipX: 0
      FlipY: 0
      Cells:
      - Row: 5
        Coll: 5
    - DelayTime: 1
      Distance: 0.3
      MoveSpeed: 4
      Index: 15
      Offset: {x: 0, y: 0}
      FlipX: 1
      FlipY: 0
      Cells:
      - Row: 5
        Coll: 1
    Enemies:
    - Rows:
      - EnemyId: -1
        PathId: 0
      - EnemyId: -1
        PathId: 0
      - EnemyId: 22
        PathId: 0
      - EnemyId: -1
        PathId: 0
      - EnemyId: 22
        PathId: 0
      - EnemyId: -1
        PathId: 0
      - EnemyId: -1
        PathId: 0
    - Rows:
      - EnemyId: 21
        PathId: 0
      - EnemyId: 21
        PathId: 0
      - EnemyId: 22
        PathId: 0
      - EnemyId: -1
        PathId: 0
      - EnemyId: 22
        PathId: 0
      - EnemyId: 21
        PathId: 0
      - EnemyId: 21
        PathId: 0
    - Rows:
      - EnemyId: 21
        PathId: 0
      - EnemyId: 22
        PathId: 0
      - EnemyId: 21
        PathId: 0
      - EnemyId: -1
        PathId: 0
      - EnemyId: 21
        PathId: 0
      - EnemyId: 22
        PathId: 0
      - EnemyId: 21
        PathId: 0
    - Rows:
      - EnemyId: -1
        PathId: 0
      - EnemyId: -1
        PathId: 0
      - EnemyId: -1
        PathId: 0
      - EnemyId: -1
        PathId: 0
      - EnemyId: -1
        PathId: 0
      - EnemyId: -1
        PathId: 0
      - EnemyId: -1
        PathId: 0
    - Rows:
      - EnemyId: -1
        PathId: 0
      - EnemyId: -1
        PathId: 0
      - EnemyId: -1
        PathId: 0
      - EnemyId: -1
        PathId: 0
      - EnemyId: -1
        PathId: 0
      - EnemyId: -1
        PathId: 0
      - EnemyId: -1
        PathId: 0
    - Rows:
      - EnemyId: -1
        PathId: 0
      - EnemyId: 23
        PathId: 0
      - EnemyId: -1
        PathId: 0
      - EnemyId: -1
        PathId: 0
      - EnemyId: -1
        PathId: 0
      - EnemyId: 23
        PathId: 0
      - EnemyId: -1
        PathId: 0
    - Rows:
      - EnemyId: -1
        PathId: 0
      - EnemyId: -1
        PathId: 0
      - EnemyId: -1
        PathId: 0
      - EnemyId: -1
        PathId: 0
      - EnemyId: -1
        PathId: 0
      - EnemyId: -1
        PathId: 0
      - EnemyId: -1
        PathId: 0
    GiftBox:
      NumGiftBox: 0
      Duration: 0
      Speed: 0
    NumEnemyAttack: 0
    SpeedMoveAttack: 5
    DistanceTimeAttack: 0.3
    LoopTimeAttack: 2
    CombatDiff:
      TimeFireRate: 3
      FireRateDecrease: 0.1
      TimeEnemyAttack: 0
      EnemyAttackDecease: 0
      IsIncreaseNumberFire: 0
      TimeIncreaseNumberFire: 0
    Boss:
      BossIndex: 1
      Hps: []
    Rock:
      StartPosition: {x: 0, y: 0, z: 0}
      EndPosition: {x: 0, y: 0, z: 0}
      Range: 3
      Speed: 3
      NumSmall: 0
      NumNormal: 0
      NumBig: 0
      Duration: 5
    UseWarning: 0
    WarningPositions: []
    IsShow: 1
